<?xml version="1.0" standalone="no"?>
<!DOCTYPE svg PUBLIC "-//W3C//DTD SVG 20010904//EN"
 "http://www.w3.org/TR/2001/REC-SVG-20010904/DTD/svg10.dtd">
<svg version="1.0" xmlns="http://www.w3.org/2000/svg"
 width="50.000000pt" height="50.000000pt" viewBox="0 0 64.000000 64.000000"
 preserveAspectRatio="xMidYMid meet">
<metadata>
Created by potrace 1.16, written by Peter Selinger 2001-2019
</metadata>
<g transform="translate(0.000000,64.000000) scale(0.100000,-0.100000)"
fill="#fff" stroke="none">
<path d="M234 595 c-45 -20 -58 -41 -58 -96 0 -27 -3 -49 -7 -49 -23 0 -15
-82 9 -100 10 -7 34 -51 30 -55 -2 -1 -37 -21 -78 -45 -101 -57 -110 -70 -110
-152 l0 -68 198 -2 c108 -1 206 -1 217 -1 11 0 24 -6 28 -13 11 -19 66 -18 73
1 4 10 14 13 28 9 28 -7 60 27 52 54 -4 13 -1 22 9 26 20 7 20 65 0 72 -10 4
-13 14 -9 28 7 28 -27 60 -54 52 -13 -4 -22 -1 -26 9 -3 9 -18 15 -36 15 -17
0 -40 5 -51 10 -16 9 -17 14 -6 33 6 12 15 24 19 27 25 19 31 100 7 100 -5 0
-9 7 -9 15 0 8 5 15 10 15 31 0 -8 83 -53 110 -38 24 -135 26 -183 5z m184
-49 c20 -20 23 -28 14 -39 -15 -18 -5 -77 14 -84 18 -7 18 -18 0 -35 -7 -8
-23 -33 -35 -55 -25 -50 -55 -73 -94 -73 -33 0 -67 32 -111 104 -26 44 -27 48
-11 60 14 10 16 21 11 48 -11 59 5 83 66 100 64 18 111 10 146 -26z m-166
-296 c29 -27 104 -27 138 0 14 11 29 20 34 20 5 0 -3 -10 -18 -21 -20 -16 -26
-28 -22 -44 4 -15 1 -25 -9 -29 -19 -7 -20 -62 0 -73 9 -5 12 -17 8 -31 -5
-22 -7 -22 -172 -20 -187 3 -186 2 -159 83 11 34 24 46 93 87 44 26 81 47 83
48 2 0 12 -9 24 -20z m258 -10 c0 -19 13 -25 52 -22 11 1 17 -5 16 -16 -3 -39
3 -52 22 -52 11 0 20 -4 20 -10 0 -5 -9 -10 -20 -10 -19 0 -25 -13 -22 -52 1
-11 -5 -17 -16 -16 -39 3 -52 -3 -52 -22 0 -11 -4 -20 -10 -20 -5 0 -10 9 -10
20 0 19 -13 25 -52 22 -11 -1 -17 5 -16 16 3 39 -3 52 -22 52 -11 0 -20 5 -20
10 0 6 9 10 20 10 19 0 25 13 22 52 -1 11 5 17 16 16 39 -3 52 3 52 22 0 11 5
20 10 20 6 0 10 -9 10 -20z"/>
</g>
</svg>
