<svg width="32" height="25" viewBox="0 0 32 25" fill="none" xmlns="http://www.w3.org/2000/svg">
<path d="M10.587 23.6613L14.0086 23.1312C15.1261 22.954 16.2645 22.954 17.382 23.1312L20.7988 23.6613" stroke="#0085CA" stroke-width="1.75346" stroke-linecap="round" stroke-linejoin="round"/>
<path d="M15.7001 22.7605V19.657" stroke="#0085CA" stroke-width="1.75346" stroke-linecap="round" stroke-linejoin="round"/>
<path d="M1.2041 13.2038V16.5338C1.2041 18.1096 1.51735 19.3963 3.93173 19.3963H27.478C28.2185 19.3761 28.921 19.0638 29.432 18.5275C29.943 17.9911 30.2211 17.2744 30.2056 16.5338V4.67872C30.2211 3.93808 29.943 3.22136 29.432 2.68504C28.921 2.14872 28.2185 1.83636 27.478 1.81616H3.94136C1.5318 1.81616 1.21373 3.10287 1.21373 4.67872V9.72916" stroke="#0085CA" stroke-width="1.75346" stroke-linecap="round" stroke-linejoin="round"/>
</svg>
