<svg width="26" height="25" viewBox="0 0 26 25" fill="none" xmlns="http://www.w3.org/2000/svg">
<path d="M4.65615 20.1644C4.71865 20.1644 4.78115 20.1584 4.84365 20.1494L10.0999 19.2644C10.1624 19.2524 10.2218 19.2254 10.2655 19.1804L23.5124 6.46336C23.5414 6.4356 23.5644 6.40264 23.58 6.36634C23.5957 6.33005 23.6038 6.29115 23.6038 6.25186C23.6038 6.21256 23.5957 6.17366 23.58 6.13737C23.5644 6.10108 23.5414 6.06811 23.5124 6.04036L18.3187 1.05136C18.2593 0.994356 18.1812 0.964355 18.0968 0.964355C18.0124 0.964355 17.9343 0.994356 17.8749 1.05136L4.62803 13.7684C4.58115 13.8134 4.55303 13.8674 4.54053 13.9274L3.61865 18.9734C3.58825 19.1341 3.59911 19.2995 3.6503 19.4552C3.70148 19.611 3.79145 19.7525 3.9124 19.8674C4.11865 20.0594 4.37803 20.1644 4.65615 20.1644ZM6.7624 14.9324L18.0968 4.05436L20.3874 6.25336L9.05303 17.1314L6.2749 17.6024L6.7624 14.9324ZM24.103 22.6844H1.10303C0.549902 22.6844 0.103027 23.1134 0.103027 23.6444V24.7244C0.103027 24.8564 0.215527 24.9644 0.353027 24.9644H24.853C24.9905 24.9644 25.103 24.8564 25.103 24.7244V23.6444C25.103 23.1134 24.6562 22.6844 24.103 22.6844Z" fill="#0085ca"/>
</svg>
