<svg width="59" height="50" viewBox="0 0 59 50" fill="none" xmlns="http://www.w3.org/2000/svg">
<path d="M56.5302 12.0858L44.8343 0.389864C44.6069 0.162443 44.2495 0 43.9246 0H24.6589C24.334 0 23.9766 0.129955 23.7492 0.389864L1.52697 22.4172C0.552307 23.3918 0 24.7238 0 26.1209C0 27.5179 0.552307 28.8174 1.52697 29.8246L20.1754 48.473C21.1826 49.4802 22.5146 50 23.8791 50C25.2112 50 26.5432 49.4802 27.5828 48.473L48.6355 27.4204C49.1553 26.9006 49.1553 26.0884 48.6355 25.601C48.1157 25.0812 47.3034 25.0812 46.8161 25.601L25.7635 46.6537C25.2762 47.141 24.5939 47.4334 23.9116 47.4334C23.2294 47.4334 22.5471 47.1735 22.0598 46.6537L3.41131 28.0052C2.92398 27.5179 2.63158 26.8356 2.63158 26.1533C2.63158 25.4711 2.89149 24.7888 3.37882 24.3015L25.2112 2.66407H43.4373L54.7108 13.9051C55.1982 14.3925 55.4906 15.0747 55.4906 15.757C55.4906 16.4392 55.2307 17.1215 54.7108 17.6088L54.6784 17.6413L51.1046 21.41C50.6173 21.9298 50.6498 22.742 51.1696 23.2294C51.6894 23.7167 52.5016 23.6842 52.989 23.1644L56.5627 19.3957C57.5374 18.4211 58.0572 17.1215 58.0572 15.7245C58.0572 14.3925 57.5049 13.0604 56.5302 12.0858Z" fill="#636569"/>
<path d="M18.3235 23.1969L23.7816 17.7388C24.3014 17.219 24.3014 16.4068 23.7816 15.9194C23.2618 15.3996 22.4495 15.3996 21.9622 15.9194L16.5041 21.3775C15.9843 21.8973 15.9843 22.7096 16.5041 23.1969C16.764 23.4568 17.0889 23.5868 17.4138 23.5868C17.7387 23.5868 18.0636 23.4568 18.3235 23.1969Z" fill="#636569"/>
<path d="M13.7431 24.1392L11.5988 26.2834C11.079 26.8033 11.079 27.6155 11.5988 28.1028C11.8588 28.3627 12.1836 28.4927 12.5085 28.4927C12.8334 28.4927 13.1583 28.3627 13.4182 28.1028L15.5625 25.9586C16.0823 25.4387 16.0823 24.6265 15.5625 24.1392C15.0426 23.6194 14.2304 23.6194 13.7431 24.1392Z" fill="#636569"/>
<path d="M17.6413 33.6257C17.9662 33.6257 18.2911 33.4957 18.551 33.2358L24.0091 27.7777C24.5289 27.2579 24.5289 26.4457 24.0091 25.9583C23.4893 25.4385 22.6771 25.4385 22.1898 25.9583L16.7317 31.4164C16.2118 31.9363 16.2118 32.7485 16.7317 33.2358C16.9916 33.4957 17.3165 33.6257 17.6413 33.6257Z" fill="#636569"/>
<path d="M28.914 22.8719C29.4338 22.352 29.4338 21.5398 28.914 21.0525C28.3942 20.5327 27.582 20.5327 27.0947 21.0525L24.9504 23.1967C24.4306 23.7166 24.4306 24.5288 24.9504 25.0161C25.2103 25.276 25.5352 25.406 25.8601 25.406C26.185 25.406 26.5099 25.276 26.7698 25.0161L28.914 22.8719Z" fill="#636569"/>
<path d="M27.6804 33.8533C28.0053 33.8533 28.3302 33.7233 28.5901 33.4634L34.0482 28.0053C34.568 27.4855 34.568 26.6733 34.0482 26.1859C33.5284 25.6661 32.7161 25.6661 32.2288 26.1859L26.7707 31.644C26.2509 32.1639 26.2509 32.9761 26.7707 33.4634C27.0306 33.7233 27.3555 33.8533 27.6804 33.8533Z" fill="#636569"/>
<path d="M22.7742 38.7592C23.099 38.7592 23.4239 38.6292 23.6838 38.3693L25.8281 36.2251C26.3479 35.7052 26.3479 34.893 25.8281 34.4057C25.3083 33.8859 24.4961 33.8859 24.0087 34.4057L21.8645 36.5499C21.3447 37.0698 21.3447 37.882 21.8645 38.3693C22.1244 38.6292 22.4493 38.7592 22.7742 38.7592Z" fill="#636569"/>
</svg>
