<svg width="52" height="52" viewBox="0 0 52 52" fill="none" xmlns="http://www.w3.org/2000/svg">
<path d="M27.6611 25.7067V10.9799C27.6611 10.1002 26.8792 9.38341 25.9995 9.38341C25.1849 9.38341 24.4355 10.1002 24.4355 10.9799V25.9348C24.4355 25.9674 24.5007 26.0651 24.5007 26.1629C24.4355 26.6842 24.5985 27.1077 24.9243 27.4335L33.428 35.9373C33.9819 36.4912 35.0571 36.4912 35.611 35.9373C36.2626 35.2857 36.23 34.3408 35.611 33.7218L27.6611 25.7067Z" fill="#636569"/>
<path d="M50.2406 27.7594C49.4586 27.7594 48.807 28.3459 48.6767 29.0952C48.2857 32.0276 47.3409 34.797 45.8095 37.4035C43.7569 40.8897 40.9875 43.6917 37.4687 45.7444C33.9825 47.797 30.1378 48.807 26 48.807C22.9048 48.807 19.9398 48.2206 17.1378 46.9825C14.3358 45.7769 11.8922 44.1479 9.87218 42.1278C7.85213 40.1078 6.22306 37.6316 5.01754 34.8296C3.81203 32.0276 3.22556 29.0301 3.22556 25.9348C3.22556 21.406 4.43108 17.2682 6.87469 13.4887C8.56892 10.8822 10.7845 8.66667 13.3584 6.93985C17.1704 4.36591 21.406 3.09524 26 3.09524C30.1053 3.09524 33.9499 4.13785 37.4687 6.1579C40.9875 8.21053 43.7895 10.98 45.8095 14.4987C47.3734 17.203 48.3509 20.0702 48.7093 23.1654C48.807 23.9474 49.4912 24.5338 50.2732 24.5338C51.218 24.5338 51.9674 23.6867 51.8371 22.7744C51.5439 20.396 50.9248 18.0827 49.9474 15.8672C47.2105 9.4812 42.5514 4.82206 36.1003 2.08521C32.8747 0.716793 29.5188 0 25.9674 0C22.4486 0 19.0927 0.684211 15.8672 2.08521C9.4812 4.82206 4.78947 9.4812 2.05263 15.8672C0.68421 19.0602 0 22.4486 0 25.9674C0 29.4862 0.68421 32.8747 2.05263 36.1003C4.78947 42.4862 9.4812 47.1779 15.8672 49.9148C19.0927 51.2832 22.4486 52 25.9674 52C29.4862 52 32.8747 51.2832 36.1003 49.9148C42.5514 47.1779 47.2105 42.4862 49.9474 36.1003C50.8596 34.015 51.4461 31.8321 51.7719 29.6165C51.9348 28.6065 51.1855 27.7594 50.2406 27.7594Z" fill="#636569"/>
</svg>
