<svg width="25" height="27" viewBox="0 0 25 27" fill="none" xmlns="http://www.w3.org/2000/svg">
<path d="M5.28857 0.554688C5.89025 0.567633 6.46245 0.817779 6.88055 1.25065C7.29866 1.68352 7.5288 2.26405 7.52086 2.86582V23.5625C7.53011 24.1651 7.30055 24.7469 6.88231 25.1808C6.46407 25.6148 5.89112 25.8656 5.28857 25.8785" stroke="#0085CA" stroke-linecap="round" stroke-linejoin="round"/>
<path d="M1.0311 18.6254V2.85654C1.0311 0.653821 2.01665 0.54541 3.22396 0.54541H21.8756C23.0829 0.54541 24.0685 0.653821 24.0685 2.85654V23.5532C24.0685 25.7608 23.0829 25.8693 21.8756 25.8693H3.2141C1.39575 25.8693 1.02124 25.1399 1.02124 23.5532V22.1636" stroke="#0085CA" stroke-linecap="round" stroke-linejoin="round"/>
<path d="M12.2585 14.8169H12.2517" stroke="#0085CA" stroke-linecap="round" stroke-linejoin="round"/>
<path d="M12.2585 11.4702H12.2517" stroke="#0085CA" stroke-linecap="round" stroke-linejoin="round"/>
<path d="M12.2585 17.7729H12.2517" stroke="#0085CA" stroke-linecap="round" stroke-linejoin="round"/>
<path d="M16.0327 14.8169H16.0259" stroke="#0085CA" stroke-linecap="round" stroke-linejoin="round"/>
<path d="M16.0339 11.4702H16.0269" stroke="#0085CA" stroke-linecap="round" stroke-linejoin="round"/>
<path d="M16.0327 17.7729H16.0259" stroke="#0085CA" stroke-linecap="round" stroke-linejoin="round"/>
<path d="M19.9751 14.8169H19.9683" stroke="#0085CA" stroke-linecap="round" stroke-linejoin="round"/>
<path d="M19.9758 11.4702H19.969" stroke="#0085CA" stroke-linecap="round" stroke-linejoin="round"/>
<path d="M19.9751 17.7729H19.9683" stroke="#0085CA" stroke-linecap="round" stroke-linejoin="round"/>
<path d="M11.5276 6.68018H19.9541" stroke="#0085CA" stroke-linecap="round" stroke-linejoin="round"/>
</svg>
