<svg width="27" height="26" viewBox="0 0 27 26" fill="none" xmlns="http://www.w3.org/2000/svg">
<rect x="0.878174" y="1.19482" width="25.3333" height="24.0342" rx="5" stroke="#0085CA" stroke-width="0.5"/>
<path fill-rule="evenodd" clip-rule="evenodd" d="M19.4964 5.10616C19.4964 5.1138 19.5214 5.12004 19.552 5.12004C19.5826 5.12004 19.6076 5.12629 19.6076 5.13392C19.6076 5.14164 19.6447 5.1478 19.6911 5.1478C19.7374 5.1478 19.7745 5.15397 19.7745 5.16168C19.7745 5.16932 19.787 5.17556 19.8023 5.17556C19.8176 5.17556 19.8301 5.18181 19.8301 5.18944C19.8301 5.19708 19.8489 5.20332 19.8718 5.20332C19.8948 5.20332 19.9135 5.20957 19.9135 5.2172C19.9135 5.22509 19.9542 5.23108 20.0078 5.23108C20.0861 5.23108 20.1055 5.23577 20.1221 5.25884C20.1339 5.27514 20.1581 5.2866 20.1808 5.2866C20.2021 5.2866 20.2195 5.29285 20.2195 5.30048C20.2195 5.30812 20.2369 5.31436 20.2581 5.31436C20.2808 5.31436 20.305 5.32583 20.3168 5.34212C20.3308 5.36146 20.3528 5.36988 20.3894 5.36988C20.4183 5.36988 20.4419 5.37613 20.4419 5.38376C20.4419 5.39139 20.4531 5.39764 20.4667 5.39764C20.4803 5.39764 20.5004 5.41013 20.5115 5.4254C20.5232 5.44169 20.5475 5.45316 20.5702 5.45316C20.5914 5.45316 20.6088 5.4594 20.6088 5.46704C20.6088 5.47467 20.6213 5.48092 20.6366 5.48092C20.6519 5.48092 20.6644 5.48716 20.6644 5.4948C20.6644 5.50243 20.6756 5.50868 20.6892 5.50868C20.7028 5.50868 20.7229 5.52117 20.7339 5.53644C20.745 5.55171 20.7651 5.5642 20.7787 5.5642C20.7923 5.5642 20.8035 5.57044 20.8035 5.57808C20.8035 5.58571 20.8146 5.59196 20.8282 5.59196C20.8418 5.59196 20.862 5.60445 20.873 5.61972C20.884 5.63498 20.9028 5.64748 20.9147 5.64748C20.9266 5.64748 20.9454 5.65997 20.9564 5.67524C20.9675 5.6905 20.9876 5.70299 21.0012 5.70299C21.0148 5.70299 21.026 5.70924 21.026 5.71687C21.026 5.72451 21.0357 5.73075 21.0477 5.73075C21.0597 5.73075 21.0999 5.76198 21.1372 5.80015C21.1744 5.83832 21.2147 5.86955 21.2267 5.86955C21.2387 5.86955 21.2484 5.8758 21.2484 5.88343C21.2484 5.89107 21.2579 5.89731 21.2694 5.89731C21.2967 5.89731 21.8046 6.40428 21.8046 6.43158C21.8046 6.44309 21.8109 6.4525 21.8186 6.4525C21.8262 6.4525 21.8325 6.46227 21.8325 6.47422C21.8325 6.48617 21.8637 6.52636 21.902 6.56354C21.9402 6.60072 21.9715 6.64091 21.9715 6.65286C21.9715 6.66481 21.9778 6.67458 21.9854 6.67458C21.9931 6.67458 21.9993 6.6857 21.9993 6.69927C21.9993 6.71286 22.0118 6.73297 22.0271 6.74398C22.0424 6.75498 22.0549 6.77372 22.0549 6.78562C22.0549 6.79751 22.0675 6.81625 22.0828 6.82726C22.098 6.83826 22.1106 6.85837 22.1106 6.87196C22.1106 6.88554 22.1168 6.89665 22.1245 6.89665C22.1321 6.89665 22.1384 6.90777 22.1384 6.92135C22.1384 6.93493 22.1509 6.95505 22.1662 6.96605C22.1815 6.97709 22.194 7.00199 22.194 7.02157C22.194 7.04116 22.2065 7.06606 22.2218 7.07709C22.2371 7.0881 22.2496 7.10821 22.2496 7.1218C22.2496 7.13537 22.2559 7.14649 22.2635 7.14649C22.2712 7.14649 22.2774 7.15898 22.2774 7.17425C22.2774 7.18952 22.2837 7.20201 22.2913 7.20201C22.299 7.20201 22.3052 7.2145 22.3052 7.22977C22.3052 7.24504 22.3115 7.25753 22.3191 7.25753C22.3268 7.25753 22.333 7.27627 22.333 7.29917C22.333 7.32207 22.3393 7.34081 22.347 7.34081C22.3546 7.34081 22.3609 7.3533 22.3609 7.36857C22.3609 7.38383 22.3671 7.39633 22.3748 7.39633C22.3824 7.39633 22.3887 7.41506 22.3887 7.43796C22.3887 7.46087 22.3949 7.4796 22.4026 7.4796C22.4102 7.4796 22.4165 7.49834 22.4165 7.52124C22.4165 7.54414 22.4227 7.56288 22.4304 7.56288C22.438 7.56288 22.4443 7.57537 22.4443 7.59064C22.4443 7.60591 22.4505 7.6184 22.4582 7.6184C22.4658 7.6184 22.4721 7.64338 22.4721 7.67392C22.4721 7.70446 22.4784 7.72944 22.486 7.72944C22.4937 7.72944 22.4999 7.74193 22.4999 7.7572C22.4999 7.77247 22.5062 7.78496 22.5138 7.78496C22.5215 7.78496 22.5277 7.81619 22.5277 7.85436C22.5277 7.89253 22.534 7.92376 22.5416 7.92376C22.5496 7.92376 22.5555 7.9654 22.5555 8.02091C22.5555 8.07643 22.5615 8.11807 22.5694 8.11807C22.5771 8.11807 22.5833 8.13056 22.5833 8.14583C22.5833 8.1611 22.5896 8.17359 22.5972 8.17359C22.6057 8.17359 22.6112 8.23837 22.6112 8.34015C22.6112 8.44193 22.6166 8.50671 22.6251 8.50671C22.6339 8.50671 22.639 8.61774 22.639 8.81206C22.639 9.00638 22.6339 9.11741 22.6251 9.11741C22.6165 9.11741 22.6112 9.19144 22.6112 9.31173C22.6112 9.43203 22.6059 9.50605 22.5972 9.50605C22.5896 9.50605 22.5833 9.52479 22.5833 9.54769C22.5833 9.57059 22.5771 9.58933 22.5694 9.58933C22.5617 9.58933 22.5555 9.62634 22.5555 9.67261C22.5555 9.71887 22.5494 9.75588 22.5416 9.75588C22.534 9.75588 22.5277 9.78087 22.5277 9.8114C22.5277 9.84194 22.5215 9.86692 22.5138 9.86692C22.5062 9.86692 22.4999 9.88566 22.4999 9.90856C22.4999 9.93146 22.4937 9.9502 22.486 9.9502C22.4784 9.9502 22.4721 9.97518 22.4721 10.0057C22.4721 10.0363 22.4658 10.0612 22.4582 10.0612C22.4505 10.0612 22.4443 10.0737 22.4443 10.089C22.4443 10.1043 22.438 10.1168 22.4304 10.1168C22.4227 10.1168 22.4165 10.1355 22.4165 10.1584C22.4165 10.1813 22.4102 10.2 22.4026 10.2C22.3949 10.2 22.3887 10.2188 22.3887 10.2417C22.3887 10.2646 22.3824 10.2833 22.3748 10.2833C22.3671 10.2833 22.3609 10.2958 22.3609 10.3111C22.3609 10.3263 22.3546 10.3388 22.347 10.3388C22.3393 10.3388 22.333 10.3576 22.333 10.3805C22.333 10.4034 22.3268 10.4221 22.3191 10.4221C22.3115 10.4221 22.3052 10.4332 22.3052 10.4468C22.3052 10.4604 22.2927 10.4805 22.2774 10.4915C22.2621 10.5025 22.2496 10.5274 22.2496 10.547C22.2496 10.5666 22.2371 10.5915 22.2218 10.6025C22.2055 10.6143 22.194 10.6385 22.194 10.6611C22.194 10.6823 22.1877 10.6997 22.1801 10.6997C22.1724 10.6997 22.1662 10.7108 22.1662 10.7244C22.1662 10.738 22.1537 10.7581 22.1384 10.7691C22.1231 10.7801 22.1106 10.7989 22.1106 10.8107C22.1106 10.8226 22.098 10.8414 22.0828 10.8524C22.0675 10.8634 22.0549 10.8835 22.0549 10.8971C22.0549 10.9107 22.0487 10.9218 22.041 10.9218C22.0334 10.9218 22.0271 10.9329 22.0271 10.9465C22.0271 10.9601 22.0146 10.9802 21.9993 10.9912C21.984 11.0022 21.9715 11.0209 21.9715 11.0328C21.9715 11.0447 21.959 11.0635 21.9437 11.0745C21.9284 11.0855 21.9159 11.1031 21.9159 11.1136C21.9159 11.1241 21.8971 11.1502 21.8742 11.1716C21.8512 11.193 21.8325 11.2177 21.8325 11.2265C21.8325 11.2353 21.7949 11.2793 21.749 11.3243C21.7031 11.3693 21.6656 11.4127 21.6656 11.4209C21.6656 11.4401 21.4063 11.6991 21.387 11.6991C21.3646 11.6991 21.3041 11.7644 21.3041 11.7886C21.3041 11.8004 21.2929 11.8101 21.2793 11.8101C21.2657 11.8101 21.2456 11.8226 21.2345 11.8378C21.2235 11.8531 21.206 11.8656 21.1956 11.8656C21.1852 11.8656 21.1527 11.8906 21.1233 11.9211C21.0939 11.9517 21.0625 11.9766 21.0535 11.9766C21.0445 11.9766 21.0196 11.9954 20.9981 12.0183C20.9767 12.0412 20.9492 12.0599 20.937 12.0599C20.9247 12.0599 20.9147 12.0662 20.9147 12.0738C20.9147 12.0814 20.8985 12.0877 20.8786 12.0877C20.8564 12.0877 20.8274 12.1037 20.8035 12.1293C20.782 12.1522 20.7559 12.171 20.7453 12.171C20.7348 12.171 20.7172 12.1835 20.7061 12.1987C20.6922 12.2181 20.6701 12.2265 20.6335 12.2265C20.5903 12.2265 20.581 12.2314 20.581 12.2542C20.581 12.2758 20.5717 12.282 20.5393 12.282C20.5163 12.282 20.4976 12.2882 20.4976 12.2959C20.4976 12.3035 20.4864 12.3098 20.4728 12.3098C20.4592 12.3098 20.4391 12.3223 20.428 12.3375C20.4163 12.3538 20.392 12.3653 20.3693 12.3653C20.3481 12.3653 20.3307 12.3715 20.3307 12.3792C20.3307 12.3868 20.3182 12.393 20.3029 12.393C20.2876 12.393 20.2751 12.3993 20.2751 12.4069C20.2751 12.4146 20.2563 12.4208 20.2334 12.4208C20.2104 12.4208 20.1916 12.427 20.1916 12.4347C20.1916 12.4423 20.1729 12.4486 20.1499 12.4486C20.127 12.4486 20.1082 12.4548 20.1082 12.4624C20.1082 12.4701 20.0957 12.4763 20.0804 12.4763C20.0651 12.4763 20.0526 12.4826 20.0526 12.4902C20.0526 12.4978 20.0276 12.5041 19.997 12.5041C19.9664 12.5041 19.9413 12.5103 19.9413 12.518C19.9413 12.5256 19.9226 12.5318 19.8996 12.5318C19.8767 12.5318 19.8579 12.5381 19.8579 12.5457C19.8579 12.5533 19.8266 12.5596 19.7884 12.5596C19.7502 12.5596 19.7189 12.5658 19.7189 12.5735C19.7189 12.5816 19.6725 12.5874 19.6076 12.5874C19.5427 12.5874 19.4964 12.5931 19.4964 12.6012C19.4964 12.6089 19.4839 12.6151 19.4686 12.6151C19.4533 12.6151 19.4408 12.6214 19.4408 12.629C19.4408 12.638 19.26 12.6429 18.9263 12.6429C18.5925 12.6429 18.4118 12.638 18.4118 12.629C18.4118 12.6214 18.3867 12.6151 18.3562 12.6151C18.3256 12.6151 18.3005 12.6089 18.3005 12.6012C18.3005 12.5933 18.2588 12.5874 18.2032 12.5874C18.1476 12.5874 18.1059 12.5814 18.1059 12.5735C18.1059 12.5658 18.0688 12.5596 18.0224 12.5596C17.9761 12.5596 17.939 12.5534 17.939 12.5457C17.939 12.5381 17.9265 12.5318 17.9112 12.5318C17.8959 12.5318 17.8834 12.5256 17.8834 12.518C17.8834 12.5103 17.8535 12.5041 17.8169 12.5041C17.7664 12.5041 17.7457 12.4974 17.7304 12.4763C17.7186 12.46 17.6944 12.4486 17.6717 12.4486C17.6505 12.4486 17.6331 12.4423 17.6331 12.4347C17.6331 12.427 17.6143 12.4208 17.5914 12.4208C17.5684 12.4208 17.5497 12.4146 17.5497 12.4069C17.5497 12.3993 17.5371 12.393 17.5218 12.393C17.5065 12.393 17.494 12.3868 17.494 12.3792C17.494 12.3715 17.4704 12.3653 17.4415 12.3653C17.4049 12.3653 17.3828 12.3569 17.3689 12.3375C17.3579 12.3223 17.3377 12.3098 17.3241 12.3098C17.3105 12.3098 17.2994 12.3035 17.2994 12.2959C17.2994 12.2882 17.2882 12.282 17.2746 12.282C17.261 12.282 17.2409 12.2695 17.2298 12.2542C17.2181 12.2379 17.1938 12.2265 17.1711 12.2265C17.1499 12.2265 17.1325 12.2202 17.1325 12.2126C17.1325 12.205 17.1214 12.1987 17.1078 12.1987C17.0941 12.1987 17.074 12.1862 17.063 12.171C17.0519 12.1557 17.0332 12.1432 17.0213 12.1432C17.0093 12.1432 16.9906 12.1307 16.9795 12.1154C16.9685 12.1002 16.9484 12.0877 16.9347 12.0877C16.9211 12.0877 16.91 12.0814 16.91 12.0738C16.91 12.0662 16.9 12.0599 16.8878 12.0599C16.8756 12.0599 16.848 12.0412 16.8266 12.0183C16.8052 11.9954 16.7801 11.9766 16.771 11.9766C16.7618 11.9766 16.7368 11.9579 16.7153 11.935C16.6939 11.9121 16.6664 11.8934 16.6541 11.8934C16.6419 11.8934 16.6319 11.8871 16.6319 11.8795C16.6319 11.8719 16.6194 11.8656 16.6041 11.8656C16.5881 11.8656 16.5763 11.8564 16.5763 11.8438C16.5763 11.8158 16.5428 11.7823 16.5147 11.7823C16.5021 11.7823 16.4929 11.7706 16.4929 11.7546C16.4929 11.7391 16.4836 11.7268 16.4719 11.7268C16.4445 11.7268 16.1035 11.3865 16.1035 11.3591C16.1035 11.3474 16.0912 11.3382 16.0757 11.3382C16.0572 11.3382 16.0479 11.3289 16.0479 11.3104C16.0479 11.2951 16.0416 11.2827 16.034 11.2827C16.0263 11.2827 16.0201 11.2728 16.0201 11.2608C16.0201 11.2487 15.995 11.2148 15.9645 11.1855C15.9339 11.1562 15.9088 11.1248 15.9088 11.1158C15.9088 11.1068 15.8901 11.082 15.8671 11.0606C15.8442 11.0392 15.8254 11.0131 15.8254 11.0026C15.8254 10.992 15.8129 10.9744 15.7976 10.9634C15.7823 10.9524 15.7698 10.9323 15.7698 10.9187C15.7698 10.9051 15.7635 10.894 15.7559 10.894C15.7482 10.894 15.742 10.8829 15.742 10.8693C15.742 10.8557 15.7295 10.8356 15.7142 10.8246C15.6989 10.8136 15.6863 10.7898 15.6863 10.7716C15.6863 10.7528 15.6684 10.7218 15.6446 10.6997C15.6217 10.6783 15.6029 10.6508 15.6029 10.6386C15.6029 10.6257 15.5913 10.6164 15.5751 10.6164C15.551 10.6164 15.5473 10.6257 15.5473 10.6858C15.5473 10.724 15.541 10.7552 15.5334 10.7552C15.5253 10.7552 15.5195 10.8015 15.5195 10.8663C15.5195 10.931 15.5137 10.9773 15.5056 10.9773C15.4979 10.9773 15.4917 11.0023 15.4917 11.0328C15.4917 11.0634 15.4854 11.0883 15.4778 11.0883C15.4701 11.0883 15.4639 11.1071 15.4639 11.13C15.4639 11.1529 15.4576 11.1716 15.45 11.1716C15.4423 11.1716 15.4361 11.1841 15.4361 11.1994C15.4361 11.2146 15.4298 11.2271 15.4221 11.2271C15.4145 11.2271 15.4082 11.2396 15.4082 11.2549C15.4082 11.2702 15.402 11.2827 15.3943 11.2827C15.3867 11.2827 15.3804 11.2951 15.3804 11.3104C15.3804 11.3257 15.3742 11.3382 15.3665 11.3382C15.3589 11.3382 15.3526 11.3507 15.3526 11.3659C15.3526 11.3812 15.3464 11.3937 15.3387 11.3937C15.3311 11.3937 15.3248 11.4062 15.3248 11.4215C15.3248 11.4367 15.3186 11.4492 15.3109 11.4492C15.3033 11.4492 15.297 11.4617 15.297 11.477C15.297 11.4922 15.2907 11.5047 15.2831 11.5047C15.2754 11.5047 15.2692 11.5159 15.2692 11.5294C15.2692 11.543 15.2567 11.5631 15.2414 11.5741C15.2261 11.5851 15.2136 11.6039 15.2136 11.6158C15.2136 11.6277 15.2011 11.6464 15.1858 11.6574C15.1705 11.6684 15.158 11.686 15.158 11.6966C15.158 11.7071 15.1392 11.7332 15.1162 11.7546C15.0933 11.776 15.0745 11.8035 15.0745 11.8157C15.0745 11.8286 15.0629 11.8378 15.0467 11.8378C15.0311 11.8378 15.0189 11.8471 15.0189 11.8589C15.0189 11.8827 14.8189 12.0877 14.7957 12.0877C14.7875 12.0877 14.7502 12.1189 14.713 12.1571C14.6757 12.1953 14.6369 12.2265 14.6266 12.2265C14.6163 12.2265 14.5989 12.239 14.5878 12.2542C14.5768 12.2695 14.558 12.282 14.5461 12.282C14.5342 12.282 14.5154 12.2945 14.5044 12.3098C14.4934 12.325 14.4732 12.3375 14.4596 12.3375C14.446 12.3375 14.4349 12.3438 14.4349 12.3514C14.4349 12.359 14.4175 12.3653 14.3962 12.3653C14.3735 12.3653 14.3493 12.3767 14.3375 12.393C14.3265 12.4083 14.3064 12.4208 14.2928 12.4208C14.2792 12.4208 14.268 12.427 14.268 12.4347C14.268 12.4423 14.2506 12.4486 14.2294 12.4486C14.2067 12.4486 14.1825 12.46 14.1707 12.4763C14.1567 12.4957 14.1347 12.5041 14.0981 12.5041C14.0692 12.5041 14.0455 12.5103 14.0455 12.518C14.0455 12.5256 14.033 12.5318 14.0177 12.5318C14.0024 12.5318 13.9899 12.5381 13.9899 12.5457C13.9899 12.5533 13.9586 12.5596 13.9204 12.5596C13.8821 12.5596 13.8509 12.5658 13.8509 12.5735C13.8509 12.5816 13.8045 12.5874 13.7396 12.5874C13.6747 12.5874 13.6284 12.5931 13.6284 12.6012C13.6284 12.6092 13.5867 12.6151 13.531 12.6151C13.4754 12.6151 13.4337 12.6211 13.4337 12.629C13.4337 12.6382 12.8888 12.6429 11.8267 12.6429C10.4524 12.6429 10.2167 12.64 10.1998 12.623C10.1698 12.5931 10.1698 5.25307 10.1998 5.22316C10.2167 5.20618 10.471 5.20332 11.9657 5.20332C13.1205 5.20332 13.7118 5.20803 13.7118 5.2172C13.7118 5.22553 13.7674 5.23108 13.8509 5.23108C13.9343 5.23108 13.9899 5.23663 13.9899 5.24496C13.9899 5.2526 14.0149 5.25884 14.0455 5.25884C14.0761 5.25884 14.1012 5.26509 14.1012 5.27272C14.1012 5.28036 14.1199 5.2866 14.1429 5.2866C14.1658 5.2866 14.1846 5.29285 14.1846 5.30048C14.1846 5.30812 14.1971 5.31436 14.2124 5.31436C14.2277 5.31436 14.2402 5.32061 14.2402 5.32824C14.2402 5.33587 14.2527 5.34212 14.268 5.34212C14.2833 5.34212 14.2958 5.34837 14.2958 5.356C14.2958 5.36363 14.3083 5.36988 14.3236 5.36988C14.3389 5.36988 14.3514 5.37613 14.3514 5.38376C14.3514 5.39139 14.364 5.39764 14.3793 5.39764C14.3946 5.39764 14.4071 5.40389 14.4071 5.41152C14.4071 5.41915 14.4196 5.4254 14.4349 5.4254C14.4502 5.4254 14.4627 5.43165 14.4627 5.43928C14.4627 5.44691 14.4727 5.45316 14.4849 5.45316C14.4971 5.45316 14.5247 5.4719 14.5461 5.4948C14.5675 5.5177 14.5926 5.53644 14.6017 5.53644C14.6109 5.53644 14.6359 5.55518 14.6574 5.57808C14.6788 5.60098 14.7033 5.61972 14.7117 5.61972C14.7334 5.61972 15.1023 5.99032 15.1023 6.0121C15.1023 6.02194 15.1148 6.03898 15.1301 6.04999C15.1454 6.061 15.158 6.07973 15.158 6.09163C15.158 6.10352 15.1705 6.12226 15.1858 6.13327C15.2011 6.14427 15.2136 6.16189 15.2136 6.17241C15.2136 6.18292 15.2323 6.20904 15.2553 6.23043C15.2809 6.25434 15.297 6.28321 15.297 6.30539C15.297 6.32524 15.3033 6.34146 15.3109 6.34146C15.3186 6.34146 15.3248 6.35258 15.3248 6.36616C15.3248 6.37974 15.3373 6.39986 15.3526 6.41086C15.368 6.4219 15.3804 6.4468 15.3804 6.46638C15.3804 6.48597 15.3929 6.51087 15.4082 6.5219C15.4246 6.53366 15.4361 6.55784 15.4361 6.58049C15.4361 6.6017 15.4423 6.61906 15.45 6.61906C15.4576 6.61906 15.4639 6.6378 15.4639 6.6607C15.4639 6.6836 15.4701 6.70234 15.4778 6.70234C15.4854 6.70234 15.4917 6.72107 15.4917 6.74398C15.4917 6.76688 15.4979 6.78562 15.5056 6.78562C15.5139 6.78562 15.5195 6.84113 15.5195 6.92441C15.5195 7.00769 15.525 7.06321 15.5334 7.06321C15.541 7.06321 15.5473 7.0757 15.5473 7.09097C15.5473 7.10947 15.5566 7.11873 15.5751 7.11873C15.5913 7.11873 15.6029 7.10947 15.6029 7.09654C15.6029 7.08434 15.6217 7.05684 15.6446 7.03545C15.6703 7.01154 15.6863 6.98267 15.6863 6.96049C15.6863 6.94064 15.6926 6.92441 15.7003 6.92441C15.7079 6.92441 15.7142 6.91192 15.7142 6.89665C15.7142 6.88139 15.7204 6.86889 15.7281 6.86889C15.7357 6.86889 15.742 6.85778 15.742 6.8442C15.742 6.83061 15.7545 6.8105 15.7698 6.7995C15.7851 6.78849 15.7976 6.77088 15.7976 6.76035C15.7976 6.74985 15.8164 6.72373 15.8393 6.70234C15.8623 6.68095 15.881 6.65596 15.881 6.64682C15.881 6.63767 15.8998 6.61269 15.9227 6.5913C15.9457 6.56991 15.9645 6.54493 15.9645 6.53578C15.9645 6.52663 15.9832 6.50165 16.0062 6.48026C16.0291 6.45887 16.0479 6.43428 16.0479 6.42563C16.0479 6.41697 16.1105 6.34788 16.1869 6.27206C16.2634 6.19625 16.326 6.12465 16.326 6.11293C16.326 6.10122 16.3357 6.09163 16.3475 6.09163C16.3594 6.09163 16.4122 6.04791 16.465 5.99447C16.5178 5.94103 16.5681 5.89731 16.5767 5.89731C16.5853 5.89731 16.6164 5.87233 16.6458 5.84179C16.6752 5.81126 16.7077 5.78627 16.7181 5.78627C16.7285 5.78627 16.746 5.77378 16.7571 5.75851C16.7681 5.74325 16.7857 5.73075 16.7963 5.73075C16.8068 5.73075 16.833 5.71202 16.8544 5.68911C16.8758 5.66621 16.9034 5.64748 16.9156 5.64748C16.9278 5.64748 16.9378 5.64123 16.9378 5.6336C16.9378 5.62596 16.9503 5.61972 16.9656 5.61972C16.9809 5.61972 16.9934 5.61347 16.9934 5.60584C16.9934 5.5982 17.006 5.59196 17.0213 5.59196C17.0365 5.59196 17.0491 5.58571 17.0491 5.57808C17.0491 5.57044 17.0602 5.5642 17.0738 5.5642C17.0874 5.5642 17.1076 5.55171 17.1186 5.53644C17.1296 5.52117 17.1484 5.50868 17.1603 5.50868C17.1722 5.50868 17.191 5.49619 17.202 5.48092C17.213 5.46565 17.2332 5.45316 17.2468 5.45316C17.2604 5.45316 17.2715 5.44691 17.2715 5.43928C17.2715 5.43165 17.2903 5.4254 17.3133 5.4254C17.3362 5.4254 17.355 5.41915 17.355 5.41152C17.355 5.40389 17.3675 5.39764 17.3828 5.39764C17.3981 5.39764 17.4106 5.39139 17.4106 5.38376C17.4106 5.37613 17.4294 5.36988 17.4523 5.36988C17.4753 5.36988 17.494 5.36363 17.494 5.356C17.494 5.34837 17.5065 5.34212 17.5218 5.34212C17.5371 5.34212 17.5497 5.33587 17.5497 5.32824C17.5497 5.32061 17.5622 5.31436 17.5775 5.31436C17.5928 5.31436 17.6053 5.30812 17.6053 5.30048C17.6053 5.29285 17.624 5.2866 17.647 5.2866C17.6699 5.2866 17.6887 5.28036 17.6887 5.27272C17.6887 5.26509 17.7012 5.25884 17.7165 5.25884C17.7318 5.25884 17.7443 5.2526 17.7443 5.24496C17.7443 5.23725 17.7814 5.23108 17.8278 5.23108C17.8741 5.23108 17.9112 5.22492 17.9112 5.2172C17.9112 5.20957 17.93 5.20332 17.9529 5.20332C17.9758 5.20332 17.9946 5.19708 17.9946 5.18944C17.9946 5.18181 18.0071 5.17556 18.0224 5.17556C18.0377 5.17556 18.0502 5.16932 18.0502 5.16168C18.0502 5.15397 18.0873 5.1478 18.1337 5.1478C18.18 5.1478 18.2171 5.14164 18.2171 5.13392C18.2171 5.12629 18.2421 5.12004 18.2727 5.12004C18.3033 5.12004 18.3283 5.1138 18.3283 5.10616C18.3283 5.09713 18.5323 5.09229 18.9124 5.09229C19.2924 5.09229 19.4964 5.09713 19.4964 5.10616ZM6.46122 5.22316C6.47817 5.24006 6.48109 5.44126 6.48109 6.5913C6.48109 7.74133 6.48401 7.94254 6.50096 7.95944C6.53058 7.98902 7.73869 7.98902 7.76831 7.95944C7.78526 7.94254 7.78818 7.74133 7.78818 6.5913C7.78818 5.44126 7.7911 5.24006 7.80805 5.22316C7.83782 5.19343 9.74089 5.19343 9.77066 5.22316C9.80064 5.25307 9.80064 12.5931 9.77066 12.623C9.74089 12.6528 7.83782 12.6528 7.80805 12.623C7.79109 12.6061 7.78818 12.3975 7.78818 11.1994C7.78818 10.0012 7.78528 9.79264 7.76831 9.77572C7.75168 9.7591 7.64542 9.75588 7.11477 9.75588C6.7648 9.75588 6.48109 10.0396 6.48109 10.3896V11.1795C6.48109 12.3949 6.47818 12.6061 6.46122 12.623C6.43145 12.6528 4.50057 12.6528 4.4708 12.623C4.45368 12.606 4.45093 12.0941 4.45093 8.9235C4.45093 5.99949 4.4545 5.23974 4.46831 5.22409C4.49445 5.19444 6.43156 5.19354 6.46122 5.22316ZM12.0988 8.04975C12.0988 8.07215 12.117 8.09031 12.1394 8.09031C12.1617 8.09031 12.1836 8.09813 12.188 8.10766C12.1945 8.12154 12.1978 8.12154 12.2042 8.10766C12.2105 8.09427 12.3231 8.09031 12.6979 8.09031C13.0123 8.09031 13.1834 8.08543 13.1834 8.07643C13.1834 8.0688 13.2022 8.06255 13.2251 8.06255C13.2481 8.06255 13.2668 8.05631 13.2668 8.04867C13.2668 8.04104 13.2794 8.03479 13.2947 8.03479C13.3099 8.03479 13.3225 8.02855 13.3225 8.02091C13.3225 8.01328 13.332 8.00703 13.3436 8.00703C13.3694 8.00703 13.5171 7.86217 13.5171 7.8369C13.5171 7.82697 13.5296 7.80984 13.5449 7.79884C13.5613 7.78708 13.5728 7.7629 13.5728 7.74025C13.5728 7.71904 13.579 7.70168 13.5867 7.70168C13.5943 7.70168 13.6006 7.68294 13.6006 7.66004C13.6006 7.63714 13.6068 7.6184 13.6145 7.6184C13.6229 7.6184 13.6284 7.55826 13.6284 7.46572C13.6284 7.37319 13.6229 7.31305 13.6145 7.31305C13.6068 7.31305 13.6006 7.29431 13.6006 7.27141C13.6006 7.24851 13.5943 7.22977 13.5867 7.22977C13.579 7.22977 13.5728 7.21103 13.5728 7.18813C13.5728 7.15575 13.5666 7.14649 13.5449 7.14649C13.5264 7.14649 13.5171 7.13723 13.5171 7.11873C13.5171 7.10346 13.5109 7.09097 13.5032 7.09097C13.4956 7.09097 13.4893 7.08139 13.4893 7.06969C13.4893 7.04206 13.3993 6.95217 13.3716 6.95217C13.3599 6.95217 13.3503 6.94593 13.3503 6.93829C13.3503 6.93066 13.3391 6.92441 13.3255 6.92441C13.3119 6.92441 13.2918 6.91192 13.2807 6.89665C13.2613 6.86966 13.2447 6.86889 12.6797 6.86889C12.3589 6.86889 12.0988 7.12899 12.0988 7.44984V8.04975ZM18.7733 6.96605C18.7733 6.97369 18.7483 6.97993 18.7177 6.97993C18.6871 6.97993 18.6621 6.98618 18.6621 6.99381C18.6621 7.00174 18.6204 7.00769 18.5647 7.00769C18.5091 7.00769 18.4674 7.01365 18.4674 7.02157C18.4674 7.02921 18.4549 7.03545 18.4396 7.03545C18.4243 7.03545 18.4118 7.0417 18.4118 7.04933C18.4118 7.05697 18.3867 7.06321 18.3562 7.06321C18.3256 7.06321 18.3005 7.06946 18.3005 7.07709C18.3005 7.08472 18.2818 7.09097 18.2588 7.09097C18.2359 7.09097 18.2171 7.09722 18.2171 7.10485C18.2171 7.11248 18.2046 7.11873 18.1893 7.11873C18.174 7.11873 18.1615 7.12498 18.1615 7.13261C18.1615 7.14024 18.149 7.14649 18.1337 7.14649C18.1184 7.14649 18.1059 7.15274 18.1059 7.16037C18.1059 7.168 18.0947 7.17425 18.0811 7.17425C18.0675 7.17425 18.0474 7.18674 18.0363 7.20201C18.0253 7.21728 18.0014 7.22977 17.9832 7.22977C17.9644 7.22977 17.9334 7.24771 17.9112 7.27141C17.8898 7.29431 17.8649 7.31305 17.856 7.31305C17.8471 7.31305 17.8094 7.34428 17.7721 7.38245C17.7349 7.42061 17.6976 7.45184 17.6892 7.45184C17.6695 7.45184 17.5497 7.57146 17.5497 7.59118C17.5497 7.59951 17.5184 7.63674 17.4801 7.67392C17.4419 7.7111 17.4106 7.75129 17.4106 7.76324C17.4106 7.77519 17.4043 7.78496 17.3967 7.78496C17.389 7.78496 17.3828 7.79608 17.3828 7.80965C17.3828 7.82324 17.3703 7.84335 17.355 7.85436C17.3397 7.86536 17.3272 7.8841 17.3272 7.896C17.3272 7.90789 17.3147 7.92663 17.2994 7.93764C17.2841 7.94864 17.2715 7.96875 17.2715 7.98234C17.2715 7.99592 17.2653 8.00703 17.2576 8.00703C17.25 8.00703 17.2437 8.02577 17.2437 8.04867C17.2437 8.07158 17.2375 8.09031 17.2298 8.09031C17.2222 8.09031 17.2159 8.1028 17.2159 8.11807C17.2159 8.13334 17.2097 8.14583 17.202 8.14583C17.1944 8.14583 17.1881 8.16457 17.1881 8.18747C17.1881 8.21037 17.1819 8.22911 17.1742 8.22911C17.1666 8.22911 17.1603 8.25409 17.1603 8.28463C17.1603 8.31517 17.154 8.34015 17.1464 8.34015C17.1388 8.34015 17.1325 8.35889 17.1325 8.38179C17.1325 8.40469 17.1262 8.42343 17.1186 8.42343C17.1109 8.42343 17.1047 8.45466 17.1047 8.49283C17.1047 8.531 17.0984 8.56223 17.0908 8.56223C17.083 8.56223 17.0769 8.59924 17.0769 8.6455C17.0769 8.69176 17.0707 8.72878 17.063 8.72878C17.0547 8.72878 17.0491 8.77968 17.0491 8.8537C17.0491 8.92772 17.0547 8.97862 17.063 8.97862C17.0706 8.97862 17.0769 9.00985 17.0769 9.04802C17.0769 9.08619 17.0831 9.11741 17.0908 9.11741C17.0985 9.11741 17.1047 9.15443 17.1047 9.20069C17.1047 9.24695 17.1109 9.28397 17.1186 9.28397C17.1262 9.28397 17.1325 9.30271 17.1325 9.32561C17.1325 9.34851 17.1388 9.36725 17.1464 9.36725C17.154 9.36725 17.1603 9.38599 17.1603 9.40889C17.1603 9.43179 17.1666 9.45053 17.1742 9.45053C17.1819 9.45053 17.1881 9.47551 17.1881 9.50605C17.1881 9.53658 17.1944 9.56157 17.202 9.56157C17.2097 9.56157 17.2159 9.57406 17.2159 9.58933C17.2159 9.60459 17.2222 9.61709 17.2298 9.61709C17.2375 9.61709 17.2437 9.62958 17.2437 9.64485C17.2437 9.66011 17.25 9.67261 17.2576 9.67261C17.2653 9.67261 17.2715 9.6851 17.2715 9.70037C17.2715 9.71563 17.2778 9.72812 17.2854 9.72812C17.2931 9.72812 17.2994 9.74062 17.2994 9.75588C17.2994 9.77115 17.3056 9.78364 17.3133 9.78364C17.3209 9.78364 17.3272 9.79362 17.3272 9.80584C17.3272 9.81804 17.3459 9.84553 17.3689 9.86692C17.3918 9.88831 17.4106 9.91923 17.4106 9.93561C17.4106 9.95414 17.4474 10.0017 17.5079 10.0612C17.5615 10.1139 17.6053 10.1667 17.6053 10.1786C17.6053 10.1904 17.615 10.2 17.6269 10.2C17.6388 10.2 17.6854 10.2375 17.7304 10.2833C17.7755 10.3291 17.8207 10.3666 17.8309 10.3666C17.8411 10.3666 17.8584 10.3791 17.8695 10.3944C17.8805 10.4096 17.8981 10.4221 17.9087 10.4221C17.9192 10.4221 17.9454 10.4409 17.9668 10.4638C17.989 10.4874 18.02 10.5054 18.0388 10.5054C18.057 10.5054 18.0809 10.5179 18.092 10.5332C18.103 10.5484 18.1231 10.5609 18.1367 10.5609C18.1503 10.5609 18.1615 10.5672 18.1615 10.5748C18.1615 10.5824 18.1851 10.5887 18.214 10.5887C18.2506 10.5887 18.2727 10.5971 18.2866 10.6164C18.3016 10.6372 18.3226 10.6442 18.3701 10.6442C18.4175 10.6442 18.4385 10.6512 18.4535 10.6719C18.4687 10.693 18.4895 10.6997 18.54 10.6997C18.5765 10.6997 18.6064 10.706 18.6064 10.7136C18.6064 10.7224 18.7223 10.7275 18.9263 10.7275C19.1302 10.7275 19.2461 10.7224 19.2461 10.7136C19.2461 10.706 19.2774 10.6997 19.3156 10.6997C19.3539 10.6997 19.3851 10.6935 19.3851 10.6858C19.3851 10.6782 19.3977 10.6719 19.413 10.6719C19.4282 10.6719 19.4408 10.6657 19.4408 10.6581C19.4408 10.6504 19.4658 10.6442 19.4964 10.6442C19.527 10.6442 19.552 10.6379 19.552 10.6303C19.552 10.6227 19.5645 10.6164 19.5798 10.6164C19.5951 10.6164 19.6076 10.6102 19.6076 10.6025C19.6076 10.5949 19.6201 10.5887 19.6354 10.5887C19.6507 10.5887 19.6632 10.5824 19.6632 10.5748C19.6632 10.5672 19.682 10.5609 19.705 10.5609C19.7279 10.5609 19.7467 10.5547 19.7467 10.547C19.7467 10.5394 19.7592 10.5332 19.7745 10.5332C19.7898 10.5332 19.8023 10.5269 19.8023 10.5193C19.8023 10.5116 19.8134 10.5054 19.827 10.5054C19.8406 10.5054 19.8608 10.4929 19.8718 10.4776C19.8829 10.4624 19.9005 10.4499 19.911 10.4499C19.9216 10.4499 19.9477 10.4311 19.9692 10.4082C19.9906 10.3853 20.0181 10.3666 20.0304 10.3666C20.0426 10.3666 20.0526 10.3603 20.0526 10.3527C20.0526 10.3451 20.0621 10.3388 20.0736 10.3388C20.0975 10.3388 20.3307 10.1114 20.3307 10.0881C20.3307 10.0798 20.3557 10.0489 20.3863 10.0196C20.4169 9.99026 20.4419 9.95641 20.4419 9.94434C20.4419 9.9323 20.4482 9.92244 20.4558 9.92244C20.4635 9.92244 20.4697 9.91246 20.4697 9.90025C20.4697 9.88805 20.4885 9.86055 20.5115 9.83916C20.5352 9.81704 20.5532 9.78603 20.5532 9.76727C20.5532 9.74911 20.5657 9.72525 20.581 9.71425C20.5963 9.70321 20.6088 9.67831 20.6088 9.65873C20.6088 9.63914 20.6213 9.61424 20.6366 9.60321C20.6529 9.59145 20.6644 9.56727 20.6644 9.54462C20.6644 9.52341 20.6707 9.50605 20.6783 9.50605C20.686 9.50605 20.6922 9.47482 20.6922 9.43665C20.6922 9.39848 20.6985 9.36725 20.7061 9.36725C20.7138 9.36725 20.72 9.35476 20.72 9.33949C20.72 9.32422 20.7263 9.31173 20.7339 9.31173C20.7419 9.31173 20.7479 9.27009 20.7479 9.21457C20.7479 9.15905 20.7538 9.11741 20.7618 9.11741C20.7697 9.11741 20.7757 9.07578 20.7757 9.02026C20.7757 8.96474 20.7816 8.9231 20.7896 8.9231C20.7973 8.9231 20.8035 8.88608 20.8035 8.83982C20.8035 8.79356 20.7973 8.75654 20.7896 8.75654C20.7818 8.75654 20.7757 8.71952 20.7757 8.67326C20.7757 8.627 20.7695 8.58998 20.7618 8.58998C20.7538 8.58998 20.7479 8.54835 20.7479 8.49283C20.7479 8.43731 20.7419 8.39567 20.7339 8.39567C20.7263 8.39567 20.72 8.37693 20.72 8.35403C20.72 8.33113 20.7138 8.31239 20.7061 8.31239C20.6985 8.31239 20.6922 8.28116 20.6922 8.24299C20.6922 8.20482 20.686 8.17359 20.6783 8.17359C20.6707 8.17359 20.6644 8.1611 20.6644 8.14583C20.6644 8.13056 20.6582 8.11807 20.6505 8.11807C20.6429 8.11807 20.6366 8.10558 20.6366 8.09031C20.6366 8.07505 20.6304 8.06255 20.6227 8.06255C20.6151 8.06255 20.6088 8.05006 20.6088 8.03479C20.6088 8.01953 20.6025 8.00703 20.5949 8.00703C20.5872 8.00703 20.581 7.99592 20.581 7.98234C20.581 7.96875 20.5685 7.94864 20.5532 7.93764C20.5378 7.9266 20.5254 7.9017 20.5254 7.88212C20.5254 7.86253 20.5129 7.83763 20.4976 7.8266C20.4823 7.81559 20.4697 7.79798 20.4697 7.78746C20.4697 7.77695 20.451 7.75083 20.428 7.72944C20.4051 7.70805 20.3863 7.68361 20.3863 7.67513C20.3863 7.65502 20.0993 7.36857 20.0792 7.36857C20.0707 7.36857 20.0462 7.34983 20.0248 7.32693C20.0034 7.30402 19.9772 7.28529 19.9667 7.28529C19.9561 7.28529 19.9385 7.2728 19.9274 7.25753C19.9164 7.24226 19.8925 7.22977 19.8743 7.22977C19.8555 7.22977 19.8245 7.21182 19.8023 7.18813C19.7801 7.16444 19.7491 7.14649 19.7303 7.14649C19.7121 7.14649 19.6882 7.134 19.6771 7.11873C19.6632 7.0994 19.6412 7.09097 19.6046 7.09097C19.5757 7.09097 19.552 7.08472 19.552 7.07709C19.552 7.06946 19.527 7.06321 19.4964 7.06321C19.4658 7.06321 19.4408 7.05697 19.4408 7.04933C19.4408 7.0417 19.4282 7.03545 19.413 7.03545C19.3977 7.03545 19.3851 7.02921 19.3851 7.02157C19.3851 7.01385 19.3481 7.00769 19.3017 7.00769C19.2554 7.00769 19.2183 7.00153 19.2183 6.99381C19.2183 6.98618 19.1932 6.97993 19.1627 6.97993C19.1321 6.97993 19.107 6.97369 19.107 6.96605C19.107 6.95757 19.0421 6.95217 18.9402 6.95217C18.8382 6.95217 18.7733 6.95757 18.7733 6.96605ZM19.1348 7.38245C19.1348 7.39016 19.1719 7.39633 19.2183 7.39633C19.2646 7.39633 19.3017 7.40249 19.3017 7.4102C19.3017 7.41784 19.3142 7.42408 19.3295 7.42408C19.3448 7.42408 19.3573 7.43033 19.3573 7.43796C19.3573 7.4456 19.3824 7.45184 19.413 7.45184C19.4435 7.45184 19.4686 7.45809 19.4686 7.46572C19.4686 7.47336 19.486 7.4796 19.5072 7.4796C19.5299 7.4796 19.5541 7.49107 19.5659 7.50736C19.5769 7.52263 19.5971 7.53512 19.6107 7.53512C19.6243 7.53512 19.6354 7.54137 19.6354 7.549C19.6354 7.55664 19.6479 7.56288 19.6632 7.56288C19.6785 7.56288 19.6911 7.56913 19.6911 7.57676C19.6911 7.5844 19.7008 7.59064 19.7127 7.59064C19.7246 7.59064 19.7712 7.62812 19.8162 7.67392C19.8612 7.71972 19.9049 7.7572 19.9132 7.7572C19.933 7.7572 20.0248 7.84892 20.0248 7.86868C20.0248 7.87706 20.0561 7.91433 20.0943 7.95152C20.1387 7.99468 20.1638 8.03087 20.1638 8.05164C20.1638 8.06955 20.1763 8.09319 20.1916 8.10419C20.2069 8.1152 20.2195 8.13394 20.2195 8.14583C20.2195 8.15773 20.232 8.17646 20.2473 8.18747C20.2636 8.19923 20.2751 8.22341 20.2751 8.24606C20.2751 8.26727 20.2813 8.28463 20.289 8.28463C20.2966 8.28463 20.3029 8.30961 20.3029 8.34015C20.3029 8.37068 20.3091 8.39567 20.3168 8.39567C20.3244 8.39567 20.3307 8.40816 20.3307 8.42343C20.3307 8.4387 20.337 8.45119 20.3446 8.45119C20.3522 8.45119 20.3585 8.46368 20.3585 8.47895C20.3585 8.49421 20.3648 8.50671 20.3724 8.50671C20.381 8.50671 20.3863 8.58035 20.3863 8.69987C20.3863 8.84082 20.391 8.89521 20.4037 8.90113C20.4176 8.9076 20.4176 8.91084 20.4037 8.91731C20.3917 8.9229 20.3863 8.96374 20.3863 9.04917C20.3863 9.12243 20.3806 9.17293 20.3724 9.17293C20.3648 9.17293 20.3585 9.18543 20.3585 9.20069C20.3585 9.21596 20.3522 9.22845 20.3446 9.22845C20.337 9.22845 20.3307 9.24719 20.3307 9.27009C20.3307 9.29299 20.3244 9.31173 20.3168 9.31173C20.3091 9.31173 20.3029 9.33672 20.3029 9.36725C20.3029 9.39779 20.2966 9.42277 20.289 9.42277C20.2813 9.42277 20.2751 9.43526 20.2751 9.45053C20.2751 9.4658 20.2688 9.47829 20.2612 9.47829C20.2535 9.47829 20.2473 9.49078 20.2473 9.50605C20.2473 9.52132 20.241 9.53381 20.2334 9.53381C20.2257 9.53381 20.2195 9.54493 20.2195 9.5585C20.2195 9.57209 20.2069 9.5922 20.1916 9.60321C20.1763 9.61421 20.1638 9.63295 20.1638 9.64485C20.1638 9.65674 20.1513 9.67548 20.136 9.68649C20.1207 9.69749 20.1082 9.71483 20.1082 9.72502C20.1082 9.7352 20.0707 9.78033 20.0248 9.82528C19.9789 9.87024 19.9413 9.91674 19.9413 9.92862C19.9413 9.94094 19.9294 9.9502 19.9135 9.9502C19.8982 9.9502 19.8857 9.95645 19.8857 9.96408C19.8857 9.97171 19.8759 9.97796 19.8639 9.97796C19.8358 9.97796 19.8023 10.0114 19.8023 10.0394C19.8023 10.0514 19.7912 10.0612 19.7776 10.0612C19.7639 10.0612 19.7438 10.0737 19.7328 10.089C19.7217 10.1043 19.703 10.1168 19.6911 10.1168C19.6791 10.1168 19.6604 10.1292 19.6493 10.1445C19.6383 10.1598 19.6182 10.1723 19.6046 10.1723C19.591 10.1723 19.5798 10.1785 19.5798 10.1862C19.5798 10.1938 19.561 10.2 19.5381 10.2C19.5152 10.2 19.4964 10.2063 19.4964 10.2139C19.4964 10.2215 19.4839 10.2278 19.4686 10.2278C19.4533 10.2278 19.4408 10.234 19.4408 10.2417C19.4408 10.2493 19.4282 10.2556 19.413 10.2556C19.3977 10.2556 19.3851 10.2618 19.3851 10.2694C19.3851 10.2771 19.3664 10.2833 19.3434 10.2833C19.3205 10.2833 19.3017 10.2896 19.3017 10.2972C19.3017 10.3049 19.2646 10.3111 19.2183 10.3111C19.1719 10.3111 19.1348 10.3172 19.1348 10.325C19.1348 10.3336 19.056 10.3388 18.9263 10.3388C18.7965 10.3388 18.7177 10.3336 18.7177 10.325C18.7177 10.3172 18.6806 10.3111 18.6343 10.3111C18.5879 10.3111 18.5508 10.3049 18.5508 10.2972C18.5508 10.2896 18.5321 10.2833 18.5091 10.2833C18.4862 10.2833 18.4674 10.2771 18.4674 10.2694C18.4674 10.2618 18.45 10.2556 18.4288 10.2556C18.4061 10.2556 18.3818 10.2441 18.3701 10.2278C18.3583 10.2115 18.3341 10.2 18.3114 10.2C18.2901 10.2 18.2727 10.1938 18.2727 10.1862C18.2727 10.1785 18.2602 10.1723 18.2449 10.1723C18.2296 10.1723 18.2171 10.166 18.2171 10.1584C18.2171 10.1508 18.2046 10.1445 18.1893 10.1445C18.174 10.1445 18.1615 10.1383 18.1615 10.1306C18.1615 10.123 18.1517 10.1168 18.1397 10.1168C18.1277 10.1168 18.0875 10.0855 18.0502 10.0474C18.013 10.0092 17.9727 9.97796 17.9608 9.97796C17.9488 9.97796 17.939 9.96833 17.939 9.95654C17.939 9.94477 17.8889 9.8857 17.8278 9.82528C17.7666 9.76486 17.7165 9.70718 17.7165 9.69709C17.7165 9.68698 17.704 9.66973 17.6887 9.65873C17.6734 9.64772 17.6609 9.62761 17.6609 9.61402C17.6609 9.60044 17.6546 9.58933 17.647 9.58933C17.6393 9.58933 17.6331 9.57684 17.6331 9.56157C17.6331 9.5463 17.6268 9.53381 17.6192 9.53381C17.6115 9.53381 17.6053 9.52132 17.6053 9.50605C17.6053 9.49078 17.599 9.47829 17.5914 9.47829C17.5837 9.47829 17.5775 9.45955 17.5775 9.43665C17.5775 9.41375 17.5712 9.39501 17.5636 9.39501C17.5559 9.39501 17.5497 9.38252 17.5497 9.36725C17.5497 9.35198 17.5434 9.33949 17.5357 9.33949C17.5281 9.33949 17.5218 9.327 17.5218 9.31173C17.5218 9.29646 17.5156 9.28397 17.5079 9.28397C17.5002 9.28397 17.494 9.24695 17.494 9.20069C17.494 9.15443 17.4879 9.11741 17.4801 9.11741C17.4725 9.11741 17.4662 9.09868 17.4662 9.07578C17.4662 9.05287 17.46 9.03414 17.4523 9.03414C17.4438 9.03414 17.4384 8.96474 17.4384 8.8537C17.4384 8.74266 17.4438 8.67326 17.4523 8.67326C17.46 8.67326 17.4662 8.64828 17.4662 8.61774C17.4662 8.58721 17.4725 8.56223 17.4801 8.56223C17.4878 8.56223 17.494 8.531 17.494 8.49283C17.494 8.45466 17.5003 8.42343 17.5079 8.42343C17.5156 8.42343 17.5218 8.41094 17.5218 8.39567C17.5218 8.3804 17.5281 8.36791 17.5357 8.36791C17.5434 8.36791 17.5497 8.34917 17.5497 8.32627C17.5497 8.30337 17.5559 8.28463 17.5636 8.28463C17.5712 8.28463 17.5775 8.26589 17.5775 8.24299C17.5775 8.22009 17.5837 8.20135 17.5914 8.20135C17.599 8.20135 17.6053 8.18886 17.6053 8.17359C17.6053 8.15832 17.6115 8.14583 17.6192 8.14583C17.6268 8.14583 17.6331 8.13585 17.6331 8.12364C17.6331 8.11144 17.6519 8.08394 17.6748 8.06255C17.6977 8.04116 17.7165 8.01618 17.7165 8.00703C17.7165 7.99789 17.7353 7.9729 17.7582 7.95152C17.7812 7.93013 17.7999 7.90566 17.7999 7.89715C17.7999 7.88863 17.8468 7.83493 17.904 7.7778C17.9612 7.72067 18.015 7.67392 18.0236 7.67392C18.0321 7.67392 18.0566 7.65518 18.078 7.63228C18.0995 7.60938 18.127 7.59064 18.1392 7.59064C18.1515 7.59064 18.1615 7.5844 18.1615 7.57676C18.1615 7.56913 18.174 7.56288 18.1893 7.56288C18.2046 7.56288 18.2171 7.55664 18.2171 7.549C18.2171 7.54137 18.2282 7.53512 18.2418 7.53512C18.2555 7.53512 18.2756 7.52263 18.2866 7.50736C18.3006 7.48803 18.3226 7.4796 18.3592 7.4796C18.3881 7.4796 18.4118 7.47336 18.4118 7.46572C18.4118 7.45809 18.4305 7.45184 18.4535 7.45184C18.4764 7.45184 18.4952 7.4456 18.4952 7.43796C18.4952 7.43033 18.5077 7.42408 18.523 7.42408C18.5383 7.42408 18.5508 7.41784 18.5508 7.4102C18.5508 7.40228 18.5925 7.39633 18.6482 7.39633C18.7038 7.39633 18.7455 7.39037 18.7455 7.38245C18.7455 7.37385 18.8197 7.36857 18.9402 7.36857C19.0607 7.36857 19.1348 7.37385 19.1348 7.38245ZM15.158 8.46507C15.158 8.4727 15.1482 8.47895 15.1362 8.47895C15.1242 8.47895 15.084 8.51018 15.0467 8.54835C15.0095 8.58651 14.9706 8.61774 14.9603 8.61774C14.95 8.61774 14.9326 8.63024 14.9216 8.6455C14.9105 8.66077 14.8866 8.67326 14.8684 8.67326C14.8496 8.67326 14.8186 8.69121 14.7964 8.7149C14.775 8.7378 14.7474 8.75654 14.7352 8.75654C14.723 8.75654 14.713 8.76279 14.713 8.77042C14.713 8.77806 14.7005 8.7843 14.6852 8.7843C14.6699 8.7843 14.6574 8.79055 14.6574 8.79818C14.6574 8.80581 14.6413 8.81206 14.6216 8.81206C14.6019 8.81206 14.5769 8.82099 14.566 8.8319C14.537 8.86078 14.5414 8.89534 14.5739 8.89534C14.5892 8.89534 14.6017 8.90159 14.6017 8.90922C14.6017 8.91685 14.6191 8.9231 14.6404 8.9231C14.6631 8.9231 14.6873 8.93456 14.6991 8.95086C14.7101 8.96613 14.7303 8.97862 14.7439 8.97862C14.7575 8.97862 14.7686 8.98486 14.7686 8.9925C14.7686 9.00013 14.7785 9.00638 14.7905 9.00638C14.8026 9.00638 14.8365 9.03136 14.8659 9.0619C14.8953 9.09243 14.9263 9.11741 14.9347 9.11741C14.958 9.11741 15.1023 9.26654 15.1023 9.29061C15.1023 9.30482 15.116 9.31173 15.144 9.31173C15.1671 9.31173 15.1858 9.29306 15.1858 9.27002V8.88146C15.1858 8.60386 15.1808 8.45119 15.1719 8.45119C15.1642 8.45119 15.158 8.45743 15.158 8.46507ZM12.1162 9.66561C12.0888 9.6966 12.0912 10.8468 12.1187 10.8742C12.1352 10.8907 12.2267 10.894 12.661 10.894C13 10.894 13.1834 10.8892 13.1834 10.8801C13.1834 10.8725 13.2071 10.8663 13.236 10.8663C13.2726 10.8663 13.2946 10.8578 13.3086 10.8385C13.3196 10.8232 13.3367 10.8107 13.3467 10.8107C13.3566 10.8107 13.3991 10.7765 13.441 10.7347C13.4829 10.6929 13.5171 10.6505 13.5171 10.6406C13.5171 10.6307 13.5296 10.6136 13.5449 10.6025C13.5613 10.5908 13.5728 10.5666 13.5728 10.544C13.5728 10.5228 13.579 10.5054 13.5867 10.5054C13.5943 10.5054 13.6006 10.4867 13.6006 10.4638C13.6006 10.4409 13.6068 10.4221 13.6145 10.4221C13.6229 10.4221 13.6284 10.362 13.6284 10.2694C13.6284 10.1769 13.6229 10.1168 13.6145 10.1168C13.6068 10.1168 13.6006 10.098 13.6006 10.0751C13.6006 10.0522 13.5943 10.0335 13.5867 10.0335C13.579 10.0335 13.5728 10.0161 13.5728 9.99491C13.5728 9.97226 13.5613 9.94808 13.5449 9.93632C13.5296 9.92531 13.5171 9.9082 13.5171 9.8983C13.5171 9.88839 13.4766 9.8398 13.427 9.79032C13.3638 9.72726 13.3264 9.70037 13.3019 9.70037C13.2826 9.70037 13.2668 9.69412 13.2668 9.68649C13.2668 9.67885 13.2543 9.67261 13.239 9.67261C13.2237 9.67261 13.2112 9.66636 13.2112 9.65873C13.2112 9.6497 13.0227 9.64503 12.6724 9.64537C12.2249 9.64582 12.1306 9.64925 12.1162 9.66561ZM17.2715 13.7671C17.2715 13.7748 17.2966 13.781 17.3272 13.781C17.3578 13.781 17.3828 13.7873 17.3828 13.7949C17.3828 13.803 17.4291 13.8088 17.494 13.8088C17.5589 13.8088 17.6053 13.8146 17.6053 13.8227C17.6053 13.8303 17.6303 13.8365 17.6609 13.8365C17.6915 13.8365 17.7165 13.8428 17.7165 13.8504C17.7165 13.858 17.7415 13.8643 17.7721 13.8643C17.8027 13.8643 17.8278 13.8705 17.8278 13.8782C17.8278 13.8858 17.8465 13.8921 17.8695 13.8921C17.8924 13.8921 17.9112 13.8983 17.9112 13.9059C17.9112 13.9136 17.9348 13.9198 17.9637 13.9198C18.0003 13.9198 18.0224 13.9282 18.0363 13.9476C18.0481 13.9639 18.0723 13.9753 18.095 13.9753C18.1163 13.9753 18.1337 13.9816 18.1337 13.9892C18.1337 13.9968 18.1587 14.0031 18.1893 14.0031C18.2199 14.0031 18.2449 14.0093 18.2449 14.017C18.2449 14.0246 18.2574 14.0309 18.2727 14.0309C18.288 14.0309 18.3005 14.0371 18.3005 14.0447C18.3005 14.0524 18.3179 14.0586 18.3392 14.0586C18.3619 14.0586 18.3861 14.0701 18.3979 14.0864C18.4096 14.1027 18.4339 14.1141 18.4566 14.1141C18.4778 14.1141 18.4952 14.1204 18.4952 14.128C18.4952 14.1356 18.5077 14.1419 18.523 14.1419C18.5383 14.1419 18.5508 14.1481 18.5508 14.1558C18.5508 14.1634 18.5633 14.1696 18.5786 14.1696C18.5939 14.1696 18.6064 14.1759 18.6064 14.1835C18.6064 14.1912 18.6176 14.1974 18.6312 14.1974C18.6448 14.1974 18.6649 14.2099 18.676 14.2252C18.687 14.2404 18.7046 14.2529 18.7152 14.2529C18.7257 14.2529 18.7519 14.2717 18.7733 14.2946C18.7955 14.3183 18.8265 14.3362 18.8453 14.3362C18.8635 14.3362 18.8874 14.3487 18.8985 14.364C18.9095 14.3792 18.9283 14.3917 18.9402 14.3917C18.9521 14.3917 18.9709 14.4042 18.9819 14.4195C18.9929 14.4348 19.0104 14.4472 19.0208 14.4472C19.0312 14.4472 19.0637 14.4722 19.0931 14.5028C19.1225 14.5333 19.1537 14.5583 19.1625 14.5583C19.1712 14.5583 19.2088 14.5895 19.2461 14.6277C19.2833 14.6658 19.3205 14.6971 19.3288 14.6971C19.3483 14.6971 19.6632 15.0115 19.6632 15.0309C19.6632 15.0392 19.6945 15.0763 19.7328 15.1135C19.771 15.1507 19.8023 15.1895 19.8023 15.1997C19.8023 15.21 19.8148 15.2274 19.8301 15.2384C19.8454 15.2494 19.8579 15.267 19.8579 15.2775C19.8579 15.288 19.8767 15.3142 19.8996 15.3355C19.9226 15.3569 19.9413 15.3831 19.9413 15.3936C19.9413 15.4041 19.9539 15.4217 19.9692 15.4327C19.9845 15.4437 19.997 15.4625 19.997 15.4743C19.997 15.4862 20.0095 15.505 20.0248 15.516C20.0401 15.527 20.0526 15.5471 20.0526 15.5607C20.0526 15.5743 20.0588 15.5854 20.0665 15.5854C20.0741 15.5854 20.0804 15.5965 20.0804 15.6101C20.0804 15.6237 20.0929 15.6438 20.1082 15.6548C20.1235 15.6658 20.136 15.6907 20.136 15.7103C20.136 15.7299 20.1485 15.7548 20.1638 15.7658C20.1791 15.7768 20.1916 15.7969 20.1916 15.8105C20.1916 15.8241 20.1979 15.8352 20.2055 15.8352C20.2132 15.8352 20.2195 15.8477 20.2195 15.863C20.2195 15.8782 20.2257 15.8907 20.2334 15.8907C20.241 15.8907 20.2473 15.9081 20.2473 15.9293C20.2473 15.952 20.2587 15.9761 20.2751 15.9879C20.2944 16.0018 20.3029 16.0238 20.3029 16.0604C20.3029 16.0892 20.3091 16.1128 20.3168 16.1128C20.3244 16.1128 20.3307 16.1253 20.3307 16.1406C20.3307 16.1558 20.337 16.1683 20.3446 16.1683C20.3522 16.1683 20.3585 16.1871 20.3585 16.21C20.3585 16.2329 20.3648 16.2516 20.3724 16.2516C20.3801 16.2516 20.3863 16.2641 20.3863 16.2794C20.3863 16.2946 20.3926 16.3071 20.4002 16.3071C20.4079 16.3071 20.4141 16.3259 20.4141 16.3488C20.4141 16.3717 20.4204 16.3904 20.428 16.3904C20.4357 16.3904 20.4419 16.4091 20.4419 16.432C20.4419 16.455 20.4482 16.4737 20.4558 16.4737C20.4635 16.4737 20.4697 16.4987 20.4697 16.5292C20.4697 16.5597 20.476 16.5847 20.4837 16.5847C20.4913 16.5847 20.4976 16.6097 20.4976 16.6402C20.4976 16.6708 20.5038 16.6958 20.5115 16.6958C20.5192 16.6958 20.5254 16.7328 20.5254 16.779C20.5254 16.8253 20.5315 16.8623 20.5393 16.8623C20.5469 16.8623 20.5532 16.8868 20.5532 16.9167C20.5532 16.9472 20.5608 16.9741 20.5706 16.9781C20.5837 16.9834 20.5828 16.989 20.5671 17.0011C20.5513 17.0132 20.5505 17.0188 20.5636 17.0241C20.576 17.0292 20.581 17.0745 20.581 17.1827C20.581 17.2745 20.5865 17.3342 20.5949 17.3342C20.6034 17.3342 20.6088 17.4036 20.6088 17.5147C20.6088 17.6257 20.6034 17.6951 20.5949 17.6951C20.5862 17.6951 20.581 17.7738 20.581 17.9033C20.581 18.0328 20.5757 18.1115 20.5671 18.1115C20.5594 18.1115 20.5532 18.1427 20.5532 18.1809C20.5532 18.2191 20.5469 18.2503 20.5393 18.2503C20.5316 18.2503 20.5254 18.2815 20.5254 18.3197C20.5254 18.3579 20.5191 18.3891 20.5115 18.3891C20.5038 18.3891 20.4976 18.4141 20.4976 18.4446C20.4976 18.4751 20.4913 18.5001 20.4837 18.5001C20.476 18.5001 20.4697 18.5189 20.4697 18.5418C20.4697 18.5647 20.4635 18.5834 20.4558 18.5834C20.4482 18.5834 20.4419 18.6084 20.4419 18.6389C20.4419 18.6695 20.4357 18.6944 20.428 18.6944C20.4204 18.6944 20.4141 18.7132 20.4141 18.7361C20.4141 18.759 20.4079 18.7777 20.4002 18.7777C20.3926 18.7777 20.3863 18.7902 20.3863 18.8055C20.3863 18.8208 20.3801 18.8332 20.3724 18.8332C20.3648 18.8332 20.3585 18.852 20.3585 18.8749C20.3585 18.8978 20.3522 18.9165 20.3446 18.9165C20.337 18.9165 20.3307 18.929 20.3307 18.9443C20.3307 18.9596 20.3244 18.972 20.3168 18.972C20.3091 18.972 20.3029 18.9908 20.3029 19.0137C20.3029 19.0366 20.2966 19.0553 20.289 19.0553C20.2813 19.0553 20.2751 19.0678 20.2751 19.0831C20.2751 19.0984 20.2688 19.1108 20.2612 19.1108C20.2535 19.1108 20.2473 19.1296 20.2473 19.1525C20.2473 19.1754 20.241 19.1941 20.2334 19.1941C20.2257 19.1941 20.2195 19.2066 20.2195 19.2219C20.2195 19.2371 20.2132 19.2496 20.2055 19.2496C20.1979 19.2496 20.1916 19.2621 20.1916 19.2774C20.1916 19.2927 20.1854 19.3052 20.1777 19.3052C20.1701 19.3052 20.1638 19.3176 20.1638 19.3329C20.1638 19.3482 20.1576 19.3607 20.1499 19.3607C20.1423 19.3607 20.136 19.3718 20.136 19.3854C20.136 19.399 20.1235 19.4191 20.1082 19.4301C20.0929 19.4411 20.0804 19.4612 20.0804 19.4748C20.0804 19.4884 20.0741 19.4995 20.0665 19.4995C20.0588 19.4995 20.0526 19.5106 20.0526 19.5242C20.0526 19.5378 20.0401 19.5579 20.0248 19.5689C20.0095 19.5799 19.997 19.5986 19.997 19.6105C19.997 19.6224 19.9845 19.6411 19.9692 19.6522C19.9539 19.6632 19.9413 19.6833 19.9413 19.6969C19.9413 19.7104 19.9351 19.7216 19.9274 19.7216C19.9198 19.7216 19.9135 19.7313 19.9135 19.7433C19.9135 19.7552 19.8823 19.7954 19.844 19.8326C19.8058 19.8698 19.7745 19.9073 19.7745 19.916C19.7745 19.9248 19.7495 19.9559 19.7189 19.9853C19.6883 20.0146 19.6632 20.0458 19.6632 20.0546C19.6632 20.0776 19.6272 20.1102 19.6017 20.1102C19.5896 20.1102 19.5798 20.1196 19.5798 20.1312C19.5798 20.1549 19.2963 20.4433 19.273 20.4433C19.2646 20.4433 19.2338 20.4683 19.2044 20.4988C19.175 20.5294 19.1436 20.5543 19.1346 20.5543C19.1256 20.5543 19.1007 20.5731 19.0792 20.596C19.0578 20.6189 19.0316 20.6376 19.0211 20.6376C19.0106 20.6376 18.9929 20.6501 18.9819 20.6654C18.9709 20.6806 18.9521 20.6931 18.9402 20.6931C18.9283 20.6931 18.9095 20.7056 18.8985 20.7209C18.8874 20.7362 18.8687 20.7487 18.8567 20.7487C18.8448 20.7487 18.8261 20.7611 18.815 20.7764C18.804 20.7917 18.7801 20.8042 18.7619 20.8042C18.7431 20.8042 18.712 20.8221 18.6899 20.8458C18.6685 20.8687 18.6409 20.8875 18.6287 20.8875C18.6164 20.8875 18.6064 20.8937 18.6064 20.9013C18.6064 20.909 18.5939 20.9152 18.5786 20.9152C18.5633 20.9152 18.5508 20.9215 18.5508 20.9291C18.5508 20.9367 18.5383 20.943 18.523 20.943C18.5077 20.943 18.4952 20.9492 18.4952 20.9569C18.4952 20.9645 18.4778 20.9707 18.4566 20.9707C18.4339 20.9707 18.4096 20.9822 18.3979 20.9985C18.3868 21.0138 18.3619 21.0262 18.3422 21.0262C18.3226 21.0262 18.2977 21.0387 18.2866 21.054C18.2727 21.0733 18.2506 21.0818 18.214 21.0818C18.1851 21.0818 18.1615 21.088 18.1615 21.0956C18.1615 21.1033 18.1427 21.1095 18.1198 21.1095C18.0968 21.1095 18.078 21.1158 18.078 21.1234C18.078 21.131 18.0655 21.1373 18.0502 21.1373C18.0349 21.1373 18.0224 21.1435 18.0224 21.1512C18.0224 21.1588 17.9974 21.165 17.9668 21.165C17.9362 21.165 17.9112 21.1713 17.9112 21.1789C17.9112 21.1866 17.8924 21.1928 17.8695 21.1928C17.8465 21.1928 17.8278 21.1991 17.8278 21.2067C17.8278 21.2143 17.8027 21.2206 17.7721 21.2206C17.7415 21.2206 17.7165 21.2268 17.7165 21.2344C17.7165 21.2421 17.6915 21.2483 17.6609 21.2483C17.6303 21.2483 17.6053 21.2546 17.6053 21.2622C17.6053 21.2703 17.5589 21.2761 17.494 21.2761C17.4291 21.2761 17.3828 21.2819 17.3828 21.29C17.3828 21.2976 17.3578 21.3038 17.3272 21.3038C17.2966 21.3038 17.2715 21.3101 17.2715 21.3177C17.2715 21.3267 17.1232 21.3316 16.8544 21.3316C16.5856 21.3316 16.4372 21.3267 16.4372 21.3177C16.4372 21.31 16.4001 21.3038 16.3538 21.3038C16.3075 21.3038 16.2704 21.2977 16.2704 21.29C16.2704 21.2822 16.2333 21.2761 16.1869 21.2761C16.1406 21.2761 16.1035 21.2699 16.1035 21.2622C16.1035 21.2546 16.0722 21.2483 16.034 21.2483C15.9957 21.2483 15.9645 21.2421 15.9645 21.2344C15.9645 21.2268 15.9394 21.2206 15.9088 21.2206C15.8782 21.2206 15.8532 21.2143 15.8532 21.2067C15.8532 21.1991 15.8407 21.1928 15.8254 21.1928C15.8101 21.1928 15.7976 21.1866 15.7976 21.1789C15.7976 21.1713 15.7726 21.165 15.742 21.165C15.7114 21.165 15.6863 21.1588 15.6863 21.1512C15.6863 21.1435 15.6738 21.1373 15.6585 21.1373C15.6432 21.1373 15.6307 21.131 15.6307 21.1234C15.6307 21.1158 15.612 21.1095 15.589 21.1095C15.5661 21.1095 15.5473 21.1033 15.5473 21.0956C15.5473 21.088 15.5236 21.0818 15.4947 21.0818C15.4581 21.0818 15.4361 21.0733 15.4221 21.054C15.4104 21.0377 15.3862 21.0262 15.3635 21.0262C15.3422 21.0262 15.3248 21.02 15.3248 21.0124C15.3248 21.0047 15.3123 20.9985 15.297 20.9985C15.2817 20.9985 15.2692 20.9922 15.2692 20.9846C15.2692 20.977 15.2567 20.9707 15.2414 20.9707C15.2261 20.9707 15.2136 20.9645 15.2136 20.9569C15.2136 20.9492 15.2011 20.943 15.1858 20.943C15.1705 20.943 15.158 20.9367 15.158 20.9291C15.158 20.9215 15.1454 20.9152 15.1301 20.9152C15.1148 20.9152 15.1023 20.909 15.1023 20.9013C15.1023 20.8937 15.0912 20.8875 15.0776 20.8875C15.064 20.8875 15.0438 20.875 15.0328 20.8597C15.0218 20.8444 15.0016 20.8319 14.988 20.8319C14.9744 20.8319 14.9633 20.8257 14.9633 20.8181C14.9633 20.8104 14.9508 20.8042 14.9355 20.8042C14.9202 20.8042 14.9077 20.7979 14.9077 20.7903C14.9077 20.7827 14.8965 20.7764 14.8829 20.7764C14.8693 20.7764 14.8492 20.7639 14.8381 20.7487C14.8271 20.7334 14.8083 20.7209 14.7964 20.7209C14.7845 20.7209 14.7657 20.7084 14.7547 20.6931C14.7437 20.6779 14.726 20.6654 14.7155 20.6654C14.705 20.6654 14.6788 20.6466 14.6574 20.6237C14.6359 20.6008 14.6111 20.5821 14.6022 20.5821C14.5933 20.5821 14.5556 20.5509 14.5183 20.5127C14.4811 20.4745 14.4439 20.4433 14.4357 20.4433C14.4162 20.4433 14.0177 20.0456 14.0177 20.0261C14.0177 20.0179 13.9864 19.9808 13.9482 19.9436C13.91 19.9064 13.8787 19.8688 13.8787 19.8599C13.8787 19.851 13.8599 19.8262 13.837 19.8048C13.814 19.7834 13.7952 19.7573 13.7952 19.7468C13.7952 19.7363 13.7827 19.7187 13.7674 19.7077C13.7521 19.6967 13.7396 19.6779 13.7396 19.666C13.7396 19.6541 13.7271 19.6354 13.7118 19.6244C13.6965 19.6134 13.684 19.5933 13.684 19.5797C13.684 19.5661 13.6777 19.555 13.6701 19.555C13.6624 19.555 13.6562 19.5439 13.6562 19.5303C13.6562 19.5167 13.6437 19.4966 13.6284 19.4856C13.6131 19.4746 13.6006 19.4545 13.6006 19.4409C13.6006 19.4273 13.5943 19.4162 13.5867 19.4162C13.579 19.4162 13.5728 19.4051 13.5728 19.3915C13.5728 19.3779 13.5602 19.3578 13.5449 19.3468C13.5296 19.3358 13.5171 19.3109 13.5171 19.2913C13.5171 19.2717 13.5047 19.2468 13.4893 19.2358C13.473 19.224 13.4615 19.1998 13.4615 19.1772C13.4615 19.156 13.4553 19.1386 13.4476 19.1386C13.44 19.1386 13.4337 19.1199 13.4337 19.097C13.4337 19.0646 13.4275 19.0553 13.4059 19.0553C13.3827 19.0553 13.3781 19.0461 13.3781 18.9998C13.3781 18.9693 13.3718 18.9443 13.3642 18.9443C13.3565 18.9443 13.3503 18.9318 13.3503 18.9165C13.3503 18.9013 13.344 18.8888 13.3364 18.8888C13.3287 18.8888 13.3225 18.8638 13.3225 18.8332C13.3225 18.8027 13.3162 18.7777 13.3086 18.7777C13.3009 18.7777 13.2947 18.759 13.2947 18.7361C13.2947 18.7006 13.2894 18.6944 13.2589 18.6944C13.2061 18.6944 13.1834 18.7255 13.1834 18.7976C13.1834 18.8325 13.1772 18.861 13.1695 18.861C13.1619 18.861 13.1556 18.8735 13.1556 18.8888C13.1556 18.904 13.1493 18.9165 13.1417 18.9165C13.134 18.9165 13.1278 18.9353 13.1278 18.9582C13.1278 18.9811 13.1215 18.9998 13.1139 18.9998C13.1062 18.9998 13.1 19.0123 13.1 19.0276C13.1 19.0428 13.0937 19.0553 13.0861 19.0553C13.0784 19.0553 13.0722 19.0678 13.0722 19.0831C13.0722 19.0984 13.0659 19.1108 13.0583 19.1108C13.0506 19.1108 13.0444 19.1345 13.0444 19.1633C13.0444 19.1998 13.0359 19.2218 13.0165 19.2358C13.0013 19.2468 12.9887 19.2669 12.9887 19.2805C12.9887 19.294 12.9825 19.3052 12.9748 19.3052C12.9672 19.3052 12.9609 19.3163 12.9609 19.3299C12.9609 19.3434 12.9484 19.3636 12.9331 19.3746C12.9178 19.3856 12.9053 19.4105 12.9053 19.4301C12.9053 19.4497 12.8928 19.4746 12.8775 19.4856C12.8622 19.4966 12.8497 19.5142 12.8497 19.5247C12.8497 19.5352 12.8309 19.5614 12.808 19.5828C12.7842 19.6049 12.7663 19.6359 12.7663 19.6547C12.7663 19.6728 12.7537 19.6967 12.7384 19.7077C12.7231 19.7187 12.7106 19.7363 12.7106 19.7468C12.7106 19.7573 12.6919 19.7834 12.6689 19.8048C12.646 19.8262 12.6272 19.851 12.6272 19.8599C12.6272 19.8688 12.5959 19.9064 12.5577 19.9436C12.5194 19.9808 12.4881 20.0179 12.4881 20.0261C12.4881 20.0493 12.0877 20.4433 12.0641 20.4433C12.0525 20.4433 12.0432 20.4556 12.0432 20.4711C12.0432 20.4871 12.0339 20.4988 12.0212 20.4988C12.0092 20.4988 11.9752 20.5238 11.9458 20.5543C11.9164 20.5849 11.8839 20.6099 11.8735 20.6099C11.8631 20.6099 11.8456 20.6223 11.8346 20.6376C11.8236 20.6529 11.8048 20.6654 11.7929 20.6654C11.781 20.6654 11.7622 20.6779 11.7512 20.6931C11.7401 20.7084 11.7214 20.7209 11.7095 20.7209C11.6975 20.7209 11.6788 20.7334 11.6677 20.7487C11.6567 20.7639 11.6366 20.7764 11.623 20.7764C11.6094 20.7764 11.5982 20.7827 11.5982 20.7903C11.5982 20.7979 11.5871 20.8042 11.5735 20.8042C11.5599 20.8042 11.5397 20.8167 11.5287 20.8319C11.5177 20.8472 11.4975 20.8597 11.4839 20.8597C11.4703 20.8597 11.4592 20.8659 11.4592 20.8736C11.4592 20.8812 11.448 20.8875 11.4344 20.8875C11.4208 20.8875 11.4007 20.8999 11.3896 20.9152C11.3757 20.9345 11.3536 20.943 11.317 20.943C11.2881 20.943 11.2645 20.9492 11.2645 20.9569C11.2645 20.9645 11.2534 20.9707 11.2398 20.9707C11.2261 20.9707 11.206 20.9832 11.195 20.9985C11.1832 21.0148 11.159 21.0262 11.1363 21.0262C11.115 21.0262 11.0976 21.0325 11.0976 21.0401C11.0976 21.0478 11.0851 21.054 11.0698 21.054C11.0545 21.054 11.042 21.0603 11.042 21.0679C11.042 21.0755 11.0232 21.0818 11.0003 21.0818C10.9773 21.0818 10.9586 21.088 10.9586 21.0956C10.9586 21.1033 10.9398 21.1095 10.9169 21.1095C10.8939 21.1095 10.8751 21.1158 10.8751 21.1234C10.8751 21.131 10.8626 21.1373 10.8473 21.1373C10.832 21.1373 10.8195 21.1435 10.8195 21.1512C10.8195 21.1588 10.7882 21.165 10.75 21.165C10.7118 21.165 10.6805 21.1713 10.6805 21.1789C10.6805 21.1866 10.668 21.1928 10.6527 21.1928C10.6374 21.1928 10.6248 21.1991 10.6248 21.2067C10.6248 21.2143 10.6003 21.2206 10.5704 21.2206C10.5398 21.2206 10.5128 21.2282 10.5089 21.2379C10.5036 21.251 10.4979 21.2502 10.4858 21.2344C10.4737 21.2187 10.468 21.2179 10.4627 21.231C10.4588 21.2405 10.4374 21.2483 10.4151 21.2483C10.3928 21.2483 10.3746 21.2546 10.3746 21.2622C10.3746 21.2703 10.3282 21.2761 10.2633 21.2761C10.1984 21.2761 10.1521 21.2819 10.1521 21.29C10.1521 21.2976 10.1208 21.3038 10.0825 21.3038C10.0443 21.3038 10.013 21.3101 10.013 21.3177C10.013 21.3267 9.86006 21.3316 9.58196 21.3316C9.30385 21.3316 9.15089 21.3267 9.15089 21.3177C9.15089 21.3101 9.11961 21.3038 9.08137 21.3038C9.04313 21.3038 9.01184 21.2976 9.01184 21.29C9.01184 21.2819 8.9655 21.2761 8.9006 21.2761C8.8357 21.2761 8.78936 21.2703 8.78936 21.2622C8.78936 21.2546 8.77059 21.2483 8.74764 21.2483C8.7247 21.2483 8.70593 21.2421 8.70593 21.2344C8.70593 21.2268 8.67464 21.2206 8.6364 21.2206C8.59816 21.2206 8.56687 21.2143 8.56687 21.2067C8.56687 21.1991 8.55436 21.1928 8.53906 21.1928C8.52377 21.1928 8.51125 21.1866 8.51125 21.1789C8.51125 21.1713 8.47997 21.165 8.44173 21.165C8.40349 21.165 8.3722 21.1588 8.3722 21.1512C8.3722 21.1435 8.35969 21.1373 8.34439 21.1373C8.3291 21.1373 8.31658 21.131 8.31658 21.1234C8.31658 21.1158 8.29781 21.1095 8.27486 21.1095C8.25192 21.1095 8.23315 21.1033 8.23315 21.0956C8.23315 21.088 8.21438 21.0818 8.19143 21.0818C8.16849 21.0818 8.14972 21.0755 8.14972 21.0679C8.14972 21.0603 8.1372 21.054 8.12191 21.054C8.10661 21.054 8.0941 21.0478 8.0941 21.0401C8.0941 21.0325 8.0767 21.0262 8.05545 21.0262C8.03276 21.0262 8.00854 21.0148 7.99676 20.9985C7.98573 20.9832 7.96558 20.9707 7.95197 20.9707C7.93837 20.9707 7.92723 20.9645 7.92723 20.9569C7.92723 20.9492 7.90846 20.943 7.88552 20.943C7.86257 20.943 7.8438 20.9367 7.8438 20.9291C7.8438 20.9215 7.83129 20.9152 7.81599 20.9152C7.8007 20.9152 7.78818 20.909 7.78818 20.9013C7.78818 20.8937 7.77567 20.8875 7.76037 20.8875C7.74508 20.8875 7.73256 20.8812 7.73256 20.8736C7.73256 20.8659 7.72142 20.8597 7.70782 20.8597C7.69421 20.8597 7.67406 20.8472 7.66303 20.8319C7.65201 20.8167 7.63324 20.8042 7.62132 20.8042C7.6094 20.8042 7.59063 20.7917 7.5796 20.7764C7.56858 20.7611 7.54843 20.7487 7.53481 20.7487C7.52122 20.7487 7.51008 20.7424 7.51008 20.7348C7.51008 20.7271 7.5002 20.7209 7.48813 20.7209C7.47605 20.7209 7.44214 20.6959 7.41274 20.6654C7.38335 20.6348 7.34943 20.6099 7.33735 20.6099C7.32528 20.6099 7.3154 20.6036 7.3154 20.596C7.3154 20.5883 7.30561 20.5821 7.29364 20.5821C7.28167 20.5821 7.24141 20.5509 7.20416 20.5127C7.16691 20.4745 7.12973 20.4433 7.12151 20.4433C7.102 20.4433 6.73138 20.0734 6.73138 20.0539C6.73138 20.0457 6.7001 20.0086 6.66186 19.9714C6.62362 19.9342 6.59233 19.8965 6.59233 19.8876C6.59233 19.8788 6.57356 19.854 6.55062 19.8326C6.52767 19.8112 6.5089 19.7862 6.5089 19.7771C6.5089 19.7679 6.49013 19.7429 6.46719 19.7216C6.44424 19.7002 6.42547 19.6689 6.42547 19.6522C6.42547 19.6354 6.4067 19.6041 6.38375 19.5828C6.36081 19.5614 6.34204 19.5352 6.34204 19.5247C6.34204 19.5142 6.32952 19.4966 6.31423 19.4856C6.29889 19.4746 6.28642 19.4497 6.28642 19.4301C6.28642 19.4105 6.27394 19.3856 6.25861 19.3746C6.24331 19.3636 6.2308 19.3434 6.2308 19.3299C6.2308 19.3163 6.22454 19.3052 6.21689 19.3052C6.20924 19.3052 6.20299 19.2927 6.20299 19.2774C6.20299 19.2621 6.19673 19.2496 6.18908 19.2496C6.18143 19.2496 6.17518 19.2371 6.17518 19.2219C6.17518 19.2066 6.16892 19.1941 6.16127 19.1941C6.15362 19.1941 6.14737 19.1754 6.14737 19.1525C6.14737 19.1296 6.14111 19.1108 6.13346 19.1108C6.12581 19.1108 6.11955 19.0984 6.11955 19.0831C6.11955 19.0678 6.1133 19.0553 6.10565 19.0553C6.098 19.0553 6.09174 19.0428 6.09174 19.0276C6.09174 19.0123 6.08549 18.9998 6.07784 18.9998C6.07019 18.9998 6.06393 18.9762 6.06393 18.9474C6.06393 18.9108 6.05549 18.8888 6.03612 18.8749C6.01675 18.861 6.00831 18.839 6.00831 18.8024C6.00831 18.7736 6.00206 18.75 5.99441 18.75C5.98676 18.75 5.9805 18.7375 5.9805 18.7222C5.9805 18.7069 5.97425 18.6944 5.9666 18.6944C5.95895 18.6944 5.95269 18.6632 5.95269 18.6251C5.95269 18.5869 5.94643 18.5557 5.93879 18.5557C5.93114 18.5557 5.92488 18.5244 5.92488 18.4863C5.92488 18.4481 5.91862 18.4169 5.91098 18.4169C5.90333 18.4169 5.89707 18.3981 5.89707 18.3752C5.89707 18.3523 5.89081 18.3336 5.88317 18.3336C5.87552 18.3336 5.86926 18.3086 5.86926 18.2781C5.86926 18.2475 5.863 18.2225 5.85536 18.2225C5.84725 18.2225 5.84145 18.1763 5.84145 18.1115C5.84145 18.0467 5.83565 18.0005 5.82755 18.0005C5.81858 18.0005 5.81364 17.8478 5.81364 17.5702C5.81364 17.2926 5.81858 17.1399 5.82755 17.1399C5.83579 17.1399 5.84145 17.089 5.84145 17.015C5.84145 16.941 5.84711 16.8901 5.85536 16.8901C5.863 16.8901 5.86926 16.8713 5.86926 16.8484C5.86926 16.8255 5.87552 16.8068 5.88317 16.8068C5.89081 16.8068 5.89707 16.7818 5.89707 16.7513C5.89707 16.7207 5.90333 16.6958 5.91098 16.6958C5.91862 16.6958 5.92488 16.6645 5.92488 16.6264C5.92488 16.5882 5.93114 16.557 5.93879 16.557C5.94643 16.557 5.95269 16.532 5.95269 16.5014C5.95269 16.4709 5.95895 16.4459 5.9666 16.4459C5.97425 16.4459 5.9805 16.4272 5.9805 16.4043C5.9805 16.3814 5.98676 16.3626 5.99441 16.3626C6.00206 16.3626 6.00831 16.3439 6.00831 16.321C6.00831 16.2981 6.01457 16.2794 6.02222 16.2794C6.02987 16.2794 6.03612 16.2669 6.03612 16.2516C6.03612 16.2363 6.04238 16.2239 6.05003 16.2239C6.05768 16.2239 6.06393 16.2051 6.06393 16.1822C6.06393 16.1593 6.07019 16.1406 6.07784 16.1406C6.08549 16.1406 6.09174 16.1281 6.09174 16.1128C6.09174 16.0975 6.098 16.0851 6.10565 16.0851C6.1133 16.0851 6.11955 16.0663 6.11955 16.0434C6.11955 16.0205 6.12581 16.0018 6.13346 16.0018C6.14111 16.0018 6.14737 15.9893 6.14737 15.974C6.14737 15.9587 6.15362 15.9463 6.16127 15.9463C6.16892 15.9463 6.17518 15.9338 6.17518 15.9185C6.17518 15.9032 6.18143 15.8907 6.18908 15.8907C6.19673 15.8907 6.20299 15.8796 6.20299 15.866C6.20299 15.8525 6.2155 15.8323 6.2308 15.8213C6.24609 15.8103 6.25861 15.7902 6.25861 15.7766C6.25861 15.7631 6.26486 15.7519 6.27251 15.7519C6.28016 15.7519 6.28642 15.7357 6.28642 15.7159C6.28642 15.6937 6.30248 15.6648 6.32813 15.6409C6.35108 15.6195 6.36985 15.592 6.36985 15.5798C6.36985 15.5676 6.37611 15.5576 6.38375 15.5576C6.3914 15.5576 6.39766 15.5465 6.39766 15.5329C6.39766 15.5193 6.41017 15.4992 6.42547 15.4882C6.44077 15.4772 6.45328 15.4597 6.45328 15.4494C6.45328 15.439 6.47831 15.4065 6.5089 15.3772C6.53949 15.3478 6.56452 15.3154 6.56452 15.305C6.56452 15.2946 6.57704 15.2772 6.59233 15.2661C6.60763 15.2551 6.62014 15.2378 6.62014 15.2276C6.62014 15.2174 6.65769 15.1723 6.70357 15.1274C6.74946 15.0824 6.78701 15.0359 6.78701 15.024C6.78701 15.0121 6.7966 15.0024 6.80832 15.0024C6.83601 15.0024 6.92606 14.9125 6.92606 14.8849C6.92606 14.8732 6.93579 14.8636 6.94768 14.8636C6.95958 14.8636 7.00617 14.8262 7.0512 14.7804C7.09624 14.7346 7.14145 14.6971 7.15166 14.6971C7.16186 14.6971 7.17923 14.6846 7.19026 14.6693C7.20128 14.6541 7.21893 14.6416 7.22947 14.6416C7.24 14.6416 7.26617 14.6228 7.28759 14.5999C7.30902 14.577 7.33657 14.5583 7.34879 14.5583C7.36175 14.5583 7.37103 14.5467 7.37103 14.5305C7.37103 14.512 7.3803 14.5028 7.39884 14.5028C7.41413 14.5028 7.42665 14.4965 7.42665 14.4889C7.42665 14.4812 7.43778 14.475 7.45138 14.475C7.465 14.475 7.48515 14.4625 7.49617 14.4472C7.5072 14.432 7.52735 14.4195 7.54096 14.4195C7.55456 14.4195 7.5657 14.4132 7.5657 14.4056C7.5657 14.398 7.57684 14.3917 7.59044 14.3917C7.60405 14.3917 7.6242 14.3792 7.63522 14.364C7.64628 14.3487 7.67123 14.3362 7.69085 14.3362C7.71047 14.3362 7.73541 14.3238 7.74647 14.3084C7.75749 14.2932 7.77764 14.2807 7.79125 14.2807C7.80485 14.2807 7.81599 14.2744 7.81599 14.2668C7.81599 14.2592 7.82851 14.2529 7.8438 14.2529C7.8591 14.2529 7.87161 14.2467 7.87161 14.239C7.87161 14.2314 7.88413 14.2252 7.89942 14.2252C7.91472 14.2252 7.92723 14.2189 7.92723 14.2113C7.92723 14.2037 7.93975 14.1974 7.95504 14.1974C7.97034 14.1974 7.98285 14.1912 7.98285 14.1835C7.98285 14.1759 7.99537 14.1696 8.01067 14.1696C8.02596 14.1696 8.03848 14.1634 8.03848 14.1558C8.03848 14.1481 8.05725 14.1419 8.08019 14.1419C8.10314 14.1419 8.12191 14.1356 8.12191 14.128C8.12191 14.1204 8.14068 14.1141 8.16362 14.1141C8.18657 14.1141 8.20534 14.1079 8.20534 14.1002C8.20534 14.0926 8.21785 14.0864 8.23315 14.0864C8.24844 14.0864 8.26096 14.0801 8.26096 14.0725C8.26096 14.0649 8.28599 14.0586 8.31658 14.0586C8.34717 14.0586 8.3722 14.0524 8.3722 14.0447C8.3722 14.0371 8.38472 14.0309 8.40001 14.0309C8.41531 14.0309 8.42782 14.0246 8.42782 14.017C8.42782 14.0093 8.45285 14.0031 8.48344 14.0031C8.51403 14.0031 8.53906 13.9968 8.53906 13.9892C8.53906 13.9816 8.57035 13.9753 8.60859 13.9753C8.64683 13.9753 8.67812 13.9691 8.67812 13.9615C8.67812 13.9538 8.69689 13.9476 8.71983 13.9476C8.74278 13.9476 8.76155 13.9413 8.76155 13.9337C8.76155 13.9258 8.80326 13.9198 8.85888 13.9198C8.91451 13.9198 8.95622 13.9139 8.95622 13.9059C8.95622 13.8983 8.98751 13.8921 9.02575 13.8921C9.06399 13.8921 9.09527 13.8858 9.09527 13.8782C9.09527 13.8695 9.17407 13.8643 9.30385 13.8643C9.43363 13.8643 9.51243 13.859 9.51243 13.8504C9.51243 13.8421 9.56805 13.8365 9.65148 13.8365C9.73491 13.8365 9.79053 13.8421 9.79053 13.8504C9.79053 13.859 9.86469 13.8643 9.98521 13.8643C10.1057 13.8643 10.1799 13.8696 10.1799 13.8782C10.1799 13.8858 10.1987 13.8921 10.2216 13.8921C10.2445 13.8921 10.2633 13.8983 10.2633 13.9059C10.2633 13.9139 10.305 13.9198 10.3606 13.9198C10.4163 13.9198 10.458 13.9258 10.458 13.9337C10.458 13.9413 10.4705 13.9476 10.4858 13.9476C10.5011 13.9476 10.5136 13.9538 10.5136 13.9615C10.5136 13.9692 10.5507 13.9753 10.597 13.9753C10.6434 13.9753 10.6805 13.9815 10.6805 13.9892C10.6805 13.9968 10.6992 14.0031 10.7222 14.0031C10.7451 14.0031 10.7639 14.0093 10.7639 14.017C10.7639 14.0246 10.7827 14.0309 10.8056 14.0309C10.8286 14.0309 10.8473 14.0371 10.8473 14.0447C10.8473 14.0524 10.8661 14.0586 10.889 14.0586C10.912 14.0586 10.9308 14.0649 10.9308 14.0725C10.9308 14.0801 10.9433 14.0864 10.9586 14.0864C10.9739 14.0864 10.9864 14.0926 10.9864 14.1002C10.9864 14.1079 11.0052 14.1141 11.0281 14.1141C11.051 14.1141 11.0698 14.1204 11.0698 14.128C11.0698 14.1356 11.0823 14.1419 11.0976 14.1419C11.1129 14.1419 11.1254 14.1481 11.1254 14.1558C11.1254 14.1634 11.138 14.1696 11.1532 14.1696C11.1685 14.1696 11.1811 14.1759 11.1811 14.1835C11.1811 14.1912 11.1998 14.1974 11.2228 14.1974C11.2457 14.1974 11.2645 14.2037 11.2645 14.2113C11.2645 14.2189 11.277 14.2252 11.2923 14.2252C11.3076 14.2252 11.3201 14.2314 11.3201 14.239C11.3201 14.2467 11.3312 14.2529 11.3448 14.2529C11.3585 14.2529 11.3786 14.2654 11.3896 14.2807C11.4007 14.296 11.4208 14.3084 11.4344 14.3084C11.448 14.3084 11.4592 14.3147 11.4592 14.3223C11.4592 14.33 11.4717 14.3362 11.487 14.3362C11.5023 14.3362 11.5148 14.3425 11.5148 14.3501C11.5148 14.3577 11.5273 14.364 11.5426 14.364C11.5579 14.364 11.5704 14.3702 11.5704 14.3778C11.5704 14.3855 11.5804 14.3917 11.5926 14.3917C11.6049 14.3917 11.6324 14.4105 11.6538 14.4334C11.6753 14.4563 11.7028 14.475 11.715 14.475C11.7273 14.475 11.7373 14.4812 11.7373 14.4889C11.7373 14.4965 11.7484 14.5028 11.762 14.5028C11.7756 14.5028 11.7958 14.5153 11.8068 14.5305C11.8178 14.5458 11.8355 14.5583 11.846 14.5583C11.8565 14.5583 11.8827 14.577 11.9041 14.5999C11.9256 14.6228 11.9506 14.6416 11.9597 14.6416C11.9689 14.6416 11.9939 14.6603 12.0154 14.6832C12.0368 14.7061 12.0613 14.7248 12.0697 14.7248C12.0914 14.7248 12.5438 15.1788 12.5438 15.2005C12.5438 15.2103 12.5563 15.2274 12.5716 15.2384C12.5869 15.2494 12.5994 15.2669 12.5994 15.2772C12.5994 15.2876 12.6244 15.3201 12.655 15.3494C12.6856 15.3788 12.7106 15.4112 12.7106 15.4216C12.7106 15.432 12.7231 15.4495 12.7384 15.4605C12.7537 15.4715 12.7663 15.4902 12.7663 15.5021C12.7663 15.514 12.7788 15.5327 12.7941 15.5437C12.8094 15.5548 12.8219 15.5749 12.8219 15.5885C12.8219 15.602 12.8281 15.6131 12.8358 15.6131C12.8434 15.6131 12.8497 15.6243 12.8497 15.6378C12.8497 15.6514 12.8622 15.6715 12.8775 15.6825C12.8928 15.6936 12.9053 15.7185 12.9053 15.7381C12.9053 15.7576 12.9178 15.7825 12.9331 15.7936C12.9484 15.8046 12.9609 15.8247 12.9609 15.8383C12.9609 15.8519 12.9672 15.863 12.9748 15.863C12.9825 15.863 12.9887 15.8803 12.9887 15.9016C12.9887 15.9242 13.0002 15.9484 13.0165 15.9601C13.0329 15.9719 13.0444 15.9961 13.0444 16.0187C13.0444 16.0399 13.0506 16.0573 13.0583 16.0573C13.0659 16.0573 13.0722 16.076 13.0722 16.0989C13.0722 16.1218 13.0784 16.1406 13.0861 16.1406C13.0937 16.1406 13.1 16.1531 13.1 16.1683C13.1 16.1836 13.1062 16.1961 13.1139 16.1961C13.1215 16.1961 13.1278 16.2148 13.1278 16.2377C13.1278 16.2606 13.134 16.2794 13.1417 16.2794C13.1493 16.2794 13.1556 16.2919 13.1556 16.3071C13.1556 16.3224 13.1619 16.3349 13.1695 16.3349C13.1772 16.3349 13.1834 16.3474 13.1834 16.3626C13.1834 16.3902 13.1741 16.3904 12.1748 16.3904H11.2343C11.1907 16.3904 11.1489 16.3731 11.118 16.3423C11.0915 16.3158 11.0698 16.2809 11.0698 16.2646C11.0698 16.2483 11.051 16.2175 11.0281 16.1961C11.0052 16.1747 10.9864 16.1497 10.9864 16.1406C10.9864 16.1314 10.9676 16.1064 10.9447 16.0851C10.9217 16.0637 10.903 16.0362 10.903 16.024C10.903 16.0118 10.8933 16.0018 10.8814 16.0018C10.8696 16.0018 10.8167 15.9581 10.7639 15.9046C10.7111 15.8512 10.6609 15.8075 10.6522 15.8075C10.6436 15.8075 10.6125 15.7825 10.5831 15.7519C10.5537 15.7214 10.5198 15.6964 10.5077 15.6964C10.4957 15.6964 10.4858 15.6902 10.4858 15.6825C10.4858 15.6749 10.4733 15.6687 10.458 15.6687C10.4427 15.6687 10.4302 15.6624 10.4302 15.6548C10.4302 15.6471 10.4177 15.6409 10.4024 15.6409C10.3871 15.6409 10.3746 15.6347 10.3746 15.627C10.3746 15.6194 10.362 15.6131 10.3467 15.6131C10.3314 15.6131 10.3189 15.6069 10.3189 15.5993C10.3189 15.5916 10.3002 15.5854 10.2772 15.5854C10.2543 15.5854 10.2355 15.5791 10.2355 15.5715C10.2355 15.5639 10.223 15.5576 10.2077 15.5576C10.1924 15.5576 10.1799 15.5514 10.1799 15.5437C10.1799 15.5361 10.1549 15.5299 10.1243 15.5299C10.0937 15.5299 10.0686 15.5236 10.0686 15.516C10.0686 15.5084 10.0561 15.5021 10.0408 15.5021C10.0255 15.5021 10.013 15.4959 10.013 15.4882C10.013 15.4805 9.97593 15.4743 9.92959 15.4743C9.88324 15.4743 9.84616 15.4682 9.84616 15.4605C9.84616 15.4517 9.74882 15.4466 9.58196 15.4466C9.41509 15.4466 9.31776 15.4517 9.31776 15.4605C9.31776 15.4684 9.27604 15.4743 9.22042 15.4743C9.1648 15.4743 9.12308 15.4803 9.12308 15.4882C9.12308 15.4959 9.10431 15.5021 9.08137 15.5021C9.05842 15.5021 9.03965 15.5084 9.03965 15.516C9.03965 15.5236 9.01462 15.5299 8.98403 15.5299C8.95344 15.5299 8.92841 15.5361 8.92841 15.5437C8.92841 15.5514 8.9159 15.5576 8.9006 15.5576C8.8853 15.5576 8.87279 15.5639 8.87279 15.5715C8.87279 15.5791 8.85402 15.5854 8.83107 15.5854C8.80813 15.5854 8.78936 15.5916 8.78936 15.5993C8.78936 15.6069 8.77684 15.6131 8.76155 15.6131C8.74625 15.6131 8.73374 15.6194 8.73374 15.627C8.73374 15.6347 8.72122 15.6409 8.70593 15.6409C8.69063 15.6409 8.67812 15.6471 8.67812 15.6548C8.67812 15.6624 8.6656 15.6687 8.65031 15.6687C8.63501 15.6687 8.6225 15.6749 8.6225 15.6825C8.6225 15.6902 8.61136 15.6964 8.59776 15.6964C8.58415 15.6964 8.564 15.7089 8.55297 15.7242C8.54194 15.7394 8.52317 15.7519 8.51125 15.7519C8.49934 15.7519 8.48057 15.7644 8.46954 15.7797C8.45851 15.795 8.43836 15.8075 8.42475 15.8075C8.41115 15.8075 8.40001 15.8137 8.40001 15.8213C8.40001 15.829 8.3875 15.8352 8.3722 15.8352C8.35367 15.8352 8.34439 15.8445 8.34439 15.863C8.34439 15.8786 8.33512 15.8907 8.32327 15.8907C8.29938 15.8907 8.12191 16.0626 8.12191 16.0857C8.12191 16.094 8.09062 16.1311 8.05238 16.1683C8.01414 16.2055 7.98285 16.2443 7.98285 16.2546C7.98285 16.2649 7.97034 16.2822 7.95504 16.2933C7.93975 16.3043 7.92723 16.3244 7.92723 16.338C7.92723 16.3515 7.92098 16.3626 7.91333 16.3626C7.90568 16.3626 7.89942 16.3738 7.89942 16.3873C7.89942 16.4009 7.88691 16.421 7.87161 16.432C7.85628 16.4431 7.8438 16.468 7.8438 16.4876C7.8438 16.5072 7.83133 16.5321 7.81599 16.5431C7.8007 16.5541 7.78818 16.5742 7.78818 16.5878C7.78818 16.6014 7.78192 16.6125 7.77428 16.6125C7.76663 16.6125 7.76037 16.6375 7.76037 16.668C7.76037 16.6985 7.75411 16.7235 7.74647 16.7235C7.73882 16.7235 7.73256 16.736 7.73256 16.7513C7.73256 16.7666 7.7263 16.779 7.71866 16.779C7.71101 16.779 7.70475 16.7978 7.70475 16.8207C7.70475 16.8436 7.69849 16.8623 7.69085 16.8623C7.6832 16.8623 7.67694 16.8936 7.67694 16.9317C7.67694 16.9699 7.67068 17.0011 7.66303 17.0011C7.65539 17.0011 7.64913 17.0136 7.64913 17.0289C7.64913 17.0441 7.64287 17.0566 7.63522 17.0566C7.62623 17.0566 7.62132 17.2232 7.62132 17.5286C7.62132 17.8339 7.62623 18.0005 7.63522 18.0005C7.64287 18.0005 7.64913 18.013 7.64913 18.0282C7.64913 18.0435 7.65539 18.056 7.66303 18.056C7.67077 18.056 7.67694 18.093 7.67694 18.1393C7.67694 18.1855 7.68311 18.2225 7.69085 18.2225C7.69849 18.2225 7.70475 18.235 7.70475 18.2503C7.70475 18.2656 7.71101 18.2781 7.71866 18.2781C7.7263 18.2781 7.73256 18.303 7.73256 18.3336C7.73256 18.3641 7.73882 18.3891 7.74647 18.3891C7.75411 18.3891 7.76037 18.4078 7.76037 18.4307C7.76037 18.4536 7.76663 18.4724 7.77428 18.4724C7.78192 18.4724 7.78818 18.4849 7.78818 18.5001C7.78818 18.5154 7.79444 18.5279 7.80209 18.5279C7.80973 18.5279 7.81599 18.5404 7.81599 18.5557C7.81599 18.5709 7.82225 18.5834 7.8299 18.5834C7.83755 18.5834 7.8438 18.5959 7.8438 18.6112C7.8438 18.6264 7.85006 18.6389 7.85771 18.6389C7.86536 18.6389 7.87161 18.6514 7.87161 18.6667C7.87161 18.682 7.87787 18.6944 7.88552 18.6944C7.89317 18.6944 7.89942 18.7069 7.89942 18.7222C7.89942 18.7375 7.90568 18.75 7.91333 18.75C7.92098 18.75 7.92723 18.7611 7.92723 18.7747C7.92723 18.7882 7.93975 18.8084 7.95504 18.8194C7.97034 18.8304 7.98285 18.848 7.98285 18.8585C7.98285 18.869 8.00163 18.8951 8.02457 18.9165C8.04751 18.9379 8.06629 18.964 8.06629 18.9745C8.06629 18.9851 8.0788 19.0027 8.0941 19.0137C8.10939 19.0247 8.12191 19.0418 8.12191 19.0517C8.12191 19.0734 8.32373 19.2774 8.34525 19.2774C8.35362 19.2774 8.38452 19.3024 8.41392 19.3329C8.44331 19.3635 8.47723 19.3884 8.48931 19.3884C8.50138 19.3884 8.51125 19.3947 8.51125 19.4023C8.51125 19.41 8.52239 19.4162 8.53599 19.4162C8.5496 19.4162 8.56975 19.4287 8.58078 19.444C8.59181 19.4592 8.61196 19.4717 8.62557 19.4717C8.63917 19.4717 8.65031 19.478 8.65031 19.4856C8.65031 19.4932 8.66282 19.4995 8.67812 19.4995C8.69341 19.4995 8.70593 19.5057 8.70593 19.5134C8.70593 19.521 8.71844 19.5272 8.73374 19.5272C8.74903 19.5272 8.76155 19.5335 8.76155 19.5411C8.76155 19.5487 8.77269 19.555 8.78629 19.555C8.7999 19.555 8.82005 19.5675 8.83107 19.5828C8.84503 19.6021 8.86707 19.6105 8.90367 19.6105C8.93257 19.6105 8.95622 19.6168 8.95622 19.6244C8.95622 19.632 8.97499 19.6383 8.99794 19.6383C9.02088 19.6383 9.03965 19.6445 9.03965 19.6522C9.03965 19.6598 9.06468 19.666 9.09527 19.666C9.12586 19.666 9.15089 19.6723 9.15089 19.6799C9.15089 19.6876 9.18798 19.6938 9.23433 19.6938C9.28067 19.6938 9.31776 19.7 9.31776 19.7077C9.31776 19.7153 9.34904 19.7216 9.38728 19.7216C9.42552 19.7216 9.45681 19.7278 9.45681 19.7354C9.45681 19.7441 9.54024 19.7493 9.67929 19.7493C9.81834 19.7493 9.90178 19.7441 9.90178 19.7354C9.90178 19.7278 9.93306 19.7216 9.9713 19.7216C10.0095 19.7216 10.0408 19.7153 10.0408 19.7077C10.0408 19.7 10.0779 19.6938 10.1243 19.6938C10.1706 19.6938 10.2077 19.6876 10.2077 19.6799C10.2077 19.6723 10.2265 19.666 10.2494 19.666C10.2724 19.666 10.2911 19.6598 10.2911 19.6522C10.2911 19.6445 10.3099 19.6383 10.3328 19.6383C10.3558 19.6383 10.3746 19.632 10.3746 19.6244C10.3746 19.6168 10.3919 19.6105 10.4132 19.6105C10.4359 19.6105 10.4601 19.599 10.4719 19.5828C10.4829 19.5675 10.5031 19.555 10.5167 19.555C10.5303 19.555 10.5414 19.5487 10.5414 19.5411C10.5414 19.5335 10.5539 19.5272 10.5692 19.5272C10.5845 19.5272 10.597 19.521 10.597 19.5134C10.597 19.5057 10.6096 19.4995 10.6248 19.4995C10.6401 19.4995 10.6527 19.4932 10.6527 19.4856C10.6527 19.478 10.6624 19.4717 10.6744 19.4717C10.6864 19.4717 10.7266 19.4405 10.7639 19.4023C10.8012 19.3641 10.8414 19.3329 10.8534 19.3329C10.8659 19.3329 10.8751 19.3211 10.8751 19.3052C10.8751 19.2867 10.8844 19.2774 10.903 19.2774C10.9189 19.2774 10.9308 19.2681 10.9308 19.2557C10.9308 19.2437 10.962 19.2035 11.0003 19.1664C11.0385 19.1292 11.0698 19.089 11.0698 19.077C11.0698 19.0651 11.0761 19.0553 11.0837 19.0553C11.0914 19.0553 11.0976 19.0428 11.0976 19.0276C11.0976 19.0123 11.1039 18.9998 11.1115 18.9998C11.1192 18.9998 11.1254 18.9873 11.1254 18.972C11.1254 18.9568 11.1317 18.9443 11.1393 18.9443C11.147 18.9443 11.1532 18.9332 11.1532 18.9196C11.1532 18.906 11.1658 18.8859 11.1811 18.8749C11.1974 18.8631 11.2089 18.839 11.2089 18.8163C11.2089 18.7951 11.2151 18.7777 11.2228 18.7777C11.2304 18.7777 11.2367 18.7652 11.2367 18.75C11.2367 18.7347 11.2429 18.7222 11.2506 18.7222C11.2722 18.7222 11.2672 18.598 11.2446 18.5755C11.2278 18.5587 11.0737 18.5557 10.2307 18.5557C9.45162 18.5557 9.2354 18.5594 9.23089 18.5729C9.22671 18.5854 9.21881 18.5838 9.20193 18.5669C9.18085 18.5459 9.1787 18.4784 9.1787 17.8339C9.1787 17.2372 9.18187 17.1209 9.19858 17.1042C9.22135 17.0815 9.26214 17.0777 9.26214 17.0983C9.26214 17.1075 9.90906 17.1122 11.1751 17.1122C13.2098 17.1122 13.1278 17.1147 13.1278 17.0507C13.1278 17.0387 13.134 17.0289 13.1417 17.0289C13.1496 17.0289 13.1556 16.9872 13.1556 16.9317C13.1556 16.8762 13.1616 16.8346 13.1695 16.8346C13.1772 16.8346 13.1834 16.7975 13.1834 16.7513C13.1834 16.705 13.1896 16.668 13.1973 16.668C13.205 16.668 13.2112 16.6493 13.2112 16.6264C13.2112 16.6035 13.2175 16.5847 13.2251 16.5847C13.2328 16.5847 13.239 16.5549 13.239 16.5184C13.239 16.468 13.2457 16.4473 13.2668 16.432C13.2862 16.4181 13.2947 16.3961 13.2947 16.3596C13.2947 16.3307 13.3009 16.3071 13.3086 16.3071C13.3162 16.3071 13.3225 16.2821 13.3225 16.2516C13.3225 16.2211 13.3287 16.1961 13.3364 16.1961C13.344 16.1961 13.3503 16.1836 13.3503 16.1683C13.3503 16.1531 13.3565 16.1406 13.3642 16.1406C13.3718 16.1406 13.3781 16.1218 13.3781 16.0989C13.3781 16.076 13.3843 16.0573 13.392 16.0573C13.3996 16.0573 13.4059 16.0448 13.4059 16.0295C13.4059 16.0143 13.4122 16.0018 13.4198 16.0018C13.4274 16.0018 13.4337 15.9893 13.4337 15.974C13.4337 15.9587 13.44 15.9463 13.4476 15.9463C13.4553 15.9463 13.4615 15.9338 13.4615 15.9185C13.4615 15.9032 13.4678 15.8907 13.4754 15.8907C13.4831 15.8907 13.4893 15.8782 13.4893 15.863C13.4893 15.8477 13.4956 15.8352 13.5032 15.8352C13.5109 15.8352 13.5171 15.8227 13.5171 15.8075C13.5171 15.7922 13.5234 15.7797 13.531 15.7797C13.5387 15.7797 13.5449 15.7672 13.5449 15.7519C13.5449 15.7367 13.5512 15.7242 13.5589 15.7242C13.5665 15.7242 13.5728 15.7131 13.5728 15.6995C13.5728 15.6859 13.5853 15.6658 13.6006 15.6548C13.6159 15.6438 13.6284 15.6237 13.6284 15.6101C13.6284 15.5965 13.6346 15.5854 13.6423 15.5854C13.6499 15.5854 13.6562 15.5729 13.6562 15.5576C13.6562 15.5424 13.6624 15.5299 13.6701 15.5299C13.6777 15.5299 13.684 15.5187 13.684 15.5052C13.684 15.4916 13.6965 15.4715 13.7118 15.4605C13.7271 15.4495 13.7396 15.4318 13.7396 15.4213C13.7396 15.4108 13.7584 15.3847 13.7813 15.3633C13.8043 15.3419 13.823 15.3158 13.823 15.3053C13.823 15.2948 13.8356 15.2772 13.8509 15.2661C13.8662 15.2551 13.8787 15.2377 13.8787 15.2273C13.8787 15.2169 13.9037 15.1845 13.9343 15.1551C13.9649 15.1258 13.9899 15.095 13.9899 15.0867C13.9899 15.067 14.444 14.6138 14.4637 14.6138C14.472 14.6138 14.5028 14.5888 14.5322 14.5583C14.5616 14.5277 14.593 14.5028 14.602 14.5028C14.611 14.5028 14.6359 14.484 14.6574 14.4611C14.6788 14.4382 14.705 14.4195 14.7155 14.4195C14.726 14.4195 14.7437 14.407 14.7547 14.3917C14.7657 14.3765 14.7859 14.364 14.7995 14.364C14.8131 14.364 14.8242 14.3577 14.8242 14.3501C14.8242 14.3425 14.8354 14.3362 14.849 14.3362C14.8626 14.3362 14.8827 14.3237 14.8938 14.3084C14.9048 14.2932 14.9249 14.2807 14.9385 14.2807C14.9521 14.2807 14.9633 14.2744 14.9633 14.2668C14.9633 14.2592 14.9744 14.2529 14.988 14.2529C15.0016 14.2529 15.0218 14.2404 15.0328 14.2252C15.0438 14.2099 15.064 14.1974 15.0776 14.1974C15.0912 14.1974 15.1023 14.1912 15.1023 14.1835C15.1023 14.1759 15.1148 14.1696 15.1301 14.1696C15.1454 14.1696 15.158 14.1634 15.158 14.1558C15.158 14.1481 15.1705 14.1419 15.1858 14.1419C15.2011 14.1419 15.2136 14.1356 15.2136 14.128C15.2136 14.1204 15.231 14.1141 15.2522 14.1141C15.2749 14.1141 15.2991 14.1027 15.3109 14.0864C15.3227 14.0701 15.3469 14.0586 15.3696 14.0586C15.3909 14.0586 15.4082 14.0524 15.4082 14.0447C15.4082 14.0371 15.4208 14.0309 15.4361 14.0309C15.4514 14.0309 15.4639 14.0246 15.4639 14.017C15.4639 14.0093 15.4826 14.0031 15.5056 14.0031C15.5285 14.0031 15.5473 13.9968 15.5473 13.9892C15.5473 13.9816 15.5723 13.9753 15.6029 13.9753C15.6335 13.9753 15.6585 13.9691 15.6585 13.9615C15.6585 13.9538 15.6711 13.9476 15.6863 13.9476C15.7016 13.9476 15.7142 13.9413 15.7142 13.9337C15.7142 13.9261 15.7329 13.9198 15.7559 13.9198C15.7788 13.9198 15.7976 13.9136 15.7976 13.9059C15.7976 13.8983 15.8164 13.8921 15.8393 13.8921C15.8623 13.8921 15.881 13.8858 15.881 13.8782C15.881 13.8705 15.9061 13.8643 15.9366 13.8643C15.9672 13.8643 15.9923 13.858 15.9923 13.8504C15.9923 13.8428 16.0173 13.8365 16.0479 13.8365C16.0785 13.8365 16.1035 13.8303 16.1035 13.8227C16.1035 13.8146 16.1499 13.8088 16.2147 13.8088C16.2796 13.8088 16.326 13.803 16.326 13.7949C16.326 13.7873 16.351 13.781 16.3816 13.781C16.4122 13.781 16.4372 13.7748 16.4372 13.7671C16.4372 13.7582 16.5856 13.7533 16.8544 13.7533C17.1232 13.7533 17.2715 13.7582 17.2715 13.7671ZM16.7988 15.6548C16.7988 15.6633 16.7339 15.6687 16.6319 15.6687C16.5299 15.6687 16.465 15.6741 16.465 15.6825C16.465 15.6902 16.4463 15.6964 16.4233 15.6964C16.4004 15.6964 16.3816 15.7027 16.3816 15.7103C16.3816 15.7179 16.3691 15.7242 16.3538 15.7242C16.3385 15.7242 16.326 15.7304 16.326 15.7381C16.326 15.7457 16.301 15.7519 16.2704 15.7519C16.2398 15.7519 16.2147 15.7582 16.2147 15.7658C16.2147 15.7735 16.2022 15.7797 16.1869 15.7797C16.1716 15.7797 16.1591 15.7859 16.1591 15.7936C16.1591 15.8012 16.1404 15.8075 16.1174 15.8075C16.0945 15.8075 16.0757 15.8137 16.0757 15.8213C16.0757 15.829 16.0646 15.8352 16.051 15.8352C16.0373 15.8352 16.0172 15.8477 16.0062 15.863C15.9951 15.8783 15.9702 15.8907 15.9505 15.8907C15.9309 15.8907 15.906 15.9032 15.8949 15.9185C15.8839 15.9338 15.8651 15.9463 15.8532 15.9463C15.8413 15.9463 15.8225 15.9587 15.8115 15.974C15.8005 15.9893 15.7817 16.0018 15.7698 16.0018C15.7579 16.0018 15.7391 16.0143 15.7281 16.0295C15.717 16.0448 15.6969 16.0573 15.6833 16.0573C15.6697 16.0573 15.6585 16.0671 15.6585 16.0791C15.6585 16.1043 15.626 16.1406 15.6033 16.1406C15.5802 16.1406 15.5195 16.2055 15.5195 16.2302C15.5195 16.2424 15.5075 16.2516 15.4917 16.2516C15.4756 16.2516 15.4639 16.2609 15.4639 16.2735C15.4639 16.2856 15.4388 16.3194 15.4082 16.3488C15.3777 16.3781 15.3526 16.4095 15.3526 16.4184C15.3526 16.4274 15.3339 16.4523 15.3109 16.4737C15.288 16.4951 15.2692 16.5226 15.2692 16.5348C15.2692 16.547 15.2629 16.557 15.2553 16.557C15.2476 16.557 15.2414 16.5695 15.2414 16.5847C15.2414 16.6 15.2351 16.6125 15.2275 16.6125C15.2198 16.6125 15.2136 16.6236 15.2136 16.6372C15.2136 16.6508 15.2011 16.6709 15.1858 16.6819C15.1694 16.6936 15.158 16.7178 15.158 16.7405C15.158 16.7617 15.1517 16.779 15.144 16.779C15.1364 16.779 15.1301 16.7915 15.1301 16.8068C15.1301 16.8221 15.1239 16.8346 15.1162 16.8346C15.1086 16.8346 15.1023 16.8533 15.1023 16.8762C15.1023 16.8991 15.0961 16.9178 15.0884 16.9178C15.0808 16.9178 15.0745 16.9428 15.0745 16.9734C15.0745 17.0039 15.0683 17.0289 15.0606 17.0289C15.053 17.0289 15.0467 17.0414 15.0467 17.0566C15.0467 17.0719 15.0405 17.0844 15.0328 17.0844C15.0252 17.0844 15.0189 17.1156 15.0189 17.1538C15.0189 17.192 15.0126 17.2232 15.005 17.2232C14.9962 17.2232 14.9911 17.3342 14.9911 17.5286C14.9911 17.7229 14.9962 17.8339 15.005 17.8339C15.0127 17.8339 15.0189 17.8709 15.0189 17.9172C15.0189 17.9634 15.0251 18.0005 15.0328 18.0005C15.0405 18.0005 15.0467 18.0192 15.0467 18.0421C15.0467 18.065 15.053 18.0837 15.0606 18.0837C15.0683 18.0837 15.0745 18.1025 15.0745 18.1254C15.0745 18.1483 15.0808 18.167 15.0884 18.167C15.0961 18.167 15.1023 18.1858 15.1023 18.2087C15.1023 18.2316 15.1086 18.2503 15.1162 18.2503C15.1239 18.2503 15.1301 18.269 15.1301 18.2919C15.1301 18.3148 15.1364 18.3336 15.144 18.3336C15.1517 18.3336 15.158 18.3447 15.158 18.3583C15.158 18.3719 15.1705 18.392 15.1858 18.403C15.2011 18.414 15.2136 18.4341 15.2136 18.4477C15.2136 18.4613 15.2198 18.4724 15.2275 18.4724C15.2351 18.4724 15.2414 18.4835 15.2414 18.4971C15.2414 18.5107 15.2539 18.5308 15.2692 18.5418C15.2845 18.5528 15.297 18.5715 15.297 18.5834C15.297 18.5953 15.3095 18.614 15.3248 18.6251C15.3401 18.6361 15.3526 18.6562 15.3526 18.6698C15.3526 18.6833 15.3589 18.6944 15.3665 18.6944C15.3742 18.6944 15.3804 18.7069 15.3804 18.7222C15.3804 18.738 15.3897 18.75 15.4019 18.75C15.4263 18.75 15.4917 18.8104 15.4917 18.833C15.4917 18.8559 15.6133 18.972 15.6373 18.972C15.649 18.972 15.6585 18.9819 15.6585 18.9938C15.6585 19.0219 15.692 19.0553 15.7201 19.0553C15.7321 19.0553 15.742 19.0616 15.742 19.0692C15.742 19.0768 15.7545 19.0831 15.7698 19.0831C15.7851 19.0831 15.7976 19.0893 15.7976 19.097C15.7976 19.1046 15.8076 19.1108 15.8198 19.1108C15.832 19.1108 15.8596 19.1296 15.881 19.1525C15.9025 19.1754 15.93 19.1941 15.9422 19.1941C15.9545 19.1941 15.9645 19.2004 15.9645 19.208C15.9645 19.2156 15.977 19.2219 15.9923 19.2219C16.0076 19.2219 16.0201 19.2281 16.0201 19.2358C16.0201 19.2434 16.0326 19.2496 16.0479 19.2496C16.0632 19.2496 16.0757 19.2559 16.0757 19.2635C16.0757 19.2712 16.0882 19.2774 16.1035 19.2774C16.1188 19.2774 16.1313 19.2836 16.1313 19.2913C16.1313 19.2989 16.1501 19.3052 16.173 19.3052C16.196 19.3052 16.2147 19.3114 16.2147 19.319C16.2147 19.3267 16.2398 19.3329 16.2704 19.3329C16.301 19.3329 16.326 19.3392 16.326 19.3468C16.326 19.3544 16.3385 19.3607 16.3538 19.3607C16.3691 19.3607 16.3816 19.3669 16.3816 19.3746C16.3816 19.3822 16.4004 19.3884 16.4233 19.3884C16.4463 19.3884 16.465 19.3947 16.465 19.4023C16.465 19.4104 16.5114 19.4162 16.5763 19.4162C16.6412 19.4162 16.6875 19.422 16.6875 19.4301C16.6875 19.4386 16.7571 19.444 16.8683 19.444C16.9795 19.444 17.0491 19.4386 17.0491 19.4301C17.0491 19.4224 17.0803 19.4162 17.1186 19.4162C17.1568 19.4162 17.1881 19.41 17.1881 19.4023C17.1881 19.3947 17.218 19.3884 17.2546 19.3884C17.3051 19.3884 17.3258 19.3818 17.3411 19.3607C17.3563 19.3396 17.3771 19.3329 17.4276 19.3329C17.4641 19.3329 17.494 19.3267 17.494 19.319C17.494 19.3114 17.5065 19.3052 17.5218 19.3052C17.5371 19.3052 17.5497 19.2989 17.5497 19.2913C17.5497 19.2836 17.5684 19.2774 17.5914 19.2774C17.6143 19.2774 17.6331 19.2712 17.6331 19.2635C17.6331 19.2559 17.6493 19.2496 17.6692 19.2496C17.6914 19.2496 17.7204 19.2336 17.7443 19.208C17.7658 19.1851 17.7919 19.1664 17.8024 19.1664C17.813 19.1664 17.8306 19.1539 17.8417 19.1386C17.8534 19.1223 17.8777 19.1108 17.9004 19.1108C17.9297 19.1108 17.939 19.1042 17.939 19.0831C17.939 19.0646 17.9483 19.0553 17.9668 19.0553C17.9821 19.0553 17.9946 19.0491 17.9946 19.0414C17.9946 19.0338 18.0071 19.0276 18.0224 19.0276C18.0384 19.0276 18.0502 19.0183 18.0502 19.0058C18.0502 18.9777 18.0837 18.9443 18.1118 18.9443C18.1244 18.9443 18.1337 18.9325 18.1337 18.9165C18.1337 18.898 18.1429 18.8888 18.1615 18.8888C18.1774 18.8888 18.1893 18.8795 18.1893 18.867C18.1893 18.8551 18.2206 18.8149 18.2588 18.7777C18.2971 18.7405 18.3283 18.703 18.3283 18.6943C18.3283 18.6855 18.3534 18.6544 18.384 18.6251C18.4146 18.5957 18.4396 18.5619 18.4396 18.5498C18.4396 18.5377 18.4458 18.5279 18.4535 18.5279C18.4611 18.5279 18.4674 18.5105 18.4674 18.4893C18.4674 18.4667 18.4789 18.4425 18.4952 18.4307C18.5105 18.4197 18.523 18.3996 18.523 18.386C18.523 18.3725 18.5293 18.3613 18.5369 18.3613C18.5446 18.3613 18.5508 18.3488 18.5508 18.3336C18.5508 18.3183 18.5571 18.3058 18.5647 18.3058C18.5724 18.3058 18.5786 18.2871 18.5786 18.2642C18.5786 18.2413 18.5849 18.2225 18.5925 18.2225C18.6002 18.2225 18.6064 18.21 18.6064 18.1948C18.6064 18.1795 18.6127 18.167 18.6204 18.167C18.628 18.167 18.6343 18.142 18.6343 18.1115C18.6343 18.081 18.6405 18.056 18.6482 18.056C18.6558 18.056 18.6621 18.0372 18.6621 18.0143C18.6621 17.9914 18.6683 17.9727 18.676 17.9727C18.6839 17.9727 18.6899 17.9311 18.6899 17.8755C18.6899 17.82 18.6958 17.7784 18.7038 17.7784C18.7125 17.7784 18.7177 17.6858 18.7177 17.5286C18.7177 17.3713 18.7125 17.2787 18.7038 17.2787C18.6961 17.2787 18.6899 17.2417 18.6899 17.1954C18.6899 17.1492 18.6837 17.1122 18.676 17.1122C18.6683 17.1122 18.6621 17.0872 18.6621 17.0566C18.6621 17.0261 18.6558 17.0011 18.6482 17.0011C18.6405 17.0011 18.6343 16.9824 18.6343 16.9595C18.6343 16.9366 18.628 16.9178 18.6204 16.9178C18.6127 16.9178 18.6064 16.9053 18.6064 16.8901C18.6064 16.8748 18.6002 16.8623 18.5925 16.8623C18.5849 16.8623 18.5786 16.8436 18.5786 16.8207C18.5786 16.7978 18.5724 16.779 18.5647 16.779C18.5571 16.779 18.5508 16.7666 18.5508 16.7513C18.5508 16.736 18.5446 16.7235 18.5369 16.7235C18.5293 16.7235 18.523 16.711 18.523 16.6958C18.523 16.6805 18.5168 16.668 18.5091 16.668C18.5015 16.668 18.4952 16.6569 18.4952 16.6433C18.4952 16.6297 18.4827 16.6096 18.4674 16.5986C18.4521 16.5876 18.4396 16.5637 18.4396 16.5456C18.4396 16.5268 18.4216 16.4958 18.3979 16.4737C18.3749 16.4523 18.3562 16.4275 18.3562 16.4186C18.3562 16.4098 18.3249 16.3721 18.2866 16.3349C18.2484 16.2977 18.2171 16.2575 18.2171 16.2456C18.2171 16.2336 18.2074 16.2239 18.1956 16.2239C18.1837 16.2239 18.1308 16.1801 18.078 16.1267C18.0253 16.0733 17.9724 16.0295 17.9605 16.0295C17.9483 16.0295 17.939 16.0176 17.939 16.0018C17.939 15.9833 17.9297 15.974 17.9112 15.974C17.8959 15.974 17.8834 15.9678 17.8834 15.9601C17.8834 15.9525 17.8709 15.9463 17.8556 15.9463C17.8403 15.9463 17.8278 15.94 17.8278 15.9324C17.8278 15.9247 17.8166 15.9185 17.803 15.9185C17.7894 15.9185 17.7693 15.906 17.7582 15.8907C17.7472 15.8755 17.7271 15.863 17.7134 15.863C17.6998 15.863 17.6887 15.8567 17.6887 15.8491C17.6887 15.8415 17.6762 15.8352 17.6609 15.8352C17.6456 15.8352 17.6331 15.829 17.6331 15.8213C17.6331 15.8137 17.6143 15.8075 17.5914 15.8075C17.5684 15.8075 17.5497 15.8012 17.5497 15.7936C17.5497 15.7859 17.5371 15.7797 17.5218 15.7797C17.5065 15.7797 17.494 15.7735 17.494 15.7658C17.494 15.7582 17.469 15.7519 17.4384 15.7519C17.4078 15.7519 17.3828 15.7457 17.3828 15.7381C17.3828 15.7304 17.3703 15.7242 17.355 15.7242C17.3397 15.7242 17.3272 15.7179 17.3272 15.7103C17.3272 15.7027 17.3027 15.6964 17.2727 15.6964C17.2422 15.6964 17.2151 15.6888 17.2112 15.6791C17.2059 15.666 17.2002 15.6668 17.1881 15.6825C17.176 15.6983 17.1704 15.6991 17.165 15.686C17.1602 15.6742 17.1229 15.6687 17.0479 15.6687C16.9838 15.6687 16.9378 15.6629 16.9378 15.6548C16.9378 15.6471 16.9065 15.6409 16.8683 15.6409C16.8301 15.6409 16.7988 15.6471 16.7988 15.6548ZM16.9934 16.0989C16.9934 16.1069 17.0352 16.1128 17.0908 16.1128C17.1464 16.1128 17.1881 16.1188 17.1881 16.1267C17.1881 16.1343 17.2006 16.1406 17.2159 16.1406C17.2312 16.1406 17.2437 16.1468 17.2437 16.1545C17.2437 16.1621 17.2688 16.1683 17.2994 16.1683C17.3299 16.1683 17.355 16.1746 17.355 16.1822C17.355 16.1898 17.3675 16.1961 17.3828 16.1961C17.3981 16.1961 17.4106 16.2023 17.4106 16.21C17.4106 16.2176 17.428 16.2239 17.4492 16.2239C17.4719 16.2239 17.4962 16.2353 17.5079 16.2516C17.519 16.2669 17.5377 16.2794 17.5497 16.2794C17.5616 16.2794 17.5803 16.2919 17.5914 16.3071C17.6024 16.3224 17.6225 16.3349 17.6362 16.3349C17.6498 16.3349 17.6609 16.3411 17.6609 16.3488C17.6609 16.3564 17.6707 16.3626 17.6827 16.3626C17.7108 16.3626 17.7443 16.3961 17.7443 16.4241C17.7443 16.4361 17.7538 16.4459 17.7654 16.4459C17.7896 16.4459 17.9668 16.6179 17.9668 16.6414C17.9668 16.6499 17.9856 16.6744 18.0085 16.6958C18.0315 16.7172 18.0502 16.7446 18.0502 16.7568C18.0502 16.7691 18.0565 16.779 18.0641 16.779C18.0718 16.779 18.078 16.7915 18.078 16.8068C18.078 16.8221 18.0843 16.8346 18.092 16.8346C18.0996 16.8346 18.1059 16.8457 18.1059 16.8593C18.1059 16.8728 18.1184 16.893 18.1337 16.904C18.153 16.9179 18.1615 16.9399 18.1615 16.9764C18.1615 17.0053 18.1677 17.0289 18.1754 17.0289C18.183 17.0289 18.1893 17.0414 18.1893 17.0566C18.1893 17.0719 18.1955 17.0844 18.2032 17.0844C18.2108 17.0844 18.2171 17.1031 18.2171 17.126C18.2171 17.1489 18.2234 17.1677 18.231 17.1677C18.2387 17.1677 18.2449 17.1802 18.2449 17.1954C18.2449 17.2107 18.2512 17.2232 18.2588 17.2232C18.2676 17.2232 18.2727 17.325 18.2727 17.5008C18.2727 17.6766 18.2676 17.7784 18.2588 17.7784C18.2512 17.7784 18.2449 17.8096 18.2449 17.8478C18.2449 17.886 18.2387 17.9172 18.231 17.9172C18.2234 17.9172 18.2171 17.9359 18.2171 17.9588C18.2171 17.9817 18.2108 18.0005 18.2032 18.0005C18.1955 18.0005 18.1893 18.0192 18.1893 18.0421C18.1893 18.065 18.183 18.0837 18.1754 18.0837C18.1677 18.0837 18.1615 18.0962 18.1615 18.1115C18.1615 18.1268 18.1552 18.1393 18.1476 18.1393C18.1399 18.1393 18.1337 18.1518 18.1337 18.167C18.1337 18.1823 18.1274 18.1948 18.1198 18.1948C18.1121 18.1948 18.1059 18.2059 18.1059 18.2195C18.1059 18.2331 18.0933 18.2532 18.078 18.2642C18.0627 18.2752 18.0502 18.3001 18.0502 18.3197C18.0502 18.3393 18.0378 18.3642 18.0224 18.3752C18.0071 18.3862 17.9946 18.4037 17.9946 18.4141C17.9946 18.4244 17.9696 18.4569 17.939 18.4863C17.9084 18.5156 17.8834 18.5494 17.8834 18.5615C17.8834 18.5736 17.8735 18.5834 17.8614 18.5834C17.8493 18.5834 17.8154 18.6084 17.786 18.6389C17.7566 18.6695 17.7252 18.6944 17.7162 18.6944C17.7072 18.6944 17.6823 18.7132 17.6609 18.7361C17.6369 18.7617 17.608 18.7777 17.5858 18.7777C17.5589 18.7777 17.5497 18.7848 17.5497 18.8055C17.5497 18.824 17.5404 18.8332 17.5218 18.8332C17.5065 18.8332 17.494 18.8395 17.494 18.8471C17.494 18.8548 17.4753 18.861 17.4523 18.861C17.4294 18.861 17.4106 18.8673 17.4106 18.8749C17.4106 18.8825 17.3981 18.8888 17.3828 18.8888C17.3675 18.8888 17.355 18.895 17.355 18.9026C17.355 18.9103 17.3362 18.9165 17.3133 18.9165C17.2903 18.9165 17.2715 18.9228 17.2715 18.9304C17.2715 18.938 17.2528 18.9443 17.2298 18.9443C17.2069 18.9443 17.1881 18.9505 17.1881 18.9582C17.1881 18.9658 17.1568 18.972 17.1186 18.972C17.0803 18.972 17.0491 18.9783 17.0491 18.9859C17.0491 18.9944 16.9842 18.9998 16.8822 18.9998C16.7802 18.9998 16.7153 18.9944 16.7153 18.9859C16.7153 18.978 16.6736 18.972 16.618 18.972C16.5624 18.972 16.5207 18.9661 16.5207 18.9582C16.5207 18.9505 16.5019 18.9443 16.4789 18.9443C16.456 18.9443 16.4372 18.938 16.4372 18.9304C16.4372 18.9228 16.4122 18.9165 16.3816 18.9165C16.351 18.9165 16.326 18.9103 16.326 18.9026C16.326 18.895 16.3135 18.8888 16.2982 18.8888C16.2829 18.8888 16.2704 18.8825 16.2704 18.8749C16.2704 18.8673 16.2579 18.861 16.2426 18.861C16.2273 18.861 16.2147 18.8548 16.2147 18.8471C16.2147 18.8395 16.2022 18.8332 16.1869 18.8332C16.1716 18.8332 16.1591 18.827 16.1591 18.8194C16.1591 18.8117 16.148 18.8055 16.1344 18.8055C16.1208 18.8055 16.1006 18.793 16.0896 18.7777C16.0786 18.7625 16.0584 18.75 16.0448 18.75C16.0312 18.75 16.0201 18.7437 16.0201 18.7361C16.0201 18.7285 16.0106 18.7222 15.999 18.7222C15.975 18.7222 15.7142 18.4669 15.7142 18.4434C15.7142 18.4349 15.6954 18.4105 15.6724 18.3891C15.6495 18.3677 15.6307 18.3402 15.6307 18.328C15.6307 18.3158 15.6245 18.3058 15.6168 18.3058C15.6092 18.3058 15.6029 18.2933 15.6029 18.2781C15.6029 18.2628 15.5967 18.2503 15.589 18.2503C15.5814 18.2503 15.5751 18.2378 15.5751 18.2225C15.5751 18.2073 15.5688 18.1948 15.5612 18.1948C15.5536 18.1948 15.5473 18.1837 15.5473 18.1701C15.5473 18.1565 15.5348 18.1364 15.5195 18.1254C15.4987 18.1104 15.4917 18.0894 15.4917 18.0421C15.4917 17.9948 15.4847 17.9738 15.4639 17.9588C15.4402 17.9418 15.4361 17.9229 15.4361 17.8308C15.4361 17.7681 15.4302 17.7229 15.4221 17.7229C15.4136 17.7229 15.4082 17.6535 15.4082 17.5424C15.4082 17.4314 15.4136 17.362 15.4221 17.362C15.4301 17.362 15.4361 17.3204 15.4361 17.2648C15.4361 17.2093 15.442 17.1677 15.45 17.1677C15.4576 17.1677 15.4639 17.1489 15.4639 17.126C15.4639 17.1031 15.4701 17.0844 15.4778 17.0844C15.4854 17.0844 15.4917 17.0608 15.4917 17.0319C15.4917 16.9954 15.5001 16.9734 15.5195 16.9595C15.5348 16.9484 15.5473 16.9235 15.5473 16.904C15.5473 16.8844 15.5598 16.8595 15.5751 16.8484C15.5904 16.8374 15.6029 16.8173 15.6029 16.8037C15.6029 16.7902 15.6092 16.779 15.6168 16.779C15.6245 16.779 15.6307 16.7679 15.6307 16.7543C15.6307 16.7408 15.6432 16.7207 15.6585 16.7096C15.6738 16.6986 15.6863 16.6816 15.6863 16.6717C15.6863 16.6465 15.9457 16.3904 15.9712 16.3904C15.9828 16.3904 15.9923 16.3842 15.9923 16.3765C15.9923 16.3689 16.0048 16.3626 16.0201 16.3626C16.0386 16.3626 16.0479 16.3534 16.0479 16.3349C16.0479 16.3164 16.0572 16.3071 16.0757 16.3071C16.091 16.3071 16.1035 16.3009 16.1035 16.2933C16.1035 16.2856 16.116 16.2794 16.1313 16.2794C16.1466 16.2794 16.1591 16.2731 16.1591 16.2655C16.1591 16.2579 16.1716 16.2516 16.1869 16.2516C16.2022 16.2516 16.2147 16.2454 16.2147 16.2377C16.2147 16.2301 16.2321 16.2239 16.2534 16.2239C16.2761 16.2239 16.3003 16.2124 16.3121 16.1961C16.326 16.1768 16.3481 16.1683 16.3847 16.1683C16.4136 16.1683 16.4372 16.1621 16.4372 16.1545C16.4372 16.1468 16.456 16.1406 16.4789 16.1406C16.5019 16.1406 16.5207 16.1343 16.5207 16.1267C16.5207 16.1188 16.5624 16.1128 16.618 16.1128C16.6736 16.1128 16.7153 16.1069 16.7153 16.0989C16.7153 16.0906 16.771 16.0851 16.8544 16.0851C16.9378 16.0851 16.9934 16.0906 16.9934 16.0989Z" fill="#0085CA"/>
</svg>
