<svg width="27" height="32" viewBox="0 0 27 32" fill="none" xmlns="http://www.w3.org/2000/svg">
<g clip-path="url(#clip0)">
<path d="M0.723267 18.087V5.56521C0.723267 4.04743 1.68755 2.90909 3.01345 2.90909H11.2099" stroke="#0085CA" stroke-width="1.283" stroke-miterlimit="10" stroke-linecap="round" stroke-linejoin="round"/>
<path d="M14.5849 19.6047V28.8379C14.5849 30.2292 13.5001 31.3676 12.1742 31.3676H3.13398C1.80809 31.3676 0.723267 30.2292 0.723267 28.8379V21.8814" stroke="#0085CA" stroke-width="1.283" stroke-miterlimit="10" stroke-linecap="round" stroke-linejoin="round"/>
<path d="M0.84375 26.3083H14.5848" stroke="#0085CA" stroke-width="1.283" stroke-miterlimit="10" stroke-linecap="round" stroke-linejoin="round"/>
<path d="M26.2768 10.3715C26.2768 15.6838 22.1786 19.8577 17.2366 19.8577C12.1741 19.8577 8.19641 15.5573 8.19641 10.3715C8.19641 5.05926 12.2946 0.88535 17.2366 0.88535C22.1786 0.758868 26.2768 5.05926 26.2768 10.3715Z" stroke="#0085CA" stroke-width="1.283" stroke-miterlimit="10" stroke-linecap="round" stroke-linejoin="round"/>
<path d="M21.3349 10.3715C21.3349 15.6838 19.5268 19.8577 17.2366 19.8577C14.9465 19.8577 13.1384 15.5573 13.1384 10.3715C13.1384 5.05926 14.9465 0.88535 17.2366 0.88535C19.4063 0.758868 21.3349 5.05926 21.3349 10.3715Z" stroke="#0085CA" stroke-width="1.283" stroke-miterlimit="10" stroke-linecap="round" stroke-linejoin="round"/>
<path d="M8.19641 10.3716H26.2768" stroke="#0085CA" stroke-width="1.283" stroke-miterlimit="10" stroke-linecap="round" stroke-linejoin="round"/>
<path d="M8.55798 28.8379C8.55798 29.3439 8.19638 29.7233 7.71423 29.7233C7.23209 29.7233 6.87048 29.3439 6.87048 28.8379C6.87048 28.332 7.23209 28.079 7.71423 28.079C8.19638 27.9526 8.55798 28.332 8.55798 28.8379Z" stroke="#0085CA" stroke-width="0.975" stroke-miterlimit="10"/>
</g>
<defs>
<clipPath id="clip0">
<rect width="27" height="32" fill="white"/>
</clipPath>
</defs>
</svg>
