<svg width="32" height="27" viewBox="0 0 32 27" fill="none" xmlns="http://www.w3.org/2000/svg">
<g clip-path="url(#clip0)">
<path d="M25.7896 13.8277L14.769 24.8484C13.9372 25.6801 12.6896 25.6801 11.8579 24.8484L2.08487 15.0753C1.25312 14.2436 1.25312 12.996 2.08487 12.1642L13.7293 0.727722H23.8142L29.9484 6.75788C30.7801 7.58963 30.7801 8.83725 29.9484 9.66899L28.0769 11.6444" stroke="#0085CA" stroke-width="1.35471" stroke-miterlimit="10" stroke-linecap="round" stroke-linejoin="round"/>
<path d="M12.7937 8.8373L9.98657 11.6444" stroke="#0085CA" stroke-width="1.35471" stroke-miterlimit="10" stroke-linecap="round" stroke-linejoin="round"/>
<path d="M8.53098 13.1001L7.38733 14.2437" stroke="#0085CA" stroke-width="1.35471" stroke-miterlimit="10" stroke-linecap="round" stroke-linejoin="round"/>
<path d="M10.0905 16.9468L12.8976 14.0357" stroke="#0085CA" stroke-width="1.35471" stroke-miterlimit="10" stroke-linecap="round" stroke-linejoin="round"/>
<path d="M14.3531 12.5803L15.4968 11.5406" stroke="#0085CA" stroke-width="1.35471" stroke-miterlimit="10" stroke-linecap="round" stroke-linejoin="round"/>
<path d="M18.2 14.2436L15.3928 17.0507" stroke="#0085CA" stroke-width="1.35471" stroke-miterlimit="10" stroke-linecap="round" stroke-linejoin="round"/>
<path d="M13.9374 18.5064L12.7937 19.65" stroke="#0085CA" stroke-width="1.35471" stroke-miterlimit="10" stroke-linecap="round" stroke-linejoin="round"/>
</g>
<defs>
<clipPath id="clip0">
<rect width="30.4627" height="26.2" fill="white" transform="translate(0.83728)"/>
</clipPath>
</defs>
</svg>
