<svg width="32" height="32" viewBox="0 0 32 32" fill="none" xmlns="http://www.w3.org/2000/svg">
<path d="M21.3865 21.22C20.7067 20.4763 19.8793 19.8823 18.9573 19.476C18.0352 19.0696 17.0387 18.8598 16.031 18.8598C15.0234 18.8598 14.0268 19.0696 13.1048 19.476C12.1827 19.8823 11.3554 20.4763 10.6755 21.22" stroke="#0085CA" stroke-width="1.65841" stroke-linecap="round" stroke-linejoin="round"/>
<path d="M26.1132 16.6763C24.8165 15.3047 23.2536 14.212 21.52 13.4653C19.7865 12.7186 17.9188 12.3334 16.0312 12.3334C14.1437 12.3334 12.276 12.7186 10.5424 13.4653C8.80888 14.212 7.24593 15.3047 5.94922 16.6763" stroke="#0085CA" stroke-width="1.65841" stroke-linecap="round" stroke-linejoin="round"/>
<path d="M24.5813 7.99365C26.944 8.90441 29.0842 10.311 30.8575 12.1185" stroke="#0085CA" stroke-width="1.65841" stroke-linecap="round" stroke-linejoin="round"/>
<path d="M1.2041 12.1185C3.25677 10.0809 5.70807 8.48914 8.40447 7.4429C11.1009 6.39665 13.9843 5.91846 16.8741 6.03831C18.475 6.05858 20.0626 6.33241 21.5778 6.84961" stroke="#0085CA" stroke-width="1.65841" stroke-linecap="round" stroke-linejoin="round"/>
<path d="M17.339 25.1222C17.3399 25.3216 17.2816 25.5168 17.1715 25.683C17.0614 25.8493 16.9044 25.9791 16.7204 26.056C16.5364 26.133 16.3337 26.1536 16.138 26.1152C15.9423 26.0769 15.7624 25.9813 15.6211 25.8406C15.4798 25.6999 15.3834 25.5204 15.3442 25.3249C15.3049 25.1294 15.3246 24.9266 15.4007 24.7423C15.4768 24.558 15.6059 24.4004 15.7716 24.2895C15.9374 24.1786 16.1323 24.1194 16.3317 24.1194C16.5981 24.1194 16.8536 24.2249 17.0424 24.4129C17.2312 24.6008 17.3378 24.8558 17.339 25.1222V25.1222Z" stroke="#0085CA" stroke-width="0.918344" stroke-miterlimit="10"/>
</svg>
