<svg width="66" height="51" viewBox="0 0 66 51" fill="none" xmlns="http://www.w3.org/2000/svg">
<path d="M28.7045 10.7814C28.2623 10.7814 27.8202 10.9174 27.5141 11.1895C27.208 11.4276 27.0379 11.7337 27.0039 12.0738C27.0379 17.2094 27.0379 22.4131 27.0379 27.4467V28.6031C27.1059 29.1813 27.446 29.6574 27.9222 29.8955C28.2963 30.0656 28.7045 30.0656 29.0786 29.8615C33.2959 27.3107 37.4793 24.7599 41.6966 22.175L42.6489 21.5968C43.0911 21.1547 43.2951 20.7466 43.2951 20.3044C43.2951 19.8963 43.0911 19.4882 42.6489 19.08C38.4316 16.5632 34.1462 13.9444 30.0309 11.4276L29.0786 10.8494C28.9425 10.8154 28.8065 10.7814 28.7045 10.7814ZM29.7928 14.6246C32.7518 16.4272 35.7107 18.1957 38.6356 19.9983L39.1798 20.3384L39.1118 20.3724C36.0848 22.209 32.9898 24.0796 30.0309 25.9162L29.7248 26.0863V25.9842C29.7248 22.209 29.7248 18.4678 29.7248 14.6586V14.5566L29.7928 14.6246Z" fill="#636569"/>
<path d="M58.0566 0H7.44839C0.850273 0 0 4.14933 0 7.75449V18.604C0 19.4883 0.714229 20.2025 1.59851 20.2025C2.4828 20.2025 3.19703 19.4883 3.19703 18.604V7.75449C3.19703 4.93158 3.46911 3.19703 7.44839 3.19703H58.0566C60.4034 3.19703 62.308 5.23768 62.308 7.75449V33.2627C62.308 35.7795 60.4034 37.8201 58.0566 37.8201H7.44839C3.46911 37.8201 3.19703 36.0856 3.19703 33.2627V26.0864C3.19703 25.2021 2.4828 24.4879 1.59851 24.4879C0.714229 24.4879 0 25.2021 0 26.0864V33.2627C0 36.8678 0.850273 41.0172 7.44839 41.0172H31.154V45.6086C30.4058 45.6426 29.6235 45.7447 28.8753 45.8467L21.5289 47.0031C20.6446 47.1391 20.0664 47.9554 20.2025 48.8397C20.3385 49.7239 21.1548 50.3021 22.0391 50.1661L29.3854 49.0097C31.6301 48.6696 33.9089 48.6696 36.1876 49.0097L43.534 50.1661C43.602 50.1661 43.704 50.2001 43.772 50.2001C44.5543 50.2001 45.2345 49.6219 45.3365 48.8397C45.4726 47.9554 44.8604 47.1391 44.0101 47.0031L36.6638 45.8467C35.9155 45.7447 35.1333 45.6426 34.385 45.6086V41.0172H58.0566C62.1719 41.0172 65.505 37.548 65.505 33.2627V7.75449C65.505 3.46911 62.1719 0 58.0566 0Z" fill="#636569"/>
</svg>
