<svg width="28" height="24" viewBox="0 0 28 24" fill="none" xmlns="http://www.w3.org/2000/svg">
<path d="M26.5871 4.38247C26.362 2.96434 25.0154 1.67747 23.5813 1.51297C17.2112 0.818772 10.7845 0.81894 4.41452 1.51347C2.98477 1.67722 1.63814 2.96422 1.41202 4.38659C0.639307 9.43425 0.639518 14.5701 1.41264 19.6177C1.63802 21.0358 2.98477 22.3227 4.41852 22.4868C7.60051 22.8339 10.799 23.0078 13.9999 23.0076C17.2008 23.0078 20.3993 22.8339 23.5813 22.4868L23.5851 22.4865C25.0151 22.3228 26.3619 21.0358 26.5879 19.6133C27.3606 14.5657 27.3603 9.42989 26.5871 4.38234V4.38247ZM25.1058 19.3823C24.9855 20.1391 24.1801 20.908 23.4158 20.9961C17.1575 21.678 10.8436 21.678 4.58527 20.9961C3.82039 20.9086 3.01439 20.1393 2.89477 19.3866C2.14529 14.4922 2.14503 9.51229 2.89402 4.61784C3.01439 3.86072 3.82052 3.09134 4.58127 3.00409C10.8404 2.32188 17.1552 2.32175 23.4144 3.00372C24.1794 3.09134 24.9855 3.86059 25.105 4.61334C25.8545 9.5078 25.8548 14.4878 25.1058 19.3823ZM18.4159 11.376L12.4159 7.37597C12.3029 7.30068 12.1717 7.25745 12.0361 7.2509C11.9005 7.24434 11.7657 7.27471 11.646 7.33876C11.5263 7.40281 11.4263 7.49814 11.3565 7.61459C11.2868 7.73103 11.2499 7.86423 11.2499 7.99997V16C11.2499 16.1357 11.2868 16.2689 11.3565 16.3854C11.4263 16.5018 11.5263 16.5971 11.646 16.6612C11.7657 16.7252 11.9005 16.7556 12.0361 16.749C12.1717 16.7425 12.3029 16.6993 12.4159 16.624L18.4159 12.624C18.5186 12.5555 18.6028 12.4627 18.6611 12.3538C18.7193 12.245 18.7498 12.1234 18.7498 12C18.7498 11.8765 18.7193 11.755 18.6611 11.6461C18.6028 11.5373 18.5186 11.4445 18.4159 11.376ZM12.7499 14.5986V9.40134L16.6479 12L12.7499 14.5986Z" fill="#0085CA"/>
</svg>
