<svg width="62" height="57" viewBox="0 0 62 57" fill="none" xmlns="http://www.w3.org/2000/svg">
<path fill-rule="evenodd" clip-rule="evenodd" d="M17.8964 34.0697C17.8964 34.0697 13.77 34.9946 12.0625 35.1369C10.355 35.2081 9.50119 35.0658 6.79765 33.714C4.09411 32.3622 2.38663 30.2278 1.39059 28.4492C0.394544 26.6706 0.821402 26.1725 1.10599 25.6034C1.39057 25.0342 2.17316 24.6785 2.74233 24.4651C3.3115 24.2516 13.6277 21.8327 14.9794 21.5481C16.3312 21.3347 21.6672 20.1963 21.6672 20.1963C21.6672 20.1963 25.3667 10.3782 25.7936 9.38213C26.2205 8.38609 28.7817 1.91181 30.5604 1.05806C32.2679 0.133163 35.256 -0.364841 37.7461 0.631201C40.2362 1.69839 42.0148 4.40195 42.2994 6.9632C42.584 9.52445 38.7421 18.9868 38.7421 18.9868C38.7421 18.9868 46.5682 18.4177 50.3389 18.9157C54.1096 19.4137 56.5286 20.1963 58.8053 21.8326C61.082 23.469 61.7223 25.6034 61.9357 28.1646C62.1492 30.6547 61.0819 30.5836 60.6551 30.7971C60.2282 30.9393 47.8488 29.801 45.1452 29.8721C42.4417 29.9433 35.0426 30.6547 35.0426 30.6547C35.0426 30.6547 32.5525 38.0539 31.841 41.1132C31.1295 44.2436 30.0623 49.2949 29.92 50.789C29.7066 52.3542 29.4932 54.9155 28.2837 55.9115C27.0031 56.9787 22.9478 56.8364 20.6 55.3424C18.2521 53.7772 14.4814 48.5835 14.4814 45.1685C14.4814 41.6823 17.8964 34.0697 17.8964 34.0697Z" fill="#6B6B6B"/>
</svg>
