<svg width="62" height="56" viewBox="0 0 62 56" fill="none" xmlns="http://www.w3.org/2000/svg">
<path d="M15.7944 21.8417H11.5256C11.5968 18.4267 12.5216 15.0828 14.3003 12.1659C14.3003 12.1659 14.3003 12.0947 14.3715 12.0947L15.0118 10.8141C15.3675 10.1738 15.0829 9.32002 14.4426 8.96429C13.8023 8.60857 12.9486 8.89314 12.5928 9.53345L11.9525 10.7429C9.88926 14.1579 8.8221 18.0709 8.8221 22.0551C3.77075 23.2646 0 27.9602 0 33.5096C0 39.9839 5.05137 45.2487 11.3122 45.2487H15.7232C16.4347 45.2487 17.075 44.6795 17.075 43.8969L17.2173 23.0512C17.2173 22.6954 17.075 22.3397 16.7904 22.1263C16.5058 21.984 16.1501 21.8417 15.7944 21.8417ZM14.3003 42.6163H11.241C6.47426 42.6163 2.6324 38.5609 2.6324 33.5807C2.6324 28.6005 6.47426 24.5452 11.241 24.5452H14.3715L14.3003 42.6163Z" fill="#6B6B6B"/>
<path d="M61.8261 33.5808C61.8261 28.0315 58.1265 23.407 53.1463 22.1264C53.1463 9.8893 43.1859 0 30.9488 0C26.4666 0 22.1267 1.35179 18.4983 3.84189L18.4271 3.91302L17.3599 4.83791C16.7908 5.33593 16.7196 6.18969 17.1465 6.75885C17.6445 7.32802 18.4983 7.39916 19.0674 6.97228L20.1346 6.11857C23.3362 3.91305 27.1069 2.7747 31.0199 2.7747C41.6206 2.7747 50.3005 11.3122 50.5139 21.9129H46.2451C45.5337 21.9129 44.8934 22.4821 44.8934 23.2647L44.7511 44.1104C44.7511 44.4661 44.8934 44.8219 45.178 45.1065C45.4625 45.3911 45.7471 45.5333 46.1028 45.5333H50.4428C49.8736 49.5886 46.4586 52.4345 42.0475 52.4345C39.7709 52.4345 37.5653 51.5096 36.0001 49.8733C37.0673 48.8772 37.7788 47.4543 37.7788 45.8891C37.7788 42.9009 35.3598 40.482 32.3717 40.482C29.3836 40.482 26.9646 42.9009 26.9646 45.8891C26.9646 48.8772 29.3836 51.2962 32.3717 51.2962C32.7986 51.2962 33.1543 51.225 33.5812 51.1539C35.7156 53.644 38.846 55.138 42.1187 55.138C48.0949 55.138 52.8617 50.7981 53.2886 45.1776C58.0554 43.8258 61.8261 39.1302 61.8261 33.5808ZM29.4547 45.7468C29.4547 44.2527 30.6642 43.0432 32.1583 43.0432C33.6523 43.0432 34.8618 44.2527 34.8618 45.7468C34.8618 47.2408 33.6523 48.4503 32.1583 48.4503C30.6642 48.4503 29.4547 47.2408 29.4547 45.7468ZM50.5139 42.6164H47.3835L47.4546 24.4742H50.5139C55.2807 24.4742 59.1225 28.5295 59.1225 33.5097C59.1225 38.5611 55.2095 42.6164 50.5139 42.6164Z" fill="#6B6B6B"/>
</svg>
