<svg width="17" height="10" viewBox="0 0 17 10" fill="none" xmlns="http://www.w3.org/2000/svg">
<g clip-path="url(#clip0)">
<path d="M15 1.37907L8.37932 7.99976L1.75862 1.37907" stroke="#074DA4" stroke-width="2.2069" stroke-linecap="round" stroke-linejoin="round"/>
</g>
<defs>
<clipPath id="clip0">
<rect width="17" height="10" fill="white" transform="translate(17 9.99976) rotate(-180)"/>
</clipPath>
</defs>
</svg>
