<svg width="19" height="20" viewBox="0 0 19 20" fill="none" xmlns="http://www.w3.org/2000/svg">
<path d="M4.6499 0.727051C5.09121 0.736546 5.51089 0.920018 5.81756 1.23751C6.12422 1.555 6.29302 1.9808 6.28719 2.42217V17.6024C6.29398 18.0444 6.12561 18.4711 5.81884 18.7894C5.51208 19.1076 5.09185 19.2916 4.6499 19.3011" stroke="#009BD9" stroke-width="1.11285" stroke-linecap="round" stroke-linejoin="round"/>
<path d="M1.52725 13.9812V2.41534C1.52725 0.79973 2.25011 0.720215 3.13563 0.720215H16.8159C17.7014 0.720215 18.4242 0.79973 18.4242 2.41534V17.5955C18.4242 19.2147 17.7014 19.2943 16.8159 19.2943H3.1284C1.79471 19.2943 1.52002 18.7593 1.52002 17.5955V16.5763" stroke="#009BD9" stroke-width="1.10346" stroke-linecap="round" stroke-linejoin="round"/>
<path d="M9.76165 11.187H9.75708" stroke="#009BD9" stroke-width="1.11285" stroke-linecap="round" stroke-linejoin="round"/>
<path d="M9.76238 8.73291H9.75781" stroke="#009BD9" stroke-width="1.11285" stroke-linecap="round" stroke-linejoin="round"/>
<path d="M9.76165 13.3555H9.75708" stroke="#009BD9" stroke-width="1.11285" stroke-linecap="round" stroke-linejoin="round"/>
<path d="M12.5302 11.187H12.5256" stroke="#009BD9" stroke-width="1.11285" stroke-linecap="round" stroke-linejoin="round"/>
<path d="M12.5314 8.73291H12.5269" stroke="#009BD9" stroke-width="1.11285" stroke-linecap="round" stroke-linejoin="round"/>
<path d="M12.5302 13.3555H12.5256" stroke="#009BD9" stroke-width="1.11285" stroke-linecap="round" stroke-linejoin="round"/>
<path d="M15.4218 11.187H15.4172" stroke="#009BD9" stroke-width="1.11285" stroke-linecap="round" stroke-linejoin="round"/>
<path d="M15.4221 8.73291H15.4175" stroke="#009BD9" stroke-width="1.11285" stroke-linecap="round" stroke-linejoin="round"/>
<path d="M15.4218 13.3555H15.4172" stroke="#009BD9" stroke-width="1.11285" stroke-linecap="round" stroke-linejoin="round"/>
<path d="M9.22583 5.22021H15.4063" stroke="#009BD9" stroke-width="1.11285" stroke-linecap="round" stroke-linejoin="round"/>
</svg>
