<svg width="24" height="17" viewBox="0 0 24 17" fill="none" xmlns="http://www.w3.org/2000/svg">
<path d="M15.7378 12.88C15.2279 12.3222 14.6074 11.8768 13.9159 11.572C13.2243 11.2673 12.4769 11.1099 11.7212 11.1099C10.9655 11.1099 10.2181 11.2673 9.52651 11.572C8.83498 11.8768 8.21449 12.3222 7.70459 12.88" stroke="#333333" stroke-width="1.05252" stroke-linecap="round" stroke-linejoin="round"/>
<path d="M19.2827 9.47199C18.3102 8.44327 17.138 7.62381 15.8378 7.06376C14.5377 6.50371 13.1369 6.21484 11.7213 6.21484C10.3056 6.21484 8.90485 6.50371 7.60469 7.06376C6.30453 7.62381 5.13232 8.44327 4.15979 9.47199" stroke="#333333" stroke-width="1.05252" stroke-linecap="round" stroke-linejoin="round"/>
<path d="M18.1339 2.96045C19.906 3.64351 21.5111 4.69842 22.841 6.05409" stroke="#63666A" stroke-width="1.05252" stroke-linecap="round" stroke-linejoin="round"/>
<path d="M0.601196 6.05365C2.14069 4.52546 3.97916 3.33163 6.00146 2.54695C8.02375 1.76227 10.1863 1.40363 12.3536 1.49351C13.5543 1.50872 14.745 1.71409 15.8814 2.10199" stroke="#333333" stroke-width="1.05252" stroke-linecap="round" stroke-linejoin="round"/>
<path d="M12.7022 15.8067C12.7029 15.9563 12.6592 16.1027 12.5766 16.2274C12.494 16.3521 12.3762 16.4494 12.2382 16.5071C12.1002 16.5648 11.9482 16.5803 11.8015 16.5515C11.6547 16.5227 11.5198 16.4511 11.4138 16.3456C11.3078 16.24 11.2355 16.1054 11.2061 15.9588C11.1766 15.8122 11.1914 15.6601 11.2485 15.5218C11.3055 15.3836 11.4024 15.2654 11.5267 15.1822C11.651 15.0991 11.7972 15.0547 11.9467 15.0547C12.1465 15.0547 12.3381 15.1338 12.4797 15.2747C12.6213 15.4157 12.7013 15.607 12.7022 15.8067V15.8067Z" stroke="#333333" stroke-width="0.582835" stroke-miterlimit="10"/>
</svg>
