<svg width="32" height="28" viewBox="0 0 32 28" fill="none" xmlns="http://www.w3.org/2000/svg">
<path d="M30.75 19.0039C31.4404 19.0039 32 18.4443 32 17.7539V5.25391C32 2.49691 29.757 0.253906 27 0.253906H5C2.243 0.253906 0 2.49691 0 5.25391V17.7539C0 20.5109 2.243 22.7539 5 22.7539H14.75V25.2463H10.375C9.68463 25.2463 9.125 25.8059 9.125 26.4963C9.125 27.1867 9.68463 27.7463 10.375 27.7463H21.625C22.3154 27.7463 22.875 27.1867 22.875 26.4963C22.875 25.8059 22.3154 25.2463 21.625 25.2463H17.25V22.7539H27C29.757 22.7539 32 20.5109 32 17.7539C32 17.0635 31.4404 16.5039 30.75 16.5039C30.0596 16.5039 29.5 17.0635 29.5 17.7539C29.5 19.1324 28.3785 20.2539 27 20.2539H5C3.6215 20.2539 2.5 19.1324 2.5 17.7539V5.25391C2.5 3.87541 3.6215 2.75391 5 2.75391H27C28.3785 2.75391 29.5 3.87541 29.5 5.25391V17.7539C29.5 18.4443 30.0596 19.0039 30.75 19.0039Z" fill="#333333"/>
</svg>
