<svg width="50" height="49" viewBox="0 0 50 49" fill="none" xmlns="http://www.w3.org/2000/svg">
<path d="M25 0.03125C11.6211 0.03125 0.78125 10.9688 0.78125 24.25C0.78125 37.6289 11.6211 48.4688 25 48.4688C38.2812 48.4688 49.2188 37.6289 49.2188 24.25C49.2188 10.9688 38.2812 0.03125 25 0.03125ZM41.4062 11.1641L35.2539 17.3164C34.5703 16.1445 33.1055 14.6797 31.9336 13.9961L38.0859 7.84375C39.1602 8.625 40.625 10.0898 41.4062 11.1641ZM25 33.625C19.8242 33.625 15.625 29.4258 15.625 24.25C15.625 19.1719 19.8242 14.875 25 14.875C30.0781 14.875 34.375 19.1719 34.375 24.25C34.375 29.4258 30.0781 33.625 25 33.625ZM35.4492 5.98828L29.0039 12.4336C26.3672 11.5547 23.5352 11.5547 20.8984 12.4336L14.4531 5.98828C20.8984 2.27734 29.0039 2.27734 35.4492 5.98828ZM11.8164 7.84375L17.9688 13.9961C16.7969 14.6797 15.332 16.1445 14.6484 17.3164L8.49609 11.1641C9.27734 10.0898 10.7422 8.625 11.8164 7.84375ZM6.64062 13.8008L13.0859 20.2461C12.207 22.8828 12.207 25.7148 13.0859 28.3516L6.64062 34.7969C2.92969 28.3516 2.92969 20.2461 6.64062 13.8008ZM8.49609 37.4336L14.6484 31.2812C15.332 32.4531 16.7969 33.918 17.9688 34.6016L11.8164 40.7539C10.7422 39.9727 9.27734 38.5078 8.49609 37.4336ZM14.4531 42.6094L20.8984 36.1641C23.5352 37.043 26.3672 37.043 29.0039 36.1641L35.4492 42.6094C29.0039 46.3203 20.8984 46.3203 14.4531 42.6094ZM38.0859 40.7539L31.9336 34.6016C33.1055 33.918 34.5703 32.4531 35.2539 31.2812L41.4062 37.4336C40.625 38.5078 39.1602 39.9727 38.0859 40.7539ZM43.2617 34.7969L36.8164 28.3516C37.6953 25.7148 37.6953 22.8828 36.8164 20.2461L43.2617 13.8008C46.9727 20.2461 46.9727 28.3516 43.2617 34.7969Z" fill="#0066A6"/>
</svg>
