<svg width="80" height="74" viewBox="0 0 80 74" fill="none" xmlns="http://www.w3.org/2000/svg">
<path d="M71.653 0.170358H63.7343C62.6642 0.170358 61.7654 1.02215 61.7654 2.12947C61.7654 3.19421 62.6214 4.08859 63.7343 4.08859H71.653C74.1356 4.08859 76.1901 6.09029 76.1901 8.60307V36.201C76.1901 38.6712 74.1784 40.6729 71.653 40.6729H68.9564C67.8863 40.6729 66.9874 41.5247 66.9874 42.632V51.9591L61.7226 46.1669V22.8279C61.7226 18.1857 57.9559 14.4378 53.2903 14.4378L22.3434 14.4804V8.43271C22.3434 5.96252 24.3552 3.91823 26.8378 3.91823L54.5316 3.96082C55.6017 3.96082 56.5006 3.10903 56.5006 2.0017C56.5006 0.936968 55.6445 0.0425896 54.5316 0.0425896L26.795 0C22.1294 0 18.3627 3.74787 18.3627 8.39012V14.4378H8.43228C3.7667 14.4378 0 18.1857 0 22.8279V35.3066C0 36.3714 0.856069 37.2658 1.96896 37.2658C3.03904 37.2658 3.93792 36.414 3.93792 35.3066V22.9131C3.93792 20.4429 5.94968 18.3986 8.47508 18.3986L53.2903 18.3135C55.7729 18.3135 57.8275 20.3152 57.8275 22.8279V50.4259C57.8275 52.8961 55.8157 54.8978 53.2903 54.8978L30.9041 54.983C30.3476 54.983 29.834 55.1959 29.4488 55.6218L19.7324 66.2691V56.9421C19.7324 55.8773 18.8763 54.983 17.7634 54.983H8.43228C5.94968 54.983 3.93792 52.9813 3.93792 50.5111V44.506C3.93792 43.4412 3.08185 42.5468 1.96896 42.5468C0.898872 42.5468 0 43.3986 0 44.506V50.5111C0 55.1533 3.7667 58.9012 8.43228 58.9012H15.7517V71.2521C15.7517 71.9761 16.1369 72.7002 16.779 73.0409C17.0786 73.1686 17.3782 73.2538 17.6778 73.2538C18.2343 73.2538 18.7479 73.0409 19.1331 72.615L31.6746 58.9012L53.2047 58.816C57.3994 58.816 60.8665 55.7922 61.5086 51.8313L67.4154 58.3049C67.9291 58.9012 68.8279 59.1141 69.5556 58.816C70.2833 58.5179 70.7969 57.7939 70.7969 56.9847V44.5485H71.5674C76.2329 44.5485 79.9996 40.8007 79.9996 36.1584V8.56048C80.0424 3.91823 76.2757 0.170358 71.653 0.170358Z" fill="white"/>
</svg>
