<svg width="56" height="56" viewBox="0 0 56 56" fill="none" xmlns="http://www.w3.org/2000/svg">
<path d="M7 42V28C7 22.4305 9.21249 17.089 13.1508 13.1508C17.089 9.21249 22.4305 7 28 7C33.5695 7 38.911 9.21249 42.8492 13.1508C46.7875 17.089 49 22.4305 49 28V42" stroke="#EE712E" stroke-width="4.66667" stroke-linecap="round" stroke-linejoin="round"/>
<path d="M49 44.3346C49 45.5723 48.5083 46.7593 47.6332 47.6345C46.758 48.5096 45.571 49.0013 44.3333 49.0013H42C40.7623 49.0013 39.5753 48.5096 38.7002 47.6345C37.825 46.7593 37.3333 45.5723 37.3333 44.3346V37.3346C37.3333 36.097 37.825 34.91 38.7002 34.0348C39.5753 33.1596 40.7623 32.668 42 32.668H49V44.3346ZM7 44.3346C7 45.5723 7.49167 46.7593 8.36683 47.6345C9.242 48.5096 10.429 49.0013 11.6667 49.0013H14C15.2377 49.0013 16.4247 48.5096 17.2998 47.6345C18.175 46.7593 18.6667 45.5723 18.6667 44.3346V37.3346C18.6667 36.097 18.175 34.91 17.2998 34.0348C16.4247 33.1596 15.2377 32.668 14 32.668H7V44.3346Z" stroke="#EE712E" stroke-width="4.66667" stroke-linecap="round" stroke-linejoin="round"/>
</svg>
