<svg width="58" height="52" viewBox="0 0 58 52" fill="none" xmlns="http://www.w3.org/2000/svg">
<path d="M23.3136 41.9668C20.8235 41.8956 18.618 44.1012 18.5469 46.6624C18.5469 49.2237 20.6101 51.358 23.2425 51.358C25.8037 51.358 27.9381 49.2237 27.9381 46.6624C27.9381 44.1723 25.8037 42.0379 23.3136 41.9668ZM23.3136 48.7968C22.1753 48.7968 21.2504 47.8719 21.2504 46.7335C21.2504 45.5952 22.1041 44.7415 23.2425 44.7415C24.3808 44.7415 25.3057 45.6664 25.3057 46.8047C25.3057 47.8719 24.3808 48.7256 23.3136 48.7968Z" fill="#6B6B6B"/>
<path d="M42.1671 41.9668C39.677 41.9668 37.4004 44.1723 37.4004 46.6624C37.4004 49.2237 39.6059 51.3581 42.096 51.3581C44.6572 51.3581 46.7916 49.1525 46.7916 46.5913C46.8628 44.1723 44.6572 42.0379 42.1671 41.9668ZM42.1671 48.7968C41.0288 48.7968 40.1039 47.9431 40.1039 46.8047C40.1039 45.5953 40.9577 44.7415 42.096 44.6704C43.2343 44.6704 44.1592 45.5952 44.1592 46.7336C44.2304 47.8719 43.3055 48.7968 42.1671 48.7968Z" fill="#6B6B6B"/>
<path d="M56.3254 8.17211C56.0408 8.17211 55.7562 8.17211 55.5428 8.17211H38.1121C37.4006 8.17211 36.7603 8.7413 36.7603 9.5239C36.7603 10.2354 37.3294 10.8757 38.1121 10.8757H55.0447C53.7641 16.7808 52.4835 22.5436 51.1317 28.4487H14.0647C12.7841 22.6147 11.5035 16.7808 10.1517 10.8757H29.7879C30.4994 10.8757 31.1397 10.3065 31.1397 9.5239C31.1397 8.81244 30.5705 8.17211 29.7879 8.17211H10.792H9.51138C9.0845 6.25118 8.72879 4.47254 8.37306 2.62275C8.23077 1.84014 7.80388 1.41327 7.02127 1.19983C5.24263 0.844102 3.53518 0.48839 1.82768 0.0615153C0.902782 -0.151922 0.26247 0.203816 0.0490322 0.915274C-0.164405 1.69788 0.333581 2.40931 1.25848 2.62275C2.5391 2.90733 3.81973 3.26307 5.1715 3.47651C5.81181 3.54765 5.95414 3.9034 6.09643 4.47257C8.51539 15.429 10.8632 26.3854 13.2821 37.3419C13.6379 39.0494 13.9224 39.1917 15.6299 39.1917C26.3018 39.1917 37.0449 39.1917 47.7167 39.1917C48.4993 39.1917 49.353 39.1917 50.1356 39.1917C51.1317 39.1917 51.7009 38.6225 51.6298 37.8399C51.6298 37.0573 51.1317 36.6304 50.0645 36.6304C49.8511 36.6304 49.5665 36.6304 49.353 36.6304H24.0963C21.6062 36.6304 19.0449 36.6304 16.5548 36.6304C16.128 36.6304 15.7722 36.6305 15.6299 36.0613C15.3453 34.4249 14.9184 32.8598 14.5627 31.1523H15.7011C27.5825 31.1523 39.5349 31.1523 51.4163 31.1523C52.8392 31.1523 53.195 30.7965 53.4795 29.5159C54.6179 24.4645 55.685 19.4132 56.8234 14.3618C57.1079 13.01 57.4637 11.5871 57.7483 10.1642C58.1752 8.81246 57.6771 8.17211 56.3254 8.17211Z" fill="#6B6B6B"/>
</svg>
