<svg width="58" height="57" viewBox="0 0 58 57" fill="none" xmlns="http://www.w3.org/2000/svg">
<path d="M55.6952 18.2754L45.1657 7.74578L40.6834 3.2636L39.1894 1.76951C36.9127 -0.507155 33.2843 -0.507155 31.0788 1.76951L2.5493 30.299C0.27263 32.5757 0.27263 36.2041 2.5493 38.4096L4.04334 39.9037L8.52556 44.3859L18.5571 54.4174H17.2053C16.6362 54.4174 16.1381 54.9154 16.1381 55.4846C16.1381 56.0538 16.6362 56.5518 17.2053 56.5518H41.466C42.0352 56.5518 42.5332 56.0538 42.5332 55.4846C42.5332 54.9154 42.0352 54.4174 41.466 54.4174H27.5215L55.6241 26.3148C57.9007 24.1805 57.9007 20.4809 55.6952 18.2754ZM4.68367 36.2752C3.61648 35.2081 3.61648 33.5006 4.68367 32.4334L33.2131 3.90389C34.2803 2.8367 35.9878 2.8367 37.055 3.90389L37.4819 4.33079L5.11053 36.7021L4.68367 36.2752ZM53.5608 24.2516L25.0314 52.7811C23.9642 53.8483 22.2567 53.8483 21.1895 52.7811L11.7271 43.3187L32.5017 22.5441C33.0708 21.9749 33.0708 20.9789 32.5017 20.4097C31.9325 19.8406 30.9365 19.8406 30.3673 20.4097L9.59275 41.1843L7.2449 38.8365L39.6163 6.46516L40.0431 6.89202L41.9641 8.81297L35.6321 15.145C35.0629 15.7141 35.0629 16.639 35.6321 17.137C36.2724 17.7773 37.2684 17.7773 37.9087 17.137L44.1696 10.8762L53.632 20.3386C54.628 21.4769 54.628 23.1844 53.5608 24.2516Z" fill="#6B6B6B"/>
</svg>
