<?xml version="1.0" encoding="utf-8"?>
<!-- Generator: Adobe Illustrator 22.0.1, SVG Export Plug-In . SVG Version: 6.00 Build 0)  -->
<svg version="1.1" id="Layer_1" xmlns="http://www.w3.org/2000/svg" xmlns:xlink="http://www.w3.org/1999/xlink" x="0px" y="0px"
	 viewBox="0 0 216 216" style="enable-background:new 0 0 216 216;" xml:space="preserve">
<style type="text/css">
	.st0{fill:#636569;}
	.st1{fill:none;}
	.st2{fill:#FFFFFF;}
</style>
<g>
	<path class="st0" d="M108.5,118c-12.8,0-25.2,5.5-33.9,15c-0.9,1-1.4,2.3-1.3,3.6c0.1,1.3,0.6,2.6,1.6,3.5c0.9,0.9,2.1,1.3,3.4,1.3
		l0.2,0c1.4-0.1,2.6-0.6,3.5-1.6c6.8-7.4,16.5-11.7,26.5-11.7c10,0,19.7,4.3,26.5,11.7c1,1,2.3,1.6,3.7,1.6c1.3,0,2.5-0.5,3.4-1.3
		c1-0.9,1.6-2.2,1.6-3.5c0.1-1.3-0.4-2.6-1.3-3.6C133.7,123.5,121.3,118,108.5,118z"/>
	<path class="st0" d="M108.5,81.2c-23.1,0-44.6,9.3-60.5,26.1c-0.9,1-1.4,2.3-1.4,3.6c0,1.3,0.6,2.6,1.6,3.5
		c0.9,0.9,2.2,1.4,3.5,1.4c1.4,0,2.7-0.6,3.7-1.6c14-14.8,32.9-22.9,53.2-22.9c20.3,0,39.2,8.1,53.2,22.9c0.9,1,2.2,1.5,3.5,1.6
		l0.2,0c1.2,0,2.5-0.5,3.4-1.4c1-0.9,1.5-2.2,1.6-3.5c0-1.3-0.5-2.6-1.4-3.6C153.1,90.5,131.6,81.2,108.5,81.2z"/>
	<path class="st0" d="M195.7,81.4c-11.3-11.1-21.3-17.7-37-24.3c-0.6-0.3-1.3-0.4-1.9-0.4c-0.7,0-1.3,0.1-1.9,0.4
		c-1.2,0.5-2.2,1.5-2.7,2.7c-0.5,1.2-0.5,2.6,0,3.9c0.5,1.2,1.5,2.2,2.7,2.7c14.6,6.1,23.4,11.9,33.8,22.2c0.9,0.9,2.2,1.5,3.5,1.5
		c1.4,0,2.6-0.5,3.6-1.5c0.9-1,1.5-2.2,1.5-3.6C197.1,83.6,196.6,82.4,195.7,81.4z"/>
	<path class="st0" d="M113,55.8L113,55.8c10.3,0.4,16.1,1.4,25.2,4.3c1.3,0.4,2.6,0.3,3.8-0.3c1.2-0.6,2.1-1.7,2.5-2.9
		c0.4-1.3,0.3-2.6-0.3-3.8c-0.6-1.2-1.7-2.1-2.9-2.5c-9.9-3.2-16.7-4.4-27.9-4.8c-1.6-0.1-3.2-0.1-4.8-0.1c-15.7,0-31.7,3-46.1,8.8
		c-15.2,6.1-29.5,15.4-41.2,27c-1,0.9-1.5,2.2-1.5,3.6c0,1.3,0.5,2.6,1.5,3.6c1,1,2.2,1.5,3.6,1.5c1.3,0,2.6-0.5,3.5-1.5
		c10.8-10.7,23.9-19.2,37.8-24.8C80.9,57.9,97.1,55.1,113,55.8z"/>
	<path class="st0" d="M109.4,153.6c-5.7,0-10.4,4.7-10.4,10.4c0,5.7,4.7,10.4,10.4,10.4c5.7,0,10.4-4.7,10.4-10.4
		C119.8,158.3,115.1,153.6,109.4,153.6z"/>
</g>
</svg>
