<?xml version="1.0" encoding="utf-8"?>
<!-- Generator: Adobe Illustrator 22.0.1, SVG Export Plug-In . SVG Version: 6.00 Build 0)  -->
<svg version="1.1" id="Layer_1" xmlns="http://www.w3.org/2000/svg" xmlns:xlink="http://www.w3.org/1999/xlink" x="0px" y="0px"
	 viewBox="0 0 216 216" style="enable-background:new 0 0 216 216;" xml:space="preserve">
<style type="text/css">
	.st0{fill:#636569;}
	.st1{fill:none;}
	.st2{fill:#FFFFFF;}
	.st3{fill:#636569;stroke:#636569;stroke-width:0.3;stroke-miterlimit:10;}
	.st4{fill:#636569;stroke:#636569;stroke-width:0.2;stroke-miterlimit:10;}
	.st5{fill-rule:evenodd;clip-rule:evenodd;fill:#636569;}
</style>
<g>
	<path class="st0" d="M80.7,101.1h60.7c2.7,0,5.1-2.2,5.1-4.7V35.6c0-2.8-2.3-5.1-5.1-5.1H80.7c-2.8,0-5.1,2.3-5.1,5.1V96
		C75.6,98.8,77.9,101.1,80.7,101.1z M85.4,40.3h51v51h-51V40.3z"/>
	<path class="st0" d="M32.7,186.9h60.7c2.7,0,5.1-2.2,5.1-4.7v-60.7c0-2.8-2.3-5.1-5.1-5.1H32.7c-2.8,0-5.1,2.3-5.1,5.1v60.4
		C27.7,184.7,29.9,186.9,32.7,186.9z M37.4,126.2h51v51h-51V126.2z"/>
	<path class="st0" d="M185.3,116.2h-4.8c-2.7,0-4.9,2.2-4.9,4.9v0.3c0,2.7,2.2,4.9,4.9,4.9h0.1v51h-51v-51h24.2
		c2.7,0,4.9-2.2,4.9-4.9v-0.3c0-2.7-2.2-4.9-4.9-4.9h-29.3c-2.8,0-5.1,2.3-5.1,5.1V182c0,2.8,2.3,5.1,5.1,5.1h60.7
		c2.8,0,5.1-2.3,5.1-5.1v-60.7C190.3,118.5,188.1,116.2,185.3,116.2z"/>
</g>
</svg>
