<svg width="326" height="224" viewBox="0 0 326 224" fill="none" xmlns="http://www.w3.org/2000/svg">
<rect width="326" height="224" fill="url(#paint0_linear)"/>
<defs>
<linearGradient id="paint0_linear" x1="173.5" y1="77.7778" x2="168.113" y2="224.204" gradientUnits="userSpaceOnUse">
<stop stop-color="#3BCAEC" stop-opacity="0"/>
<stop offset="0.536597" stop-color="#1D97C8" stop-opacity="0.28"/>
<stop offset="1" stop-color="#0066A6" stop-opacity="0.85"/>
</linearGradient>
</defs>
</svg>
