<svg width="18" height="18" viewBox="0 0 18 18" fill="none" xmlns="http://www.w3.org/2000/svg">
<path d="M12.4764 0L12.0217 0.498363C11.0035 1.61916 10.1641 2.1203 9.46544 2.44815C8.76676 2.77531 8.17968 2.87304 7.60299 3.31457C6.98818 3.7859 6.09473 4.68975 5.71836 6.30336C4.91155 6.47942 4.321 6.78856 3.85521 7.19127C3.39497 7.58913 3.0484 8.04174 2.62143 8.53456C2.61797 8.54011 2.62351 8.5505 2.62143 8.55605C2.0087 9.26027 1.47291 10.0186 0.433209 10.4192L0 10.5925V18H13.2132C13.9708 17.9591 14.4962 17.4344 14.8157 16.9166C15.1346 16.3996 15.3113 15.8395 15.4007 15.3793C15.6309 14.2065 16.0502 10.8302 16.0502 10.8302L16.0724 10.7658V10.7006C16.0502 10.232 15.8575 9.83419 15.617 9.46544L16.3968 7.14829L17.6319 5.28515L17.9785 4.78678L17.5231 4.37576L12.9748 0.433209L12.4764 0ZM12.5201 1.90612L16.1369 5.0474L15.1838 6.45447L15.1193 6.52031L15.0972 6.62844L14.4692 8.49089C14.1413 8.35573 13.8038 8.26077 13.4295 8.27464H13.3858L9.01074 8.29612H8.31761V10.982C8.22057 11.7375 7.80053 12.03 7.27791 12.2387C7.10463 12.3087 7.08314 12.2706 6.93134 12.3031V8.27533C6.81767 5.70588 7.7326 4.96631 8.44792 4.41942C8.64546 4.26763 9.22423 4.09226 10.0504 3.7048C10.7408 3.37972 11.5989 2.79749 12.5201 1.90681V1.90612ZM5.58874 7.86291C5.58597 8.02026 5.53676 8.13116 5.54507 8.29612V13.8412H6.23821C6.23821 13.8412 6.97986 13.8329 7.77627 13.5161C8.57199 13.1994 9.53337 12.4577 9.70388 11.1553V9.68239L13.4295 9.6609H13.451C13.7552 9.64424 14.0537 9.74882 14.281 9.95174C14.5084 10.1547 14.6461 10.4394 14.6639 10.7436C14.6612 10.7547 14.6293 11.0118 14.621 11.0687H11.7833V12.4549H14.4477C14.3742 12.9907 14.307 13.3269 14.2307 13.8412H11.7833V15.2275H14.0145C13.9326 15.5628 13.801 15.884 13.6242 16.1805C13.435 16.489 13.2721 16.6054 13.1266 16.6137H1.38627V11.4367C2.50984 10.8406 3.20852 9.98321 3.66044 9.46613C4.129 8.92965 4.45061 8.52347 4.7653 8.25315C4.97116 8.07709 5.29347 7.97659 5.58874 7.86291Z" fill="#EE712E"/>
</svg>
