<svg width="26" height="27" viewBox="0 0 26 27" fill="none" xmlns="http://www.w3.org/2000/svg">
<path d="M1.05517 19.2096V22.8297C1.0538 23.1658 1.12265 23.4985 1.25728 23.8064C1.39192 24.1143 1.58939 24.3907 1.83703 24.6179C2.08468 24.8451 2.37705 25.0181 2.69541 25.1258C3.01378 25.2334 3.35112 25.2734 3.68583 25.2432C7.39913 24.8397 10.966 23.5708 14.0999 21.5385C17.0155 19.6858 19.4875 17.2138 21.3402 14.2982C23.3796 11.1501 24.6488 7.56584 25.0449 3.83586C25.075 3.50216 25.0354 3.16584 24.9284 2.8483C24.8215 2.53077 24.6496 2.23898 24.4237 1.99152C24.1978 1.74406 23.9229 1.54635 23.6164 1.41097C23.3099 1.27559 22.9786 1.20551 22.6435 1.2052H19.0233C18.4377 1.19943 17.8699 1.40681 17.4259 1.78869C16.9819 2.17056 16.6918 2.70087 16.6099 3.28076C16.4571 4.4393 16.1737 5.57684 15.7652 6.67167C15.6028 7.10358 15.5677 7.57299 15.6639 8.02426C15.7602 8.47554 15.9837 8.88976 16.3082 9.21786L17.8407 10.7504C16.1229 13.7715 13.6215 16.2729 10.6004 17.9908L9.06783 16.4582C8.73974 16.1338 8.32551 15.9102 7.87424 15.8139C7.42296 15.7177 6.95356 15.7528 6.52164 15.9152C5.42681 16.3237 4.28928 16.6071 3.13074 16.7599C2.54455 16.8426 2.0092 17.1379 1.62651 17.5895C1.24382 18.0412 1.04048 18.6177 1.05517 19.2096Z" stroke="#524B8D" stroke-width="1.55" stroke-linecap="round" stroke-linejoin="round"/>
</svg>
