<svg width="32" height="33" viewBox="0 0 32 33" fill="none" xmlns="http://www.w3.org/2000/svg">
<path d="M29.5696 11.2562C29.6693 10.7217 29.7198 10.1792 29.7205 9.63548C29.7144 4.58562 25.6158 0.496842 20.5659 0.502936C16.7217 0.507557 13.291 2.91613 11.9808 6.53016C9.6349 5.59633 6.97613 6.74098 6.04224 9.08686C5.9614 9.28992 5.89524 9.49846 5.84427 9.71095C2.09852 10.2712 -0.483841 13.7618 0.0763616 17.5076C0.57877 20.867 3.46477 23.3524 6.86148 23.351H12.5762C13.2075 23.351 13.7192 22.8393 13.7192 22.208C13.7192 21.5767 13.2075 21.065 12.5762 21.065H6.86148C4.33651 21.065 2.28965 19.0182 2.28965 16.4932C2.28965 13.9682 4.33651 11.9214 6.86148 11.9214C7.49274 11.9214 8.00445 11.4096 8.00445 10.7784C8.00653 9.51594 9.03164 8.49418 10.2941 8.49626C10.8911 8.49726 11.4641 8.73179 11.8904 9.14968C12.34 9.59275 13.0637 9.58746 13.5068 9.13789C13.6731 8.96906 13.7829 8.75275 13.8209 8.51876C14.4413 4.78633 17.9699 2.26357 21.7023 2.88398C25.4348 3.50439 27.9575 7.03303 27.3371 10.7655C27.3001 10.988 27.2521 11.2086 27.1934 11.4264C27.062 11.9035 27.2525 12.4109 27.6655 12.6836C29.7694 14.0796 30.3433 16.9169 28.9472 19.0208C28.1022 20.2943 26.6769 21.0613 25.1487 21.0649H21.7198C21.0886 21.0649 20.5768 21.5766 20.5768 22.2079C20.5768 22.8391 21.0886 23.3508 21.7198 23.3508H25.1487C28.9361 23.3473 32.0035 20.274 31.9999 16.4866C31.998 14.4708 31.1092 12.5578 29.5696 11.2562Z" fill="#3BCAEC"/>
<path d="M10.6534 18.4458C11.0963 18.8735 11.7985 18.8735 12.2414 18.4458L16.0075 14.682L16.0075 31.3531C16.0075 31.9844 16.5192 32.4961 17.1504 32.4961C17.7817 32.4961 18.2934 31.9844 18.2934 31.3531L18.2934 14.682L22.0572 18.4458C22.5112 18.8843 23.2348 18.8717 23.6733 18.4178C24.1011 17.9748 24.1011 17.2726 23.6733 16.8297L17.9586 11.115C17.5128 10.6681 16.7891 10.6671 16.3422 11.113C16.3415 11.1136 16.3408 11.1143 16.3401 11.115L10.6253 16.8297C10.1868 17.2837 10.1994 18.0072 10.6534 18.4458Z" fill="#3BCAEC"/>
</svg>
