<svg width="17" height="28" viewBox="0 0 17 28" fill="none" xmlns="http://www.w3.org/2000/svg">
<path d="M1.67748 23.0741L10.7308 14.0208L1.67748 4.96747C1.46145 4.75145 1.29009 4.49499 1.17318 4.21274C1.05627 3.93049 0.996094 3.62798 0.996094 3.32247C0.996094 3.01697 1.05627 2.71446 1.17318 2.43221C1.29009 2.14996 1.46145 1.8935 1.67748 1.67747C1.8935 1.46145 2.14996 1.29009 2.43221 1.17318C2.71446 1.05627 3.01697 0.996094 3.32248 0.996094C3.62798 0.996094 3.93049 1.05627 4.21274 1.17318C4.49499 1.29009 4.75145 1.46145 4.96748 1.67747L15.6775 12.3875C16.5875 13.2975 16.5875 14.7675 15.6775 15.6775L4.96748 26.3875C4.75161 26.6038 4.4952 26.7754 4.21293 26.8925C3.93066 27.0096 3.62807 27.0698 3.32248 27.0698C3.01688 27.0698 2.71429 27.0096 2.43202 26.8925C2.14975 26.7754 1.89334 26.6038 1.67748 26.3875C0.790809 25.4775 0.767476 23.9841 1.67748 23.0741Z" fill="#747474"/>
</svg>
