<svg width="18" height="21" viewBox="0 0 18 21" fill="none" xmlns="http://www.w3.org/2000/svg">
<path d="M15 5.00019H11.41L13.71 2.71019C13.8032 2.61695 13.8772 2.50626 13.9277 2.38443C13.9781 2.26261 14.0041 2.13204 14.0041 2.00019C14.0041 1.86833 13.9781 1.73776 13.9277 1.61594C13.8772 1.49411 13.8032 1.38342 13.71 1.29019C13.6168 1.19695 13.5061 1.12299 13.3842 1.07253C13.2624 1.02207 13.1319 0.996094 13 0.996094C12.7337 0.996094 12.4783 1.10188 12.29 1.29019L9 4.59019L5.71 1.29019C5.61676 1.19695 5.50607 1.12299 5.38425 1.07253C5.26243 1.02207 5.13186 0.996094 5 0.996094C4.86814 0.996094 4.73757 1.02207 4.61575 1.07253C4.49393 1.12299 4.38324 1.19695 4.29 1.29019C4.1017 1.47849 3.99591 1.73388 3.99591 2.00019C3.99591 2.13204 4.02188 2.26261 4.07234 2.38443C4.1228 2.50626 4.19676 2.61695 4.29 2.71019L6.59 5.00019H3C2.20435 5.00019 1.44129 5.31626 0.87868 5.87887C0.316071 6.44147 0 7.20454 0 8.00019V18.0002C0 18.7958 0.316071 19.5589 0.87868 20.1215C1.44129 20.6841 2.20435 21.0002 3 21.0002H15C15.7956 21.0002 16.5587 20.6841 17.1213 20.1215C17.6839 19.5589 18 18.7958 18 18.0002V8.00019C18 7.20454 17.6839 6.44147 17.1213 5.87887C16.5587 5.31626 15.7956 5.00019 15 5.00019ZM16 18.0002C16 18.2654 15.8946 18.5198 15.7071 18.7073C15.5196 18.8948 15.2652 19.0002 15 19.0002H3C2.73478 19.0002 2.48043 18.8948 2.29289 18.7073C2.10536 18.5198 2 18.2654 2 18.0002V8.00019C2 7.73497 2.10536 7.48062 2.29289 7.29308C2.48043 7.10554 2.73478 7.00019 3 7.00019H15C15.2652 7.00019 15.5196 7.10554 15.7071 7.29308C15.8946 7.48062 16 7.73497 16 8.00019V18.0002Z" fill="#524B8D"/>
</svg>
