<svg width="32" height="33" viewBox="0 0 32 33" fill="none" xmlns="http://www.w3.org/2000/svg">
<path d="M29.5696 11.1024C29.6693 10.5679 29.7198 10.0254 29.7205 9.48167C29.7144 4.43181 25.6158 0.343034 20.5659 0.349128C16.7217 0.353749 13.291 2.76232 11.9808 6.37635C9.6349 5.44252 6.97613 6.58717 6.04224 8.93305C5.9614 9.13611 5.89524 9.34465 5.84427 9.55715C2.09852 10.1173 -0.483841 13.608 0.0763616 17.3538C0.57877 20.7132 3.46477 23.1986 6.86148 23.1972H12.5762C13.2075 23.1972 13.7192 22.6854 13.7192 22.0542C13.7192 21.4229 13.2075 20.9112 12.5762 20.9112H6.86148C4.33651 20.9112 2.28965 18.8643 2.28965 16.3394C2.28965 13.8144 4.33651 11.7676 6.86148 11.7676C7.49274 11.7676 8.00445 11.2558 8.00445 10.6246C8.00653 9.36213 9.03164 8.34037 10.2941 8.34245C10.8911 8.34345 11.4641 8.57798 11.8904 8.99587C12.34 9.43894 13.0637 9.43365 13.5068 8.98409C13.6731 8.81526 13.7829 8.59894 13.8209 8.36495C14.4413 4.63252 17.9699 2.10977 21.7023 2.73017C25.4348 3.35058 27.9575 6.87922 27.3371 10.6117C27.3001 10.8342 27.2521 11.0548 27.1934 11.2726C27.062 11.7497 27.2525 12.2571 27.6655 12.5298C29.7694 13.9258 30.3433 16.7631 28.9472 18.867C28.1022 20.1405 26.6769 20.9075 25.1487 20.9111H21.7198C21.0886 20.9111 20.5768 21.4228 20.5768 22.0541C20.5768 22.6853 21.0886 23.197 21.7198 23.197H25.1487C28.9361 23.1935 32.0035 20.1202 31.9999 16.3328C31.998 14.317 31.1092 12.404 29.5696 11.1024Z" fill="#FFC000"/>
<path d="M23.6454 24.6758C23.2025 24.2481 22.5003 24.2481 22.0574 24.6758L18.2914 28.4396V11.7685C18.2914 11.1372 17.7797 10.6255 17.1484 10.6255C16.5171 10.6255 16.0054 11.1372 16.0054 11.7685V28.4395L12.2417 24.6758C11.7876 24.2372 11.0641 24.2498 10.6255 24.7038C10.1977 25.1468 10.1977 25.8489 10.6255 26.2919L16.3403 32.0066C16.786 32.4535 17.5098 32.4544 17.9567 32.0086C17.9573 32.008 17.958 32.0073 17.9587 32.0066L23.6735 26.2919C24.1121 25.8379 24.0995 25.1143 23.6454 24.6758Z" fill="#FFC000"/>
</svg>
