<svg width="22" height="24" viewBox="0 0 22 24" fill="none" xmlns="http://www.w3.org/2000/svg">
<path d="M18.125 4.80393H13.7871L16.5662 2.05649C16.6789 1.94463 16.7683 1.81182 16.8293 1.66567C16.8902 1.51951 16.9216 1.36286 16.9216 1.20466C16.9216 1.04646 16.8902 0.889815 16.8293 0.743659C16.7683 0.597502 16.6789 0.464701 16.5662 0.352838C16.4536 0.240974 16.3198 0.15224 16.1726 0.0916995C16.0254 0.0311595 15.8677 0 15.7083 0C15.3866 0 15.078 0.12692 14.8504 0.352838L10.875 4.31203L6.89958 0.352838C6.78692 0.240974 6.65317 0.15224 6.50597 0.0916995C6.35877 0.0311595 6.201 0 6.04167 0C5.88234 0 5.72457 0.0311595 5.57737 0.0916995C5.43016 0.15224 5.29641 0.240974 5.18375 0.352838C4.95622 0.578756 4.82839 0.885167 4.82839 1.20466C4.82839 1.36286 4.85977 1.51951 4.92074 1.66567C4.98172 1.81182 5.07109 1.94463 5.18375 2.05649L7.96292 4.80393H3.625C2.66359 4.80393 1.74156 5.18313 1.06174 5.85813C0.381919 6.53312 0 7.44861 0 8.40319V20.4007C0 21.3553 0.381919 22.2708 1.06174 22.9458C1.74156 23.6208 2.66359 24 3.625 24H18.125C19.0864 24 20.0084 23.6208 20.6883 22.9458C21.3681 22.2708 21.75 21.3553 21.75 20.4007V8.40319C21.75 7.44861 21.3681 6.53312 20.6883 5.85813C20.0084 5.18313 19.0864 4.80393 18.125 4.80393ZM19.3333 20.4007C19.3333 20.7189 19.206 21.0241 18.9794 21.2491C18.7528 21.4741 18.4455 21.6005 18.125 21.6005H3.625C3.30453 21.6005 2.99719 21.4741 2.77058 21.2491C2.54397 21.0241 2.41667 20.7189 2.41667 20.4007V8.40319C2.41667 8.085 2.54397 7.77983 2.77058 7.55484C2.99719 7.32984 3.30453 7.20344 3.625 7.20344H18.125C18.4455 7.20344 18.7528 7.32984 18.9794 7.55484C19.206 7.77983 19.3333 8.085 19.3333 8.40319V20.4007Z" fill="#524B8D"/>
</svg>
