<svg width="8" height="8" viewBox="0 0 8 8" fill="none" xmlns="http://www.w3.org/2000/svg">
<path d="M4 5.48242C3.77634 5.48242 3.58887 5.6699 3.58887 5.89355C3.58887 6.11721 3.77634 6.30468 4 6.30468C4.21543 6.30468 4.41113 6.11721 4.40126 5.90342C4.41113 5.66825 4.2253 5.48242 4 5.48242Z" fill="#FB0202"/>
<path d="M7.80533 6.93945C8.06352 6.49378 8.06516 5.9626 7.80862 5.51858L5.23329 1.05863C4.97839 0.609675 4.51793 0.343262 4.00155 0.343262C3.48516 0.343262 3.0247 0.611319 2.7698 1.05698L0.191184 5.52187C-0.065362 5.97082 -0.0637174 6.50529 0.196117 6.95096C0.452663 7.39169 0.911485 7.65646 1.42458 7.65646H6.56865C7.08338 7.65646 7.54549 7.3884 7.80533 6.93945ZM7.24619 6.61712C7.10312 6.8638 6.84986 7.01016 6.567 7.01016H1.42293C1.14336 7.01016 0.891751 6.86709 0.751966 6.62534C0.610537 6.38031 0.608893 6.08758 0.750322 5.8409L3.32894 1.37767C3.46872 1.13263 3.71869 0.987915 4.00155 0.987915C4.28276 0.987915 4.53437 1.13428 4.67416 1.37931L7.25112 5.84255C7.38926 6.08265 7.38762 6.37209 7.24619 6.61712Z" fill="#FB0202"/>
<path d="M3.89796 2.59657C3.70226 2.65248 3.58057 2.83009 3.58057 3.04552C3.59043 3.17544 3.59866 3.307 3.60852 3.43692C3.63648 3.93192 3.66444 4.41706 3.69239 4.91206C3.70226 5.0798 3.83218 5.20149 3.99992 5.20149C4.16766 5.20149 4.29922 5.07158 4.30745 4.90219C4.30745 4.80023 4.30745 4.70649 4.31731 4.60289C4.3354 4.28549 4.35514 3.9681 4.37323 3.65071C4.38309 3.44514 4.40118 3.23958 4.41105 3.03401C4.41105 2.96001 4.40118 2.89423 4.37323 2.82845C4.28936 2.64426 4.09366 2.55052 3.89796 2.59657Z" fill="#FB0202"/>
</svg>
