<svg width="127" height="28" viewBox="0 0 127 28" fill="none" xmlns="http://www.w3.org/2000/svg">
<path d="M52.8438 22.7886L47.5858 22.7829C43.8809 22.7788 40.8807 19.7719 40.8848 16.0663L40.977 4.35824C40.9827 3.63472 41.4626 3.00174 42.1573 2.8009L43.9797 2.27411L43.964 15.9774C43.9616 18.0779 45.6621 19.7826 47.7627 19.7851L52.1927 19.79C52.5541 19.7909 52.8471 20.0839 52.8471 20.4452L52.8438 22.7886Z" fill="#074DA4"/>
<path d="M54.589 10.4576L54.575 22.7903L57.5727 22.7938L57.5868 10.461L54.589 10.4576Z" fill="#074DA4"/>
<path d="M54.5913 8.15112L57.5891 8.15442L57.594 3.61493L55.6622 4.17218C55.03 4.35491 54.5938 4.93356 54.593 5.59123L54.5913 8.15112Z" fill="#074DA4"/>
<path d="M67.3513 7.39105C65.4466 7.38858 63.7074 8.05613 62.3846 9.24553L62.3928 2.29431L59.4798 3.16023L59.3704 22.7957L60.74 22.7973C61.2899 22.7981 61.7903 22.4796 62.0233 21.9808L62.3706 21.235C63.6909 22.4277 65.4285 23.0994 67.3332 23.101C71.7081 23.106 75.1388 19.6596 75.1437 15.2543C75.1487 10.8498 71.7253 7.39599 67.3513 7.39105ZM67.2665 10.3345C70.005 10.3378 72.1484 12.4977 72.1451 15.251C72.1418 18.0051 69.9943 20.1592 67.2558 20.1568C64.5173 20.1543 62.3739 17.9936 62.3772 15.2403C62.3805 12.4861 64.528 10.332 67.2665 10.3345Z" fill="#074DA4"/>
<path d="M100.083 7.53626C98.6075 7.53461 97.3687 7.933 96.4089 8.70673L96.1406 8.10668C96.0352 7.87127 95.8015 7.71899 95.5438 7.71899L93.412 7.71652L93.3955 22.1803C93.3947 22.5417 93.6877 22.8355 94.0499 22.8355L96.3933 22.838L96.4032 14.5245C96.4065 11.9893 97.7802 10.4773 100.08 10.4797H100.251C100.613 10.4805 100.906 10.1875 100.906 9.82535L100.909 7.53626H100.083Z" fill="#074DA4"/>
<path d="M105.673 19.8265C105.482 19.6512 105.386 19.2487 105.387 18.6297L105.396 10.4998L111.004 10.5064L109.621 7.53328L105.4 7.52834L105.404 3.68274L103.624 4.20377C102.885 4.42025 102.377 5.09768 102.376 5.86811L102.362 18.6264C102.36 20.1574 102.792 21.3057 103.646 22.0415C104.393 22.6844 105.415 23.0005 106.793 23.0021C107.364 23.0029 107.995 22.9494 108.693 22.8441L108.838 22.8218C109.158 22.7733 109.394 22.4984 109.394 22.1749L109.397 19.9146L108.499 19.9928C107.226 20.1031 106.052 20.1739 105.673 19.8265Z" fill="#074DA4"/>
<path d="M123.08 8.9293L119.453 18.1745L115.215 8.80913C114.848 8 114.043 7.48062 113.155 7.47897L111.348 7.4765L117.733 21.6489C117.844 21.8959 117.849 22.1774 117.747 22.4284C117.295 23.4845 116.378 25.1035 114.559 25.078L114.555 25.0788L113.06 25.0772L114.24 27.6215C114.347 27.8519 114.578 27.9993 114.832 28.0001C117.252 28.0026 119.435 26.2468 120.596 23.3231L126.879 7.49543L125.191 7.49379C124.257 7.49214 123.42 8.06174 123.08 8.9293Z" fill="#074DA4"/>
<path d="M86.0341 19.8224C83.7961 20.583 81.7037 19.9204 80.4798 18.135L91.9087 14.2508C91.9087 14.2508 91.4667 12.9873 91.4239 12.8605C90.7597 10.9073 89.4632 9.2956 87.7734 8.3235C85.9584 7.27979 83.8364 7.08635 81.7984 7.7786C79.7192 8.48565 78.0878 9.89483 77.2062 11.7477C76.3411 13.5643 76.2465 15.6879 76.9395 17.7268C78.4039 22.0366 82.6166 24.0936 86.956 22.6194C88.8393 21.979 90.3423 20.788 91.2552 19.2792L90.5341 18.5236C89.8715 17.8288 88.7743 17.8527 88.11 18.5458C87.5824 19.094 86.8754 19.536 86.0341 19.8224ZM82.7458 10.5657C83.8068 10.2051 84.9246 10.2414 85.8926 10.6677C86.7025 11.025 87.3915 11.6398 87.9166 12.4687L79.5085 15.3266C79.3488 13.156 80.5728 11.3048 82.7458 10.5657Z" fill="#074DA4"/>
<path d="M35.3701 10.7046L33.4728 4.62919C33.2827 4.02831 32.7905 3.57231 32.1773 3.42744L17.7587 0.0345523C17.0023 -0.143241 16.2623 0.3852 16.1858 1.15811L16.1092 1.92854C16.0919 2.1014 15.9298 2.2224 15.7594 2.18947L13.5666 1.76804C12.5064 1.5639 11.4775 2.24709 11.2536 3.30315L9.19009 13.0357C8.98431 14.007 9.68067 14.9363 10.6709 15.012L25.2902 16.124C25.5545 16.1438 25.7734 15.9215 25.7487 15.6573L25.6113 14.2004L13.0653 12.9394C12.4439 12.8768 12.0002 12.3064 12.0932 11.6891L13.2941 3.90485C13.3509 3.53527 13.6999 3.28422 14.0687 3.34677L15.8927 3.65709L15.5297 7.75374C15.4507 8.54969 16.017 9.26416 16.8105 9.36869L27.0015 10.7252C27.2986 10.7647 27.5357 10.9935 27.5859 11.2898L28.9745 19.5548C29.0461 19.9803 28.7103 20.3655 28.2782 20.3515L5.52393 19.6116C4.82428 19.5893 4.33041 18.9168 4.51808 18.2427L8.41883 4.25385L7.74717 4.24068C6.60056 4.21845 5.57002 4.93456 5.19057 6.01614L0.102884 20.5079C-0.307028 21.6759 0.558891 22.8983 1.79686 22.8991L29.4248 22.9106C30.6981 22.9114 31.6455 21.7352 31.3739 20.4915L30.8924 18.2855C30.8405 18.0485 31.0241 17.8262 31.2661 17.8312L32.746 17.8608C33.7124 17.8805 34.4211 16.9586 34.1544 16.0294L31.6159 7.20554C31.4365 6.58244 30.9261 6.1108 30.2907 5.98074L20.2281 3.92542C20.0684 3.8925 19.9194 4.01514 19.9202 4.17812L19.9235 5.06709L29.7063 6.91334C30.117 6.99071 30.4462 7.29938 30.55 7.70435L32.4308 15.0408C32.5427 15.4779 32.197 15.8985 31.7459 15.8721L30.3475 15.7915L29.2371 10.7063C29.0939 10.0486 28.5605 9.54731 27.8954 9.44442L18.4189 7.97845C17.9415 7.90437 17.5974 7.48211 17.6221 6.99976L17.9415 1.9697C17.9637 1.62481 18.2896 1.38117 18.6263 1.45772L31.9476 4.53206C32.239 4.59956 32.4711 4.8185 32.5551 5.10577L34.5561 12.0257L34.6976 11.9829C35.2384 11.8183 35.5405 11.2438 35.3701 10.7046Z" fill="#074DA4"/>
</svg>
