<svg width="100" height="30" viewBox="0 0 100 30" fill="none" xmlns="http://www.w3.org/2000/svg">
<path d="M13.9065 23.3396L7.79219 23.3331C3.48404 23.3284 -0.00478085 19.9075 4.91775e-06 15.6915L0.107206 2.37114C0.113906 1.54798 0.671923 0.827839 1.47976 0.59934L3.5989 0L3.58071 15.5903C3.57784 17.9802 5.55533 19.9196 7.99798 19.9225L13.1494 19.9281C13.5696 19.929 13.9103 20.2624 13.9103 20.6735L13.9065 23.3396Z" fill="white"/>
<path d="M15.9375 9.31116L15.9213 23.3423L19.4072 23.3462L19.4235 9.31509L15.9375 9.31116Z" fill="white"/>
<path d="M15.9399 6.68627L19.4259 6.69002L19.4316 1.52539L17.1852 2.15938C16.4501 2.36728 15.9428 3.02561 15.9419 3.77385L15.9399 6.68627Z" fill="white"/>
<path d="M30.7772 5.82255C28.5624 5.81974 26.5399 6.57921 25.0017 7.93241L25.0113 0.0239258L21.6239 1.00909L21.4966 23.3486L23.0893 23.3504C23.7287 23.3514 24.3107 22.989 24.5816 22.4215L24.9855 21.573C26.5207 22.93 28.5413 23.6941 30.7562 23.696C35.8434 23.7016 39.8328 19.7806 39.8386 14.7686C39.8443 9.75759 35.8635 5.82816 30.7772 5.82255ZM30.6786 9.17136C33.8631 9.17511 36.3555 11.6324 36.3517 14.7649C36.3478 17.8983 33.8506 20.3491 30.6662 20.3463C27.4817 20.3434 24.9893 17.8852 24.9931 14.7527C24.997 11.6193 27.4942 9.16855 30.6786 9.17136Z" fill="white"/>
<path d="M68.8395 5.98682C67.1243 5.98495 65.6838 6.4382 64.5677 7.31848L64.2557 6.6358C64.1332 6.36797 63.8614 6.19472 63.5618 6.19472L61.0827 6.19191L61.0636 22.6476C61.0626 23.0587 61.4034 23.393 61.8245 23.393L64.5495 23.3958L64.561 13.9375C64.5649 11.0531 66.1624 9.33283 68.8366 9.33564H69.0357C69.4559 9.33657 69.7976 9.00319 69.7976 8.59114L69.8005 5.98682H68.8395Z" fill="white"/>
<path d="M75.3395 19.9695C75.1174 19.77 75.0054 19.3121 75.0064 18.6079L75.0169 9.35838L81.539 9.36587L79.9309 5.98334L75.0217 5.97772L75.0265 1.60254L72.9571 2.19532C72.0976 2.44162 71.507 3.21233 71.5061 4.08887L71.4888 18.6041C71.4869 20.346 71.9894 21.6523 72.982 22.4896C73.8511 23.2209 75.0389 23.5805 76.6422 23.5824C77.3055 23.5834 78.0396 23.5225 78.8513 23.4026L79.0197 23.3773C79.3921 23.3221 79.6668 23.0093 79.6668 22.6413L79.6696 20.0697L78.6254 20.1587C77.1456 20.2842 75.7798 20.3647 75.3395 19.9695Z" fill="white"/>
<path d="M95.5827 7.57133L91.3645 18.0898L86.4362 7.4346C86.0102 6.51405 85.0741 5.92314 84.0414 5.92127L81.9395 5.91846L89.3641 22.0426C89.4933 22.3235 89.4991 22.6438 89.3804 22.9294C88.8558 24.1309 87.7886 25.973 85.6743 25.9439L85.6695 25.9449L83.9303 25.943L85.3029 28.8376C85.4273 29.0998 85.6953 29.2675 85.9911 29.2684C88.8051 29.2712 91.3435 27.2737 92.694 23.9474L100 5.94L98.0369 5.93812C96.9514 5.93625 95.978 6.58429 95.5827 7.57133Z" fill="white"/>
<path d="M52.5043 19.9644C49.9018 20.8297 47.4687 20.0758 46.0454 18.0446L59.3355 13.6254C59.3355 13.6254 58.8215 12.1879 58.7717 12.0437C57.9993 9.82148 56.4918 7.98787 54.5267 6.8819C52.4162 5.69446 49.9487 5.47439 47.5788 6.26196C45.161 7.06638 43.2639 8.66962 42.2388 10.7776C41.2328 12.8444 41.1228 15.2605 41.9287 17.5801C43.6315 22.4835 48.5302 24.8237 53.5763 23.1465C55.7662 22.4179 57.514 21.0629 58.5755 19.3463L57.737 18.4866C56.9665 17.6962 55.6906 17.7234 54.9182 18.5119C54.3047 19.1356 53.4825 19.6385 52.5043 19.9644ZM48.6804 9.43284C49.9142 9.02267 51.214 9.06387 52.3396 9.54897C53.2815 9.95539 54.0826 10.6549 54.6933 11.598L44.916 14.8494C44.7303 12.3799 46.1535 10.2738 48.6804 9.43284Z" fill="white"/>
</svg>
