<?xml version="1.0" encoding="utf-8"?>
<!-- Generator: Adobe Illustrator 22.0.1, SVG Export Plug-In . SVG Version: 6.00 Build 0)  -->
<svg version="1.1" id="Layer_1" xmlns="http://www.w3.org/2000/svg" xmlns:xlink="http://www.w3.org/1999/xlink" x="0px" y="0px"
	 viewBox="0 0 216 216" style="enable-background:new 0 0 216 216;" xml:space="preserve">
<style type="text/css">
	.st0{fill:#636569;}
	.st1{fill:none;}
	.st2{fill:#FFFFFF;}
	.st3{fill:#636569;stroke:#636569;stroke-width:0.3;stroke-miterlimit:10;}
	.st4{fill:#636569;stroke:#636569;stroke-width:0.2;stroke-miterlimit:10;}
	.st5{fill-rule:evenodd;clip-rule:evenodd;fill:#636569;}
</style>
<g>
	<path class="st0" d="M163.8,29H66.3c-0.4,0-0.7,0-1.1,0c-0.2,0-0.4,0-0.6,0H52.8c-6.1,0-17.5,0-17.5,18.2V141c0,2.5,2,4.5,4.5,4.5
		c2.5,0,4.5-2,4.5-4.5V47.2c0-9.3,2.3-9.3,8.6-9.3h11.7c0.2,0,0.4,0,0.6,0c4.8,0,8.8,4.2,8.8,9.3v123.2c0,5.1-3.9,9.3-8.8,9.3
		c-0.2,0-0.4,0-0.6,0H52.8c-7.4,0-8.6-1.3-8.6-9.3V162c0-2.5-2-4.5-4.5-4.5c-2.5,0-4.5,2-4.5,4.5v8.4c0,9.5,2.1,18.2,17.5,18.2h11.7
		c0.2,0,0.4,0,0.6,0c0.4,0,0.7,0,1.1,0h97.6c6.1,0,17.5,0,17.5-18.2V47.2C181.3,29,169.9,29,163.8,29z M172.4,170.4
		c0,9.3-2.3,9.3-8.6,9.3H80.5c1.6-2.7,2.5-5.9,2.5-9.3V47.2c0-3.4-0.9-6.6-2.5-9.3h83.4c6.2,0,8.6,0,8.6,9.3V170.4z"/>
	<path class="st0" d="M152.5,99.8c-2.5,0-4.5,2-4.5,4.5s2,4.5,4.5,4.5h0c2.5,0,4.5-2,4.5-4.5S155,99.8,152.5,99.8z"/>
	<path class="st0" d="M127.9,99.8c-2.5,0-4.5,2-4.5,4.5s2,4.5,4.5,4.5h0c2.5,0,4.5-2,4.5-4.5S130.4,99.8,127.9,99.8z"/>
	<path class="st0" d="M103.6,99.8c-2.5,0-4.5,2-4.5,4.5s2,4.5,4.5,4.5h0c2.5,0,4.5-2,4.5-4.5S106.1,99.8,103.6,99.8z"/>
	<path class="st0" d="M102.3,74.4h50.1c2.5,0,4.5-2,4.5-4.5s-2-4.5-4.5-4.5h-50.1c-2.5,0-4.5,2-4.5,4.5S99.8,74.4,102.3,74.4z"/>
	<path class="st0" d="M152.5,119.2c-2.5,0-4.5,2-4.5,4.5s2,4.5,4.5,4.5h0c2.5,0,4.5-2,4.5-4.5S155,119.2,152.5,119.2z"/>
	<path class="st0" d="M127.9,119.2c-2.5,0-4.5,2-4.5,4.5s2,4.5,4.5,4.5h0c2.5,0,4.5-2,4.5-4.5S130.4,119.2,127.9,119.2z"/>
	<path class="st0" d="M103.6,119.2c-2.5,0-4.5,2-4.5,4.5s2,4.5,4.5,4.5h0c2.5,0,4.5-2,4.5-4.5S106.1,119.2,103.6,119.2z"/>
	<path class="st0" d="M151.9,138.6c-2.5,0-4.5,2-4.5,4.5s2,4.5,4.5,4.5h0c2.5,0,4.5-2,4.5-4.5S154.3,138.6,151.9,138.6z"/>
	<path class="st0" d="M127.2,138.6c-2.5,0-4.5,2-4.5,4.5s2,4.5,4.5,4.5h0c2.5,0,4.5-2,4.5-4.5S129.7,138.6,127.2,138.6z"/>
	<path class="st0" d="M102.9,138.6c-2.5,0-4.5,2-4.5,4.5s2,4.5,4.5,4.5h0c2.5,0,4.5-2,4.5-4.5S105.4,138.6,102.9,138.6z"/>
</g>
</svg>
