<?xml version="1.0" encoding="utf-8"?>
<!-- Generator: Adobe Illustrator 22.0.1, SVG Export Plug-In . SVG Version: 6.00 Build 0)  -->
<svg version="1.1" id="Layer_1" xmlns="http://www.w3.org/2000/svg" xmlns:xlink="http://www.w3.org/1999/xlink" x="0px" y="0px"
	 viewBox="0 0 216 216" style="enable-background:new 0 0 216 216;" xml:space="preserve">
<style type="text/css">
	.st0{fill:#636569;}
	.st1{fill:none;}
	.st2{fill:#FFFFFF;}
	.st3{fill:#636569;stroke:#636569;stroke-width:0.3;stroke-miterlimit:10;}
	.st4{fill:#636569;stroke:#636569;stroke-width:0.2;stroke-miterlimit:10;}
	.st5{fill-rule:evenodd;clip-rule:evenodd;fill:#636569;}
</style>
<path class="st0" d="M181.7,35.6H32.9c-19.4,0-21.9,12.2-21.9,22.8v31.9c0,2.6,2.1,4.7,4.7,4.7s4.7-2.1,4.7-4.7V58.4
	c0-8.3,0.8-13.4,12.5-13.4h148.8c6.9,0,12.5,6,12.5,13.4v75c0,7.4-5.6,13.4-12.5,13.4H32.9c-11.7,0-12.5-5.1-12.5-13.4v-21.1
	c0-2.6-2.1-4.7-4.7-4.7s-4.7,2.1-4.7,4.7v21.1c0,10.6,2.5,22.8,21.9,22.8h69.7v13.5c-2.2,0.1-4.5,0.4-6.7,0.7l-21.6,3.4
	c-2.6,0.4-4.3,2.8-3.9,5.4c0.4,2.6,2.8,4.3,5.4,3.9l21.6-3.4c6.6-1,13.3-1,20,0l21.6,3.4c0.2,0,0.5,0.1,0.7,0.1c2.3,0,4.3-1.7,4.6-4
	c0.4-2.6-1.4-5-3.9-5.4l-21.6-3.4c-2.2-0.3-4.5-0.6-6.7-0.7v-13.5h69.8c12.1,0,21.9-10.2,21.9-22.8v-75
	C203.6,45.8,193.8,35.6,181.7,35.6z"/>
</svg>
