<?xml version="1.0" encoding="utf-8"?>
<!-- Generator: Adobe Illustrator 22.0.1, SVG Export Plug-In . SVG Version: 6.00 Build 0)  -->
<svg version="1.1" id="Layer_1" xmlns="http://www.w3.org/2000/svg" xmlns:xlink="http://www.w3.org/1999/xlink" x="0px" y="0px"
	 viewBox="0 0 216 216" style="enable-background:new 0 0 216 216;" xml:space="preserve">
<style type="text/css">
	.st0{fill:#636569;}
	.st1{fill:none;}
	.st2{fill:#FFFFFF;}
	.st3{fill:#636569;stroke:#636569;stroke-width:0.3;stroke-miterlimit:10;}
	.st4{fill:#636569;stroke:#636569;stroke-width:0.2;stroke-miterlimit:10;}
	.st5{fill-rule:evenodd;clip-rule:evenodd;fill:#636569;}
</style>
<g>
	<path class="st0" d="M108.9,174.5c-2.4,0-4.3,1.9-4.3,4.3c0,2.4,1.9,4.3,4.3,4.3h0c2.4,0,4.3-1.9,4.3-4.3
		C113.2,176.4,111.3,174.5,108.9,174.5z"/>
	<path class="st0" d="M158.6,33.1c-0.9-9.4-8.7-16.8-17.9-16.8H77.2c-9.2,0-17,7.4-17.7,16.9c0,0.1,0,0.2,0,0.3v87.7
		c0,2.4,1.9,4.3,4.3,4.3c2.4,0,4.3-1.9,4.3-4.3V33.7c0.4-5,4.5-8.9,9.2-8.9h63.5c4.7,0,8.8,3.9,9.3,8.9v125.8H67.9v-17.3
		c0-2.4-1.9-4.3-4.3-4.3c-2.4,0-4.3,1.9-4.3,4.3v38.9c0,0.1,0,0.2,0,0.3c0.7,9.5,8.5,16.9,17.7,16.9h63.5c9.1,0,17-7.4,17.9-16.8
		c0-0.1,0-0.3,0-0.4V33.5C158.6,33.4,158.6,33.3,158.6,33.1z M140.7,189.9H77.2c-4.8,0-8.8-3.9-9.2-8.9V168h82.1V181
		C149.5,186,145.4,189.9,140.7,189.9z"/>
</g>
</svg>
