<svg width="8" height="11" viewBox="0 0 8 11" fill="none" xmlns="http://www.w3.org/2000/svg">
<path d="M1.19505 0.746965C1.00882 0.934299 0.904297 1.18771 0.904297 1.45186C0.904297 1.716 1.00882 1.96942 1.19505 2.15675L4.73451 5.74621L1.19505 9.28567C1.00882 9.47301 0.904297 9.72642 0.904297 9.99056C0.904297 10.2547 1.00882 10.5081 1.19505 10.6955C1.28799 10.7892 1.39858 10.8636 1.52042 10.9143C1.64226 10.9651 1.77295 10.9912 1.90494 10.9912C2.03693 10.9912 2.16762 10.9651 2.28946 10.9143C2.4113 10.8636 2.52188 10.7892 2.61483 10.6955L6.85419 6.4561C6.9479 6.36315 7.02228 6.25257 7.07305 6.13073C7.12381 6.00889 7.14994 5.8782 7.14994 5.74621C7.14994 5.61422 7.12381 5.48353 7.07305 5.36169C7.02228 5.23985 6.9479 5.12926 6.85419 5.03631L2.61483 0.746965C2.52188 0.653251 2.4113 0.578868 2.28946 0.528108C2.16762 0.477346 2.03693 0.451211 1.90494 0.451211C1.77295 0.451211 1.64226 0.477346 1.52042 0.528108C1.39858 0.578868 1.28799 0.653251 1.19505 0.746965Z" fill="#FF4713"/>
</svg>
