<svg width="24" height="25" viewBox="0 0 24 25" fill="none" xmlns="http://www.w3.org/2000/svg">
<path d="M6.65015 2.74609C7.09146 2.75566 7.51114 2.94042 7.8178 3.26016C8.12447 3.57989 8.29327 4.00869 8.28744 4.45318V19.7405C8.29423 20.1857 8.12586 20.6154 7.81909 20.9359C7.51233 21.2564 7.09209 21.4417 6.65015 21.4513" stroke="#FF4713" stroke-width="1.10663" stroke-linecap="round" stroke-linejoin="round"/>
<path d="M3.527 16.0948V4.44732C3.527 2.82031 4.24987 2.74023 5.13539 2.74023H18.8157C19.7012 2.74023 20.4241 2.82031 20.4241 4.44732V19.7347C20.4241 21.3653 19.7012 21.4454 18.8157 21.4454H5.12816C3.79447 21.4454 3.51978 20.9067 3.51978 19.7347V18.7083" stroke="#FF4713" stroke-width="1.09728" stroke-linecap="round" stroke-linejoin="round"/>
<path d="M11.7616 13.2793H11.7576" stroke="#FF4713" stroke-width="1.10663" stroke-linecap="round" stroke-linejoin="round"/>
<path d="M11.7616 10.8086H11.7576" stroke="#FF4713" stroke-width="1.10663" stroke-linecap="round" stroke-linejoin="round"/>
<path d="M11.7616 15.4648H11.7576" stroke="#FF4713" stroke-width="1.10663" stroke-linecap="round" stroke-linejoin="round"/>
<path d="M14.5297 13.2793H14.5256" stroke="#FF4713" stroke-width="1.10663" stroke-linecap="round" stroke-linejoin="round"/>
<path d="M14.5309 10.8086H14.5269" stroke="#FF4713" stroke-width="1.10663" stroke-linecap="round" stroke-linejoin="round"/>
<path d="M14.5297 15.4648H14.5256" stroke="#FF4713" stroke-width="1.10663" stroke-linecap="round" stroke-linejoin="round"/>
<path d="M17.4218 13.2793H17.4177" stroke="#FF4713" stroke-width="1.10663" stroke-linecap="round" stroke-linejoin="round"/>
<path d="M17.4215 10.8086H17.4175" stroke="#FF4713" stroke-width="1.10663" stroke-linecap="round" stroke-linejoin="round"/>
<path d="M17.4218 15.4648H17.4177" stroke="#FF4713" stroke-width="1.10663" stroke-linecap="round" stroke-linejoin="round"/>
<path d="M11.2258 7.26953H17.4064" stroke="#FF4713" stroke-width="1.10663" stroke-linecap="round" stroke-linejoin="round"/>
</svg>
