<svg width="27" height="27" viewBox="0 0 27 27" fill="none" xmlns="http://www.w3.org/2000/svg">
<path d="M26.4017 4.86554C25.868 3.99462 25.1937 3.15179 24.379 2.33706C23.5642 1.52232 22.7214 0.848063 21.8786 0.314272C21.0638 -0.191424 19.9963 -0.0790475 19.2939 0.595214L3.08353 16.7775C2.99924 16.8618 2.94306 16.9461 2.88687 17.0584L0.0774442 25.0372C-0.0911212 25.4867 0.0212557 25.9643 0.358387 26.3014C0.58314 26.5262 0.892177 26.6667 1.20121 26.6667C1.34168 26.6667 1.48216 26.6386 1.59453 26.6105L9.5733 23.8011C9.68567 23.773 9.76995 23.6887 9.85424 23.6044L26.0927 7.42211C26.7951 6.71976 26.9074 5.68027 26.4017 4.86554ZM4.1792 18.1541C4.99394 18.6317 5.83676 19.306 6.6234 20.0926C7.41004 20.8793 8.05621 21.7221 8.53381 22.5368L3.92635 24.1663C3.78588 23.8853 3.58922 23.6044 3.36447 23.3796C3.11162 23.1268 2.85877 22.9582 2.57783 22.8178L4.1792 18.1541Z" fill="#636569"/>
</svg>
