<svg width="16" height="14" viewBox="0 0 16 14" fill="none" xmlns="http://www.w3.org/2000/svg">
<path fill-rule="evenodd" clip-rule="evenodd" d="M13.4573 1.17299C13.7234 0.909242 14.0826 0.760805 14.4572 0.759771C14.8319 0.758737 15.1919 0.90519 15.4594 1.16747C15.7269 1.42974 15.8805 1.78677 15.8868 2.16136C15.8932 2.53595 15.7519 2.898 15.4935 3.16924L7.90394 12.6562C7.7735 12.7967 7.61607 12.9094 7.44106 12.9877C7.26605 13.066 7.07705 13.1081 6.88538 13.1117C6.6937 13.1152 6.50327 13.0801 6.32548 13.0084C6.1477 12.9366 5.9862 12.8298 5.85065 12.6942L0.821995 7.66366C0.681902 7.53312 0.569537 7.3757 0.491604 7.20079C0.41367 7.02589 0.371764 6.83707 0.368386 6.64562C0.365008 6.45416 0.400227 6.26399 0.471942 6.08644C0.543657 5.90889 0.650399 5.7476 0.785799 5.6122C0.9212 5.4768 1.08249 5.37006 1.26003 5.29835C1.43758 5.22663 1.62776 5.19141 1.81921 5.19479C2.01067 5.19817 2.19948 5.24007 2.37439 5.31801C2.5493 5.39594 2.70672 5.50831 2.83726 5.6484L6.81836 9.62759L13.4212 1.21482C13.433 1.20009 13.4457 1.18612 13.4592 1.17299H13.4573Z" fill="#FF4713"/>
</svg>
