<svg width="134" height="137" viewBox="0 0 134 137" fill="none" xmlns="http://www.w3.org/2000/svg">
<path fill-rule="evenodd" clip-rule="evenodd" d="M60.0473 136.16C49.7559 136.106 40.9858 133.214 33.2147 127.714C22.0163 119.79 12.8142 109.902 6.05309 97.9186C-1.48426 84.5565 -1.55767 70.807 4.51575 56.8819C8.61813 47.4762 14.6932 39.3845 21.4045 31.7426C29.7232 22.2693 39.159 14.067 49.766 7.23027C63.581 -1.67164 77.8204 -2.0801 92.2141 5.512C108.317 14.0054 120.585 26.5473 129.201 42.5104C135.472 54.1307 135.092 66.1248 129.806 78.0623C126.588 85.327 121.911 91.6743 117.155 97.9625C108.759 109.063 98.5154 117.377 87.6705 125.966C80.7313 131.462 72.9172 134.958 64.0569 135.91C62.5018 136.077 60.9324 136.108 60.0473 136.16Z" fill="url(#paint0_radial)"/>
<defs>
<radialGradient id="paint0_radial" cx="0" cy="0" r="1" gradientUnits="userSpaceOnUse" gradientTransform="translate(49.7516 0.160158) rotate(84.3432) scale(122.545 120.45)">
<stop offset="0.117109" stop-color="#9D1E96"/>
<stop offset="1" stop-color="#D61180"/>
</radialGradient>
</defs>
</svg>
