<svg width="21" height="24" viewBox="0 0 21 24" fill="none" xmlns="http://www.w3.org/2000/svg">
<path d="M14.226 8.27203L12.5298 8.20312L12.1621 19.3256L13.8582 19.3942L14.226 8.27203Z" fill="#6B6B6B"/>
<path d="M10.9463 8.23828H9.24902V19.3608H10.9463V8.23828Z" fill="#6B6B6B"/>
<path d="M8.0326 19.3257L7.66488 8.20312L5.96875 8.27208L6.33652 19.3946L8.0326 19.3257Z" fill="#6B6B6B"/>
<path d="M0 3.60156V5.4814H1.76854L3.17155 23.1405C3.21002 23.6258 3.57694 23.9981 4.01678 23.9981H16.1518C16.5917 23.9981 16.9589 23.6255 16.997 23.1402L18.4001 5.4814H20.1972V3.60156H0ZM15.3745 22.1182H4.79387L3.47228 5.4814H16.6964L15.3745 22.1182Z" fill="#6B6B6B"/>
<path d="M12.8708 0H7.32647C6.54658 0 5.91211 0.702737 5.91211 1.56653V4.543H7.60934V1.87984H12.5879V4.543H14.2852V1.56653C14.2852 0.702737 13.6507 0 12.8708 0Z" fill="#6B6B6B"/>
</svg>
