<svg width="15" height="21" viewBox="0 0 15 21" fill="none" xmlns="http://www.w3.org/2000/svg">
<path d="M12.5 0.5H5L0 5.5V18C0 19.4062 1.09375 20.5 2.5 20.5H12.5C13.8672 20.5 15 19.4062 15 18V3C15 1.63281 13.8672 0.5 12.5 0.5ZM6.25 6.75H4.375V3H6.25V6.75ZM9.375 6.75H7.5V3H9.375V6.75ZM12.5 6.75H10.625V3H12.5V6.75Z" fill="#2D2D2D"/>
</svg>
