<svg width="20" height="21" viewBox="0 0 20 21" fill="none" xmlns="http://www.w3.org/2000/svg">
<path d="M16.25 2.375C16.25 1.35938 15.3906 0.5 14.375 0.5H5.625C4.57031 0.5 3.75 1.35938 3.75 2.375V18.625C3.75 19.6797 4.57031 20.5 5.625 20.5H14.375C15.3906 20.5 16.25 19.6797 16.25 18.625V2.375ZM20 4.64062C20 4.52344 19.8828 4.40625 19.7656 4.40625H19.0625V4.17188C19.0625 4.05469 18.9453 3.9375 18.8281 3.9375H17.1875V5.8125H18.8281C18.9453 5.8125 19.0625 5.73438 19.0625 5.57812V5.34375H19.7656C19.8828 5.34375 20 5.26562 20 5.10938V4.64062ZM20 8.39062C20 8.27344 19.8828 8.15625 19.7656 8.15625H19.0625V7.92188C19.0625 7.80469 18.9453 7.6875 18.8281 7.6875H17.1875V9.5625H18.8281C18.9453 9.5625 19.0625 9.48438 19.0625 9.32812V9.09375H19.7656C19.8828 9.09375 20 9.01562 20 8.85938V8.39062ZM20 12.1406C20 12.0234 19.8828 11.9062 19.7656 11.9062H19.0625V11.6719C19.0625 11.5547 18.9453 11.4375 18.8281 11.4375H17.1875V13.3125H18.8281C18.9453 13.3125 19.0625 13.2344 19.0625 13.0781V12.8438H19.7656C19.8828 12.8438 20 12.7656 20 12.6094V12.1406ZM20 15.8906C20 15.7734 19.8828 15.6562 19.7656 15.6562H19.0625V15.4219C19.0625 15.3047 18.9453 15.1875 18.8281 15.1875H17.1875V17.0625H18.8281C18.9453 17.0625 19.0625 16.9844 19.0625 16.8281V16.5938H19.7656C19.8828 16.5938 20 16.5156 20 16.3594V15.8906ZM1.17188 15.1875C1.01562 15.1875 0.9375 15.3047 0.9375 15.4219V15.6562H0.234375C0.078125 15.6562 0 15.7734 0 15.8906V16.3594C0 16.5156 0.078125 16.5938 0.234375 16.5938H0.9375V16.8281C0.9375 16.9844 1.01562 17.0625 1.17188 17.0625H2.8125V15.1875H1.17188ZM1.17188 11.4375C1.01562 11.4375 0.9375 11.5547 0.9375 11.6719V11.9062H0.234375C0.078125 11.9062 0 12.0234 0 12.1406V12.6094C0 12.7656 0.078125 12.8438 0.234375 12.8438H0.9375V13.0781C0.9375 13.2344 1.01562 13.3125 1.17188 13.3125H2.8125V11.4375H1.17188ZM1.17188 7.6875C1.01562 7.6875 0.9375 7.80469 0.9375 7.92188V8.15625H0.234375C0.078125 8.15625 0 8.27344 0 8.39062V8.85938C0 9.01562 0.078125 9.09375 0.234375 9.09375H0.9375V9.32812C0.9375 9.48438 1.01562 9.5625 1.17188 9.5625H2.8125V7.6875H1.17188ZM1.17188 3.9375C1.01562 3.9375 0.9375 4.05469 0.9375 4.17188V4.40625H0.234375C0.078125 4.40625 0 4.52344 0 4.64062V5.10938C0 5.26562 0.078125 5.34375 0.234375 5.34375H0.9375V5.57812C0.9375 5.73438 1.01562 5.8125 1.17188 5.8125H2.8125V3.9375H1.17188Z" fill="#2D2D2D"/>
</svg>
