<svg width="12" height="8" viewBox="0 0 12 8" fill="none" xmlns="http://www.w3.org/2000/svg">
<path d="M1.04988 6.83401C1.23722 7.02023 1.49063 7.12476 1.75478 7.12476C2.01892 7.12476 2.27234 7.02023 2.45967 6.83401L6.04913 3.29454L9.58859 6.83401C9.77592 7.02023 10.0293 7.12476 10.2935 7.12476C10.5576 7.12476 10.811 7.02023 10.9984 6.83401C11.0921 6.74106 11.1665 6.63047 11.2172 6.50863C11.268 6.38679 11.2941 6.25611 11.2941 6.12411C11.2941 5.99212 11.268 5.86144 11.2172 5.7396C11.1665 5.61776 11.0921 5.50717 10.9984 5.41422L6.75902 1.17486C6.66607 1.08115 6.55548 1.00677 6.43364 0.956007C6.3118 0.905246 6.18112 0.879111 6.04913 0.879111C5.91713 0.879111 5.78645 0.905246 5.66461 0.956007C5.54277 1.00677 5.43218 1.08115 5.33923 1.17486L1.04988 5.41422C0.956168 5.50717 0.881786 5.61775 0.831025 5.7396C0.780264 5.86144 0.754129 5.99212 0.754129 6.12411C0.754129 6.25611 0.780264 6.38679 0.831025 6.50863C0.881785 6.63047 0.956168 6.74106 1.04988 6.83401Z" fill="white"/>
</svg>
