<svg width="33" height="33" viewBox="0 0 33 33" fill="none" xmlns="http://www.w3.org/2000/svg">
<path d="M16.3976 14.0469V8.65686" stroke="#981D97" stroke-linecap="round" stroke-linejoin="round"/>
<path d="M16.3976 4.34477V3.26675" stroke="#981D97" stroke-linecap="round" stroke-linejoin="round"/>
<path d="M8.0034 7.30955L7.19489 6.50104" stroke="#981D97" stroke-linecap="round" stroke-linejoin="round"/>
<ellipse cx="16.358" cy="16.7419" rx="2.15603" ry="2.15603" stroke="#981D97"/>
<path fill-rule="evenodd" clip-rule="evenodd" d="M16.3582 4.88394C9.80908 4.88394 4.5 10.193 4.5 16.7421C4.5 23.2912 9.80908 28.6003 16.3582 28.6003C22.9072 28.6003 28.2163 23.2912 28.2163 16.7421C28.2163 13.5971 26.967 10.581 24.7431 8.35712C22.5193 6.13328 19.5031 4.88394 16.3582 4.88394Z" stroke="#981D97"/>
</svg>
