<svg width="21" height="21" viewBox="0 0 21 21" fill="none" xmlns="http://www.w3.org/2000/svg">
<path d="M19.2969 1.47656C19.7917 1.58073 20.0391 1.88021 20.0391 2.375C20.0391 7.375 18.2682 11.6458 14.7266 15.1875C11.1849 18.7292 6.91406 20.5 1.91406 20.5C1.41927 20.5 1.11979 20.2526 1.01562 19.7578L0.078125 15.6953C-0.0520833 15.2005 0.130208 14.849 0.625 14.6406L5 12.7656C5.41667 12.5833 5.78125 12.6745 6.09375 13.0391L8.00781 15.3828C9.54427 14.6797 10.8984 13.7292 12.0703 12.5312C13.2682 11.3333 14.2188 9.97917 14.9219 8.46875L12.5781 6.51562C12.2135 6.22917 12.1224 5.86458 12.3047 5.42188L14.1797 1.04688C14.388 0.578125 14.7396 0.408854 15.2344 0.539062L19.2969 1.47656Z" fill="#2D2D2D"/>
</svg>
