<svg width="9" height="9" viewBox="0 0 9 9" fill="none" xmlns="http://www.w3.org/2000/svg">
<rect x="3.9126" y="0.764893" width="1.63301" height="8.08996" rx="0.816503" fill="#FF4713"/>
<rect x="8.81152" y="4.00049" width="1.61799" height="8.16503" rx="0.808996" transform="rotate(90 8.81152 4.00049)" fill="#FF4713"/>
</svg>
