<svg width="196" height="109" viewBox="0 0 196 109" fill="none" xmlns="http://www.w3.org/2000/svg">
<path d="M0.910086 2.38059C0.872101 1.56949 1.51946 0.891113 2.33145 0.891113H194.357C195.143 0.891113 195.78 1.52817 195.78 2.31403V103.063C195.78 103.836 195.162 104.468 194.389 104.485L7.27613 108.646C6.50408 108.663 5.85927 108.062 5.82314 107.29L0.910086 2.38059Z" fill="#971D96"/>
</svg>
