<svg width="21" height="18" viewBox="0 0 21 18" fill="none" xmlns="http://www.w3.org/2000/svg">
<path fill-rule="evenodd" clip-rule="evenodd" d="M14.581 11.5005H13.7087L13.4054 11.2265C14.4766 10.0895 15.1281 8.61546 15.1281 7.00046C15.1281 3.41046 11.931 0.500458 7.98679 0.500458C4.04258 0.500458 0.845459 3.41046 0.845459 7.00046C0.845459 10.5905 4.04258 13.5005 7.98679 13.5005C9.76114 13.5005 11.3795 12.9085 12.6287 11.9345L12.9319 12.2085V13.0005L18.423 17.9915L20.0611 16.5005L14.581 11.5005ZM7.98624 11.5005C5.25495 11.5005 3.04224 9.48653 3.04224 7.00053C3.04224 4.51553 5.25495 2.50053 7.98624 2.50053C10.7164 2.50053 12.9302 4.51553 12.9302 7.00053C12.9302 9.48653 10.7164 11.5005 7.98624 11.5005Z" fill="#FF4713"/>
</svg>
