<svg width="24" height="24" viewBox="0 0 24 24" fill="none" xmlns="http://www.w3.org/2000/svg">
<path fill-rule="evenodd" clip-rule="evenodd" d="M0 0.799997C0 0.587824 0.0842852 0.384342 0.234314 0.234314C0.384342 0.0842851 0.587825 0 0.799997 0H3.19999C3.37844 4.92982e-05 3.55175 0.0597608 3.69236 0.169639C3.83296 0.279517 3.9328 0.433253 3.97598 0.606398L4.62398 3.19999H23.1999C23.3174 3.2001 23.4334 3.22607 23.5397 3.27607C23.646 3.32607 23.7399 3.39886 23.8149 3.48927C23.8899 3.57969 23.9441 3.68551 23.9736 3.79921C24.003 3.91292 24.0071 4.03172 23.9855 4.14718L21.5855 16.9471C21.5512 17.1305 21.4539 17.296 21.3105 17.4152C21.167 17.5344 20.9864 17.5998 20.7999 17.5999H6.39997C6.21347 17.5998 6.03288 17.5344 5.88943 17.4152C5.74599 17.296 5.6487 17.1305 5.61438 16.9471L3.21599 4.17118L2.57599 1.59999H0.799997C0.587825 1.59999 0.384342 1.51571 0.234314 1.36568C0.0842852 1.21565 0 1.01217 0 0.799997ZM4.96318 4.79998L7.06397 15.9999H20.1359L22.2367 4.79998H4.96318ZM7.99997 17.5999C7.15128 17.5999 6.33735 17.9371 5.73724 18.5372C5.13712 19.1373 4.79998 19.9512 4.79998 20.7999C4.79998 21.6486 5.13712 22.4625 5.73724 23.0626C6.33735 23.6628 7.15128 23.9999 7.99997 23.9999C8.84866 23.9999 9.66259 23.6628 10.2627 23.0626C10.8628 22.4625 11.2 21.6486 11.2 20.7999C11.2 19.9512 10.8628 19.1373 10.2627 18.5372C9.66259 17.9371 8.84866 17.5999 7.99997 17.5999ZM19.1999 17.5999C18.3512 17.5999 17.5373 17.9371 16.9372 18.5372C16.3371 19.1373 15.9999 19.9512 15.9999 20.7999C15.9999 21.6486 16.3371 22.4625 16.9372 23.0626C17.5373 23.6628 18.3512 23.9999 19.1999 23.9999C20.0486 23.9999 20.8625 23.6628 21.4627 23.0626C22.0628 22.4625 22.3999 21.6486 22.3999 20.7999C22.3999 19.9512 22.0628 19.1373 21.4627 18.5372C20.8625 17.9371 20.0486 17.5999 19.1999 17.5999ZM7.99997 19.1999C7.57562 19.1999 7.16866 19.3685 6.8686 19.6686C6.56855 19.9686 6.39997 20.3756 6.39997 20.7999C6.39997 21.2243 6.56855 21.6312 6.8686 21.9313C7.16866 22.2313 7.57562 22.3999 7.99997 22.3999C8.42431 22.3999 8.83128 22.2313 9.13134 21.9313C9.43139 21.6312 9.59996 21.2243 9.59996 20.7999C9.59996 20.3756 9.43139 19.9686 9.13134 19.6686C8.83128 19.3685 8.42431 19.1999 7.99997 19.1999ZM19.1999 19.1999C18.7756 19.1999 18.3686 19.3685 18.0686 19.6686C17.7685 19.9686 17.5999 20.3756 17.5999 20.7999C17.5999 21.2243 17.7685 21.6312 18.0686 21.9313C18.3686 22.2313 18.7756 22.3999 19.1999 22.3999C19.6243 22.3999 20.0312 22.2313 20.3313 21.9313C20.6313 21.6312 20.7999 21.2243 20.7999 20.7999C20.7999 20.3756 20.6313 19.9686 20.3313 19.6686C20.0312 19.3685 19.6243 19.1999 19.1999 19.1999Z" fill="#63666A"/>
</svg>
