<svg width="26" height="19" viewBox="0 0 26 19" fill="none" xmlns="http://www.w3.org/2000/svg">
<path d="M24.8438 5.55469C24.974 5.65885 25.0391 5.80208 25.0391 5.98438C25.0391 6.16667 24.974 6.32292 24.8438 6.45312L23.5156 7.78125C23.2292 8.06771 22.9427 8.06771 22.6562 7.78125C19.7917 5.17708 16.4193 3.875 12.5391 3.875C8.65885 3.875 5.28646 5.17708 2.42188 7.78125C2.13542 8.06771 1.84896 8.06771 1.5625 7.78125L0.234375 6.45312C0.104167 6.32292 0.0390625 6.16667 0.0390625 5.98438C0.0390625 5.80208 0.104167 5.65885 0.234375 5.55469C2.5 3.44531 5.11719 2.02604 8.08594 1.29688C11.0547 0.541667 14.0234 0.541667 16.9922 1.29688C19.9609 2.02604 22.5781 3.44531 24.8438 5.55469ZM10.7422 13.9922C11.237 13.4974 11.8359 13.25 12.5391 13.25C13.2422 13.25 13.8281 13.4974 14.2969 13.9922C14.7917 14.4609 15.0391 15.0469 15.0391 15.75C15.0391 16.4531 14.7917 17.0391 14.2969 17.5078C13.8281 18.0026 13.2422 18.25 12.5391 18.25C11.8359 18.25 11.237 18.0026 10.7422 17.5078C10.2734 17.0391 10.0391 16.4531 10.0391 15.75C10.0391 15.0469 10.2734 14.4609 10.7422 13.9922ZM20.4688 9.96875C20.599 10.099 20.6641 10.2552 20.6641 10.4375C20.6641 10.6198 20.599 10.776 20.4688 10.9062L19.1406 12.2344C18.8542 12.4948 18.5677 12.4948 18.2812 12.2344C16.6406 10.8281 14.7266 10.125 12.5391 10.125C10.3516 10.125 8.4375 10.8281 6.79688 12.2344C6.51042 12.4948 6.22396 12.4948 5.9375 12.2344L4.60938 10.9062C4.47917 10.776 4.41406 10.6198 4.41406 10.4375C4.41406 10.2552 4.47917 10.099 4.60938 9.96875C6.875 7.98958 9.51823 7 12.5391 7C15.5599 7 18.2031 7.98958 20.4688 9.96875Z" fill="#2D2D2D"/>
</svg>
